%!PS-Adobe-3.0 EPSF-3.0
%%Creator: cairo 1.11.2 (http://cairographics.org)
%%CreationDate: Sun Sep 29 15:31:17 2013
%%Pages: 1
%%DocumentData: Clean7Bit
%%LanguageLevel: 2
%%BoundingBox: 0 -1 327 295
%%EndComments
%%BeginProlog
/cairo_eps_state save def
/dict_count countdictstack def
/op_count count 1 sub def
userdict begin
/q { gsave } bind def
/Q { grestore } bind def
/cm { 6 array astore concat } bind def
/w { setlinewidth } bind def
/J { setlinecap } bind def
/j { setlinejoin } bind def
/M { setmiterlimit } bind def
/d { setdash } bind def
/m { moveto } bind def
/l { lineto } bind def
/c { curveto } bind def
/h { closepath } bind def
/re { exch dup neg 3 1 roll 5 3 roll moveto 0 rlineto
      0 exch rlineto 0 rlineto closepath } bind def
/S { stroke } bind def
/f { fill } bind def
/f* { eofill } bind def
/n { newpath } bind def
/W { clip } bind def
/W* { eoclip } bind def
/BT { } bind def
/ET { } bind def
/pdfmark where { pop globaldict /?pdfmark /exec load put }
    { globaldict begin /?pdfmark /pop load def /pdfmark
    /cleartomark load def end } ifelse
/BDC { mark 3 1 roll /BDC pdfmark } bind def
/EMC { mark /EMC pdfmark } bind def
/cairo_store_point { /cairo_point_y exch def /cairo_point_x exch def } def
/Tj { show currentpoint cairo_store_point } bind def
/TJ {
  {
    dup
    type /stringtype eq
    { show } { -0.001 mul 0 cairo_font_matrix dtransform rmoveto } ifelse
  } forall
  currentpoint cairo_store_point
} bind def
/cairo_selectfont { cairo_font_matrix aload pop pop pop 0 0 6 array astore
    cairo_font exch selectfont cairo_point_x cairo_point_y moveto } bind def
/Tf { pop /cairo_font exch def /cairo_font_matrix where
      { pop cairo_selectfont } if } bind def
/Td { matrix translate cairo_font_matrix matrix concatmatrix dup
      /cairo_font_matrix exch def dup 4 get exch 5 get cairo_store_point
      /cairo_font where { pop cairo_selectfont } if } bind def
/Tm { 2 copy 8 2 roll 6 array astore /cairo_font_matrix exch def
      cairo_store_point /cairo_font where { pop cairo_selectfont } if } bind def
/g { setgray } bind def
/rg { setrgbcolor } bind def
/d1 { setcachedevice } bind def
%%EndProlog
%%Page: 1 1
%%BeginPageSetup
%%PageBoundingBox: 0 -1 327 295
%%EndPageSetup
q 0 -1 327 296 rectclip q
0 294.944 327 -295 re W n
1 0 0 rg
0.08 w
1 J
1 j
[] 0.0 d
10 M q 1 0 0 -1 0 294.943512 cm
306.113 58.012 m 303.625 58.012 301.613 60.027 301.613 62.512 c 301.613
 64.996 303.625 67.012 306.113 67.012 c 308.598 67.012 310.613 64.996 310.613
 62.512 c 310.613 60.027 308.598 58.012 306.113 58.012 c S Q
0.08 w
q 1 0 0 -1 0 294.943512 cm
195.594 236.57 m 193.105 236.57 191.094 238.586 191.094 241.07 c 191.094
 243.559 193.105 245.57 195.594 245.57 c 198.078 245.57 200.094 243.559 
200.094 241.07 c 200.094 238.586 198.078 236.57 195.594 236.57 c S Q
0.08 w
q 1 0 0 -1 0 294.943512 cm
306.113 236.57 m 303.625 236.57 301.613 238.586 301.613 241.07 c 301.613
 243.559 303.625 245.57 306.113 245.57 c 308.598 245.57 310.613 243.559 
310.613 241.07 c 310.613 238.586 308.598 236.57 306.113 236.57 c S Q
0.08 w
q 1 0 0 -1 0 294.943512 cm
189.953 12.652 m 187.465 12.652 185.453 14.668 185.453 17.152 c 185.453
 19.637 187.465 21.652 189.953 21.652 c 192.438 21.652 194.453 19.637 194.453
 17.152 c 194.453 14.668 192.438 12.652 189.953 12.652 c S Q
0 0 1 rg
0.08 w
q 1 0 0 -1 0 294.943512 cm
266.453 5.813 m 266.453 51.172 l 320.332 51.172 l 325.973 56.813 m 325.973
 243.891 l 175.73 0.172 m 260.813 0.172 l 326.094 56.75 m 326.09 53.602 
323.539 51.051 320.391 51.051 c 170.094 243.832 m 170.094 246.98 172.645
 249.531 175.793 249.531 c 320.391 249.531 m 323.539 249.531 326.094 246.98
 326.094 243.832 c 266.57 5.75 m 266.57 2.602 264.02 0.051 260.871 0.051
 c 175.793 0.051 m 172.645 0.051 170.094 2.605 170.094 5.75 c 320.332 249.531
 m 175.73 249.531 l 170.094 243.891 m 170.094 5.813 l S Q
0.08 w
q 1 0 0 1 0 294.943512 cm
0.051 -289.191 m 0.051 -292.34 2.605 -294.891 5.754 -294.891 c 150.172 
-294.891 m 5.691 -294.891 l 0.051 -289.25 m 0.051 -5.813 l 150.23 -294.891
 m 153.379 -294.891 155.934 -292.34 155.934 -289.191 c 155.934 -5.813 m 
155.934 -289.25 l 155.934 -5.75 m 155.934 -2.602 153.379 -0.051 150.23 -0.051
 c 5.691 -0.172 m 150.172 -0.172 l 5.754 -0.051 m 2.605 -0.051 0.051 -2.605
 0.051 -5.75 c S Q
1 0 0 rg
0.08 w
q 1 0 0 1 0 294.943512 cm
136.07 -236.934 m 133.586 -236.934 131.57 -234.918 131.57 -232.434 c 131.57
 -229.945 133.586 -227.934 136.07 -227.934 c 138.559 -227.934 140.57 -229.945
 140.57 -232.434 c 140.57 -234.918 138.559 -236.934 136.07 -236.934 c S Q
0.08 w
q 1 0 0 1 0 294.943512 cm
25.551 -58.371 m 23.066 -58.371 21.051 -56.355 21.051 -53.871 c 21.051 
-51.387 23.066 -49.371 25.551 -49.371 c 28.039 -49.371 30.051 -51.387 30.051
 -53.871 c 30.051 -56.355 28.039 -58.371 25.551 -58.371 c S Q
0.08 w
q 1 0 0 1 0 294.943512 cm
136.07 -58.371 m 133.586 -58.371 131.57 -56.355 131.57 -53.871 c 131.57
 -51.387 133.586 -49.371 136.07 -49.371 c 138.559 -49.371 140.57 -51.387
 140.57 -53.871 c 140.57 -56.355 138.559 -58.371 136.07 -58.371 c S Q
0.08 w
q 1 0 0 1 0 294.943512 cm
19.91 -282.293 m 17.426 -282.293 15.41 -280.277 15.41 -277.793 c 15.41 
-275.305 17.426 -273.293 19.91 -273.293 c 22.398 -273.293 24.41 -275.305
 24.41 -277.793 c 24.41 -280.277 22.398 -282.293 19.91 -282.293 c S Q
0.08 w
q 1 0 0 1 0 294.943512 cm
77.992 -7.133 m 77.23 -7.133 76.613 -6.516 76.613 -5.75 c 76.613 -4.988
 77.23 -4.371 77.992 -4.371 c 78.754 -4.371 79.371 -4.988 79.371 -5.75 c
 79.371 -6.516 78.754 -7.133 77.992 -7.133 c S Q
0 g
38.539 222.486 m 38.145 222.486 37.789 222.545 37.469 222.654 c 37.148 
222.768 36.875 222.928 36.656 223.143 c 36.43 223.358 36.258 223.623 36.137
 223.932 c 36.016 224.248 35.957 224.604 35.953 225.006 c 35.957 225.451
 36.012 225.83 36.125 226.139 c 36.238 226.451 36.402 226.705 36.621 226.897
 c 36.832 227.096 37.09 227.236 37.391 227.322 c 37.688 227.412 38.02 227.455
 38.391 227.455 c 43.199 227.455 l 43.199 226.483 l 38.469 226.483 l 38.184
 226.483 37.938 226.459 37.73 226.404 c 37.516 226.358 37.34 226.272 37.199
 226.147 c 37.055 226.029 36.945 225.873 36.875 225.678 c 36.801 225.49 
36.766 225.256 36.766 224.975 c 36.766 224.459 36.914 224.076 37.215 223.83
 c 37.512 223.584 37.934 223.459 38.48 223.459 c 43.199 223.459 l 43.199
 222.486 l h
37.988 216.432 m 37.645 216.436 37.348 216.506 37.094 216.643 c 36.836 
216.783 36.621 216.975 36.457 217.221 c 36.285 217.471 36.16 217.772 36.078
 218.115 c 35.996 218.467 35.957 218.85 35.953 219.264 c 35.957 219.459 
35.965 219.647 35.977 219.83 c 35.992 220.022 36.012 220.201 36.031 220.373
 c 36.055 220.545 36.074 220.709 36.105 220.861 c 36.129 221.018 36.16 221.158
 36.199 221.279 c 37.141 221.279 l 37.035 221.01 36.953 220.701 36.898 220.358
 c 36.84 220.018 36.813 219.631 36.813 219.194 c 36.813 218.885 36.836 218.615
 36.883 218.393 c 36.93 218.174 37 217.994 37.102 217.854 c 37.195 217.713
 37.316 217.611 37.457 217.549 c 37.594 217.486 37.75 217.455 37.934 217.451
 c 38.121 217.455 38.285 217.51 38.426 217.611 c 38.559 217.721 38.684 217.861
 38.793 218.037 c 38.898 218.213 38.996 218.412 39.086 218.635 c 39.176 
218.861 39.266 219.092 39.363 219.322 c 39.457 219.557 39.563 219.783 39.672
 220.006 c 39.781 220.233 39.91 220.432 40.066 220.608 c 40.215 220.783 
40.395 220.924 40.598 221.029 c 40.801 221.139 41.043 221.194 41.328 221.19
 c 41.57 221.194 41.813 221.143 42.051 221.037 c 42.285 220.94 42.492 220.783
 42.68 220.565 c 42.859 220.354 43.008 220.076 43.125 219.736 c 43.234 219.401
 43.293 218.998 43.297 218.526 c 43.293 218.408 43.289 218.276 43.281 218.135
 c 43.27 217.994 43.254 217.854 43.234 217.709 c 43.211 217.569 43.188 217.428
 43.164 217.283 c 43.141 217.147 43.113 217.014 43.082 216.893 c 42.207 
216.893 l 42.285 217.174 42.348 217.455 42.391 217.736 c 42.43 218.018 42.449
 218.291 42.453 218.549 c 42.449 219.111 42.355 219.522 42.176 219.779 c
 41.988 220.045 41.738 220.174 41.426 220.174 c 41.23 220.174 41.066 220.123
 40.93 220.014 c 40.789 219.908 40.664 219.764 40.559 219.588 c 40.445 219.416
 40.348 219.217 40.258 218.99 c 40.168 218.768 40.074 218.541 39.98 218.303
 c 39.883 218.072 39.777 217.842 39.668 217.615 c 39.551 217.393 39.418 
217.194 39.266 217.018 c 39.109 216.846 38.93 216.705 38.723 216.596 c 38.516
 216.49 38.27 216.436 37.988 216.432 c h
38.188 210.158 m 37.844 210.158 37.539 210.225 37.277 210.358 c 37.012 
210.49 36.789 210.682 36.609 210.928 c 36.422 211.174 36.285 211.471 36.191
 211.819 c 36.098 212.166 36.051 212.553 36.051 212.979 c 36.051 214.85 
l 43.199 214.85 l 43.199 212.803 l 43.199 211.213 42.617 210.416 41.461 
210.412 c 41.07 210.416 40.738 210.51 40.461 210.69 c 40.184 210.877 39.98
 211.174 39.848 211.588 c 39.809 211.397 39.746 211.217 39.66 211.041 c 
39.57 210.869 39.457 210.717 39.32 210.584 c 39.18 210.455 39.016 210.35
 38.828 210.272 c 38.637 210.197 38.422 210.158 38.188 210.158 c h
41.328 211.424 m 41.473 211.424 41.609 211.447 41.738 211.49 c 41.867 211.537
 41.98 211.615 42.074 211.721 c 42.168 211.834 42.242 211.983 42.297 212.166
 c 42.352 212.354 42.379 212.588 42.379 212.869 c 42.379 213.877 l 40.141
 213.877 l 40.141 212.901 l 40.141 212.682 40.164 212.483 40.211 212.299
 c 40.258 212.119 40.328 211.963 40.43 211.834 c 40.523 211.705 40.648 211.608
 40.801 211.533 c 40.945 211.463 41.121 211.424 41.328 211.424 c h
38.156 211.19 m 38.336 211.19 38.5 211.229 38.648 211.307 c 38.789 211.385
 38.914 211.498 39.016 211.639 c 39.117 211.787 39.195 211.963 39.25 212.174
 c 39.305 212.385 39.332 212.623 39.332 212.881 c 39.332 213.877 l 36.871
 213.877 l 36.871 212.846 l 36.871 212.291 36.973 211.873 37.184 211.6 c
 37.387 211.326 37.711 211.19 38.156 211.19 c h
41.012 197.822 m 40.719 197.822 40.43 197.877 40.145 197.986 c 39.855 198.096
 39.598 198.268 39.375 198.494 c 39.145 198.729 38.961 199.022 38.824 199.373
 c 38.684 199.733 38.617 200.158 38.617 200.654 c 38.617 201.541 l 36.051
 201.541 l 36.051 202.514 l 43.199 202.514 l 43.199 200.502 l 43.199 200.151
 43.16 199.811 43.082 199.486 c 43.004 199.162 42.875 198.877 42.699 198.631
 c 42.523 198.385 42.297 198.19 42.02 198.041 c 41.742 197.897 41.406 197.822
 41.012 197.822 c h
40.969 198.834 m 41.422 198.838 41.773 198.986 42.023 199.287 c 42.266 
199.588 42.391 200.01 42.391 200.545 c 42.391 201.541 l 39.445 201.541 l
 39.445 200.631 l 39.441 200.057 39.57 199.615 39.824 199.303 c 40.074 198.994
 40.453 198.838 40.969 198.834 c h
41.543 196.111 m 41.543 195.24 l 40.531 195.213 l 40.918 194.889 41.199
 194.569 41.375 194.252 c 41.551 193.94 41.641 193.623 41.641 193.299 c 
41.641 192.736 41.453 192.303 41.086 192.006 c 40.715 191.713 40.168 191.58
 39.445 191.6 c 39.445 192.561 l 39.922 192.553 40.273 192.623 40.492 192.772
 c 40.711 192.928 40.82 193.147 40.82 193.436 c 40.82 193.565 40.797 193.694
 40.75 193.822 c 40.703 193.951 40.629 194.084 40.531 194.221 c 40.43 194.358
 40.301 194.502 40.145 194.654 c 39.984 194.811 39.797 194.975 39.578 195.147
 c 36.051 195.147 l 36.051 196.111 l h
38.84 185.385 m 38.41 185.389 38.016 185.447 37.664 185.569 c 37.305 185.69
 37.004 185.865 36.754 186.088 c 36.5 186.315 36.301 186.588 36.164 186.912
 c 36.023 187.24 35.957 187.608 35.953 188.018 c 35.957 188.412 36.016 188.768
 36.137 189.076 c 36.258 189.389 36.438 189.651 36.676 189.869 c 36.91 190.088
 37.203 190.256 37.555 190.365 c 37.902 190.483 38.305 190.537 38.762 190.537
 c 39.188 190.537 39.578 190.479 39.93 190.358 c 40.281 190.24 40.582 190.069
 40.836 189.838 c 41.09 189.615 41.289 189.338 41.43 189.014 c 41.57 188.69
 41.641 188.322 41.641 187.908 c 41.641 187.518 41.578 187.166 41.457 186.85
 c 41.332 186.541 41.152 186.276 40.918 186.057 c 40.68 185.842 40.387 185.678
 40.043 185.561 c 39.691 185.447 39.293 185.389 38.84 185.385 c h
38.797 186.361 m 39.133 186.365 39.43 186.404 39.684 186.475 c 39.938 186.553
 40.148 186.658 40.32 186.791 c 40.488 186.932 40.617 187.1 40.703 187.299
 c 40.789 187.498 40.832 187.721 40.832 187.963 c 40.832 188.252 40.773 
188.494 40.664 188.694 c 40.547 188.897 40.398 189.061 40.215 189.19 c 40.027
 189.322 39.813 189.42 39.566 189.475 c 39.32 189.537 39.063 189.565 38.797
 189.565 c 38.457 189.565 38.16 189.529 37.906 189.455 c 37.648 189.381 
37.434 189.276 37.266 189.135 c 37.094 188.998 36.969 188.83 36.883 188.631
 c 36.797 188.436 36.754 188.213 36.758 187.963 c 36.754 187.682 36.809 
187.436 36.922 187.233 c 37.031 187.029 37.18 186.865 37.367 186.736 c 37.551
 186.608 37.766 186.514 38.016 186.451 c 38.258 186.397 38.52 186.365 38.797
 186.361 c h
40.766 180.041 m 40.637 179.94 40.488 179.861 40.32 179.803 c 40.148 179.748
 39.965 179.721 39.77 179.717 c 39.484 179.721 39.223 179.772 38.988 179.873
 c 38.75 179.979 38.551 180.127 38.383 180.315 c 38.215 180.51 38.082 180.736
 37.992 180.998 c 37.898 181.264 37.855 181.553 37.855 181.865 c 37.855 
182.1 37.879 182.315 37.93 182.514 c 37.977 182.717 38.039 182.877 38.113
 182.986 c 38.012 183.061 37.914 183.119 37.824 183.162 c 37.73 183.213 
37.629 183.236 37.516 183.233 c 37.375 183.236 37.258 183.17 37.172 183.033
 c 37.078 182.904 37.031 182.729 37.023 182.506 c 36.969 181.065 l 36.957
 180.795 36.922 180.541 36.863 180.307 c 36.801 180.076 36.711 179.877 36.598
 179.709 c 36.477 179.545 36.332 179.416 36.164 179.322 c 35.992 179.233
 35.797 179.186 35.57 179.182 c 35.328 179.186 35.098 179.24 34.875 179.342
 c 34.66 179.451 34.469 179.611 34.301 179.83 c 34.137 180.053 34.004 180.334
 33.902 180.67 c 33.805 181.01 33.754 181.412 33.754 181.877 c 33.754 182.326
 33.793 182.705 33.863 183.014 c 33.938 183.326 34.035 183.58 34.156 183.779
 c 34.285 183.983 34.434 184.131 34.605 184.217 c 34.781 184.311 34.973 
184.354 35.176 184.354 c 35.445 184.354 35.676 184.295 35.875 184.17 c 36.074
 184.049 36.266 183.858 36.457 183.596 c 36.496 183.694 36.551 183.776 36.617
 183.842 c 36.684 183.912 36.758 183.967 36.836 184.01 c 36.914 184.057 
36.996 184.092 37.082 184.111 c 37.168 184.135 37.254 184.143 37.34 184.143
 c 37.574 184.143 37.789 184.088 37.992 183.975 c 38.188 183.865 38.375 
183.733 38.551 183.58 c 38.633 183.651 38.715 183.713 38.797 183.764 c 38.875
 183.819 38.961 183.865 39.055 183.901 c 39.145 183.94 39.246 183.967 39.355
 183.986 c 39.465 184.01 39.586 184.022 39.727 184.018 c 40.008 184.022 
40.27 183.967 40.504 183.861 c 40.738 183.76 40.938 183.615 41.109 183.424
 c 41.273 183.24 41.406 183.014 41.5 182.748 c 41.594 182.483 41.641 182.19
 41.641 181.865 c 41.641 181.736 41.629 181.608 41.613 181.479 c 41.59 181.358
 41.566 181.248 41.543 181.151 c 41.543 179.158 l 40.766 179.158 l h
35.258 183.342 m 35.004 183.346 34.816 183.213 34.695 182.94 c 34.578 182.674
 34.516 182.295 34.516 181.811 c 34.516 181.51 34.543 181.256 34.598 181.049
 c 34.652 180.846 34.727 180.682 34.813 180.553 c 34.906 180.428 35.008 
180.338 35.117 180.279 c 35.234 180.229 35.352 180.201 35.473 180.197 c 
35.695 180.201 35.859 180.291 35.965 180.471 c 36.07 180.654 36.129 180.936
 36.148 181.311 c 36.199 182.74 l 36.113 182.865 36.039 182.963 35.965 183.041
 c 35.891 183.119 35.813 183.182 35.73 183.225 c 35.656 183.268 35.578 183.299
 35.496 183.315 c 35.422 183.338 35.344 183.346 35.258 183.342 c h
39.746 183.053 m 39.57 183.053 39.41 183.026 39.266 182.967 c 39.117 182.908
 38.992 182.826 38.895 182.721 c 38.789 182.615 38.711 182.49 38.656 182.346
 c 38.598 182.205 38.57 182.045 38.57 181.865 c 38.57 181.682 38.602 181.514
 38.664 181.361 c 38.727 181.217 38.813 181.092 38.926 180.99 c 39.031 180.889
 39.156 180.815 39.305 180.76 c 39.445 180.713 39.594 180.686 39.746 180.682
 c 39.922 180.686 40.082 180.713 40.23 180.768 c 40.371 180.826 40.496 180.908
 40.602 181.014 c 40.699 181.123 40.777 181.248 40.836 181.389 c 40.891 
181.533 40.918 181.694 40.922 181.865 c 40.918 182.057 40.887 182.225 40.824
 182.373 c 40.758 182.522 40.672 182.647 40.563 182.748 c 40.453 182.85 
40.328 182.928 40.188 182.975 c 40.047 183.029 39.898 183.053 39.746 183.053
 c h
41.543 177.604 m 41.543 176.733 l 40.531 176.705 l 40.918 176.381 41.199
 176.061 41.375 175.744 c 41.551 175.432 41.641 175.115 41.641 174.791 c
 41.641 174.229 41.453 173.795 41.086 173.498 c 40.715 173.205 40.168 173.072
 39.445 173.092 c 39.445 174.053 l 39.922 174.045 40.273 174.115 40.492 
174.264 c 40.711 174.42 40.82 174.639 40.82 174.928 c 40.82 175.057 40.797
 175.186 40.75 175.315 c 40.703 175.444 40.629 175.576 40.531 175.713 c 
40.43 175.85 40.301 175.994 40.145 176.147 c 39.984 176.303 39.797 176.467
 39.578 176.639 c 36.051 176.639 l 36.051 177.604 l h
36.051 168.131 m 36.789 168.154 l 36.492 168.455 36.277 168.756 36.148 
169.065 c 36.02 169.373 35.957 169.697 35.953 170.033 c 35.957 170.35 35.992
 170.619 36.07 170.838 c 36.148 171.065 36.262 171.248 36.402 171.389 c 
36.543 171.537 36.707 171.643 36.898 171.705 c 37.086 171.776 37.293 171.807
 37.516 171.807 c 38.066 171.807 38.496 171.604 38.809 171.194 c 39.117 
170.783 39.273 170.178 39.277 169.373 c 39.277 168.236 l 39.758 168.236 
l 40.082 168.24 40.344 168.342 40.539 168.549 c 40.734 168.756 40.832 169.072
 40.832 169.498 c 40.832 169.811 40.797 170.119 40.727 170.416 c 40.656 
170.721 40.555 171.029 40.43 171.346 c 41.289 171.346 l 41.332 171.229 41.375
 171.096 41.418 170.947 c 41.457 170.803 41.492 170.647 41.527 170.479 c
 41.559 170.319 41.586 170.147 41.609 169.963 c 41.629 169.787 41.641 169.608
 41.641 169.42 c 41.641 169.092 41.602 168.791 41.531 168.526 c 41.453 168.26
 41.344 168.037 41.195 167.85 c 41.047 167.67 40.859 167.529 40.633 167.428
 c 40.406 167.334 40.141 167.283 39.836 167.279 c 36.051 167.279 l h
38.551 168.236 m 38.551 169.444 l 38.547 169.686 38.523 169.889 38.477 
170.057 c 38.43 170.233 38.359 170.373 38.273 170.479 c 38.184 170.592 38.082
 170.674 37.961 170.721 c 37.836 170.776 37.699 170.799 37.551 170.799 c
 37.441 170.799 37.34 170.783 37.246 170.752 c 37.148 170.721 37.063 170.67
 36.988 170.592 c 36.91 170.522 36.848 170.424 36.809 170.307 c 36.762 170.19
 36.742 170.049 36.746 169.881 c 36.742 169.666 36.809 169.416 36.945 169.131
 c 37.074 168.85 37.285 168.553 37.578 168.236 c h
36.051 161.576 m 39.992 161.576 l 40.16 161.58 40.301 161.584 40.414 161.596
 c 40.52 161.608 40.605 161.627 40.672 161.654 c 40.734 161.682 40.781 161.717
 40.809 161.76 c 40.832 161.803 40.844 161.854 40.848 161.912 c 40.844 161.986
 40.82 162.057 40.781 162.115 c 40.734 162.182 40.664 162.248 40.566 162.319
 c 40.469 162.393 40.34 162.471 40.176 162.553 c 40.012 162.639 39.813 162.74
 39.578 162.854 c 36.051 162.854 l 36.051 163.725 l 39.891 163.725 l 40.086
 163.729 40.25 163.736 40.375 163.744 c 40.5 163.76 40.594 163.779 40.664
 163.807 c 40.73 163.834 40.781 163.869 40.809 163.912 c 40.832 163.955 
40.844 164.006 40.848 164.069 c 40.844 164.135 40.824 164.197 40.793 164.256
 c 40.754 164.315 40.688 164.381 40.594 164.451 c 40.496 164.526 40.367 
164.604 40.207 164.69 c 40.039 164.776 39.832 164.881 39.578 164.998 c 36.051
 164.998 l 36.051 165.873 l 41.543 165.873 l 41.543 165.147 l 40.496 165.104
 l 40.703 165.01 40.879 164.916 41.027 164.826 c 41.168 164.74 41.285 164.651
 41.379 164.553 c 41.465 164.459 41.531 164.358 41.578 164.248 c 41.617 
164.143 41.641 164.022 41.641 163.889 c 41.641 163.596 41.543 163.373 41.348
 163.217 c 41.152 163.069 40.852 162.99 40.453 162.986 c 40.641 162.901 
40.809 162.815 40.957 162.729 c 41.102 162.647 41.227 162.557 41.328 162.459
 c 41.426 162.365 41.504 162.26 41.559 162.139 c 41.613 162.026 41.641 161.889
 41.641 161.733 c 41.641 161.049 41.109 160.705 40.047 160.701 c 36.051 
160.701 l h
36.051 155.408 m 39.992 155.408 l 40.16 155.412 40.301 155.416 40.414 155.428
 c 40.52 155.44 40.605 155.459 40.672 155.486 c 40.734 155.514 40.781 155.549
 40.809 155.592 c 40.832 155.635 40.844 155.686 40.848 155.744 c 40.844 
155.819 40.82 155.889 40.781 155.947 c 40.734 156.014 40.664 156.08 40.566
 156.151 c 40.469 156.225 40.34 156.303 40.176 156.385 c 40.012 156.471 
39.813 156.572 39.578 156.686 c 36.051 156.686 l 36.051 157.557 l 39.891
 157.557 l 40.086 157.561 40.25 157.569 40.375 157.576 c 40.5 157.592 40.594
 157.611 40.664 157.639 c 40.73 157.666 40.781 157.701 40.809 157.744 c 
40.832 157.787 40.844 157.838 40.848 157.901 c 40.844 157.967 40.824 158.029
 40.793 158.088 c 40.754 158.147 40.688 158.213 40.594 158.283 c 40.496 
158.358 40.367 158.436 40.207 158.522 c 40.039 158.608 39.832 158.713 39.578
 158.83 c 36.051 158.83 l 36.051 159.705 l 41.543 159.705 l 41.543 158.979
 l 40.496 158.936 l 40.703 158.842 40.879 158.748 41.027 158.658 c 41.168
 158.572 41.285 158.483 41.379 158.385 c 41.465 158.291 41.531 158.19 41.578
 158.08 c 41.617 157.975 41.641 157.854 41.641 157.721 c 41.641 157.428 
41.543 157.205 41.348 157.049 c 41.152 156.901 40.852 156.822 40.453 156.819
 c 40.641 156.733 40.809 156.647 40.957 156.561 c 41.102 156.479 41.227 
156.389 41.328 156.291 c 41.426 156.197 41.504 156.092 41.559 155.971 c 
41.613 155.858 41.641 155.721 41.641 155.565 c 41.641 154.881 41.109 154.537
 40.047 154.533 c 36.051 154.533 l h
36.051 149.623 m 36.789 149.647 l 36.492 149.947 36.277 150.248 36.148 
150.557 c 36.02 150.865 35.957 151.19 35.953 151.526 c 35.957 151.842 35.992
 152.111 36.07 152.33 c 36.148 152.557 36.262 152.74 36.402 152.881 c 36.543
 153.029 36.707 153.135 36.898 153.197 c 37.086 153.268 37.293 153.299 37.516
 153.299 c 38.066 153.299 38.496 153.096 38.809 152.686 c 39.117 152.276
 39.273 151.67 39.277 150.865 c 39.277 149.729 l 39.758 149.729 l 40.082
 149.733 40.344 149.834 40.539 150.041 c 40.734 150.248 40.832 150.565 40.832
 150.99 c 40.832 151.303 40.797 151.611 40.727 151.908 c 40.656 152.213 
40.555 152.522 40.43 152.838 c 41.289 152.838 l 41.332 152.721 41.375 152.588
 41.418 152.44 c 41.457 152.295 41.492 152.139 41.527 151.971 c 41.559 151.811
 41.586 151.639 41.609 151.455 c 41.629 151.279 41.641 151.1 41.641 150.912
 c 41.641 150.584 41.602 150.283 41.531 150.018 c 41.453 149.752 41.344 
149.529 41.195 149.342 c 41.047 149.162 40.859 149.022 40.633 148.92 c 40.406
 148.826 40.141 148.776 39.836 148.772 c 36.051 148.772 l h
38.551 149.729 m 38.551 150.936 l 38.547 151.178 38.523 151.381 38.477 
151.549 c 38.43 151.725 38.359 151.865 38.273 151.971 c 38.184 152.084 38.082
 152.166 37.961 152.213 c 37.836 152.268 37.699 152.291 37.551 152.291 c
 37.441 152.291 37.34 152.276 37.246 152.244 c 37.148 152.213 37.063 152.162
 36.988 152.084 c 36.91 152.014 36.848 151.916 36.809 151.799 c 36.762 151.682
 36.742 151.541 36.746 151.373 c 36.742 151.158 36.809 150.908 36.945 150.623
 c 37.074 150.342 37.285 150.045 37.578 149.729 c h
38.895 142.291 m 38.434 142.291 38.027 142.354 37.672 142.479 c 37.309 
142.604 37.004 142.783 36.758 143.014 c 36.504 143.248 36.313 143.529 36.184
 143.861 c 36.051 144.194 35.988 144.569 35.984 144.983 c 35.988 145.307
 36.016 145.639 36.078 145.979 c 36.137 146.319 36.234 146.654 36.375 146.983
 c 43.777 146.983 l 43.777 146.029 l 41.652 146.029 l 40.633 146.076 l 41
 145.803 41.258 145.51 41.414 145.197 c 41.563 144.885 41.641 144.553 41.641
 144.194 c 41.641 143.885 41.574 143.608 41.441 143.369 c 41.309 143.135
 41.121 142.936 40.887 142.772 c 40.645 142.611 40.359 142.494 40.023 142.412
 c 39.688 142.334 39.309 142.291 38.895 142.291 c h
38.852 143.264 m 39.137 143.264 39.398 143.287 39.641 143.326 c 39.879 
143.373 40.086 143.44 40.262 143.526 c 40.43 143.619 40.563 143.736 40.664
 143.877 c 40.758 144.022 40.809 144.19 40.809 144.385 c 40.809 144.506 
40.789 144.627 40.75 144.752 c 40.711 144.877 40.645 145.006 40.559 145.139
 c 40.465 145.272 40.348 145.412 40.203 145.561 c 40.055 145.709 39.871 
145.865 39.656 146.029 c 36.992 146.029 l 36.918 145.846 36.859 145.658 
36.82 145.463 c 36.773 145.272 36.754 145.088 36.758 144.908 c 36.754 144.694
 36.789 144.483 36.859 144.283 c 36.93 144.088 37.043 143.916 37.207 143.76
 c 37.363 143.611 37.578 143.49 37.852 143.401 c 38.117 143.311 38.453 143.264
 38.852 143.264 c h
42.996 138.944 m 42.996 140.569 l 43.777 140.569 l 43.777 137.983 l 36.844
 137.983 l 36.844 136.346 l 36.051 136.346 l 36.051 140.748 l 36.844 140.748
 l 36.844 138.944 l h
39.086 130.01 m 38.949 130.014 38.836 130.018 38.746 130.018 c 38.652 130.026
 38.566 130.029 38.488 130.029 c 38.488 133.885 l 37.926 133.889 37.492 
133.733 37.195 133.416 c 36.891 133.108 36.742 132.654 36.746 132.061 c 
36.742 131.901 36.75 131.74 36.766 131.58 c 36.777 131.42 36.793 131.264
 36.816 131.115 c 36.836 130.967 36.859 130.826 36.887 130.686 c 36.914 
130.553 36.945 130.424 36.98 130.303 c 36.199 130.303 l 36.121 130.565 36.066
 130.858 36.023 131.182 c 35.98 131.51 35.957 131.85 35.953 132.197 c 35.957
 132.67 36.02 133.072 36.145 133.412 c 36.27 133.752 36.453 134.029 36.699
 134.244 c 36.938 134.463 37.234 134.623 37.59 134.725 c 37.938 134.83 38.336
 134.885 38.785 134.881 c 39.168 134.885 39.531 134.83 39.879 134.717 c 
40.223 134.608 40.527 134.444 40.789 134.229 c 41.047 134.018 41.254 133.756
 41.41 133.444 c 41.563 133.135 41.641 132.783 41.641 132.389 c 41.641 132.01
 41.578 131.67 41.457 131.373 c 41.336 131.076 41.164 130.83 40.945 130.627
 c 40.723 130.428 40.457 130.272 40.145 130.166 c 39.828 130.065 39.477 
130.014 39.086 130.01 c h
39.223 130.998 m 39.465 130.99 39.688 131.018 39.891 131.072 c 40.09 131.135
 40.266 131.225 40.414 131.342 c 40.559 131.467 40.672 131.619 40.754 131.799
 c 40.836 131.986 40.879 132.197 40.879 132.432 c 40.879 132.643 40.836 
132.83 40.758 133.002 c 40.676 133.174 40.566 133.322 40.422 133.444 c 40.273
 133.572 40.098 133.674 39.895 133.744 c 39.691 133.822 39.465 133.869 39.223
 133.885 c h
43.199 117.045 m 36.051 119.475 l 36.051 120.787 l 43.199 123.158 l 43.199
 122.061 l 38.379 120.518 l 36.969 120.08 l 38.379 119.631 l 43.199 118.084
 l h
39.086 111.502 m 38.949 111.506 38.836 111.51 38.746 111.51 c 38.652 111.518
 38.566 111.522 38.488 111.522 c 38.488 115.377 l 37.926 115.381 37.492 
115.225 37.195 114.908 c 36.891 114.6 36.742 114.147 36.746 113.553 c 36.742
 113.393 36.75 113.233 36.766 113.072 c 36.777 112.912 36.793 112.756 36.816
 112.608 c 36.836 112.459 36.859 112.319 36.887 112.178 c 36.914 112.045
 36.945 111.916 36.98 111.795 c 36.199 111.795 l 36.121 112.057 36.066 112.35
 36.023 112.674 c 35.98 113.002 35.957 113.342 35.953 113.69 c 35.957 114.162
 36.02 114.565 36.145 114.904 c 36.27 115.244 36.453 115.522 36.699 115.736
 c 36.938 115.955 37.234 116.115 37.59 116.217 c 37.938 116.322 38.336 116.377
 38.785 116.373 c 39.168 116.377 39.531 116.322 39.879 116.209 c 40.223 
116.1 40.527 115.936 40.789 115.721 c 41.047 115.51 41.254 115.248 41.41
 114.936 c 41.563 114.627 41.641 114.276 41.641 113.881 c 41.641 113.502
 41.578 113.162 41.457 112.865 c 41.336 112.569 41.164 112.322 40.945 112.119
 c 40.723 111.92 40.457 111.764 40.145 111.658 c 39.828 111.557 39.477 111.506
 39.086 111.502 c h
39.223 112.49 m 39.465 112.483 39.688 112.51 39.891 112.565 c 40.09 112.627
 40.266 112.717 40.414 112.834 c 40.559 112.959 40.672 113.111 40.754 113.291
 c 40.836 113.479 40.879 113.69 40.879 113.924 c 40.879 114.135 40.836 114.322
 40.758 114.494 c 40.676 114.666 40.566 114.815 40.422 114.936 c 40.273 
115.065 40.098 115.166 39.895 115.236 c 39.691 115.315 39.465 115.361 39.223
 115.377 c h
41.543 109.748 m 41.543 108.877 l 40.531 108.85 l 40.918 108.526 41.199
 108.205 41.375 107.889 c 41.551 107.576 41.641 107.26 41.641 106.936 c 
41.641 106.373 41.453 105.94 41.086 105.643 c 40.715 105.35 40.168 105.217
 39.445 105.236 c 39.445 106.197 l 39.922 106.19 40.273 106.26 40.492 106.408
 c 40.711 106.565 40.82 106.783 40.82 107.072 c 40.82 107.201 40.797 107.33
 40.75 107.459 c 40.703 107.588 40.629 107.721 40.531 107.858 c 40.43 107.994
 40.301 108.139 40.145 108.291 c 39.984 108.447 39.797 108.611 39.578 108.783
 c 36.051 108.783 l 36.051 109.748 l h
37.551 99.455 m 37.355 99.459 37.18 99.49 37.027 99.553 c 36.875 99.619
 36.738 99.709 36.621 99.822 c 36.5 99.936 36.398 100.069 36.316 100.217
 c 36.23 100.369 36.164 100.526 36.109 100.694 c 36.055 100.865 36.016 101.041
 35.992 101.217 c 35.969 101.397 35.957 101.572 35.953 101.74 c 35.957 102.115
 35.973 102.455 36.004 102.768 c 36.035 103.08 36.086 103.385 36.16 103.682
 c 37.035 103.682 l 36.941 103.361 36.871 103.045 36.828 102.725 c 36.777
 102.412 36.754 102.096 36.758 101.779 c 36.754 101.326 36.816 100.99 36.941
 100.768 c 37.066 100.553 37.242 100.444 37.473 100.44 c 37.57 100.444 37.66
 100.459 37.738 100.494 c 37.816 100.529 37.891 100.592 37.961 100.682 c
 38.031 100.776 38.105 100.92 38.184 101.108 c 38.258 101.303 38.344 101.561
 38.445 101.889 c 38.516 102.139 38.598 102.369 38.695 102.576 c 38.785 
102.787 38.898 102.967 39.027 103.119 c 39.152 103.276 39.301 103.397 39.473
 103.483 c 39.645 103.569 39.848 103.611 40.082 103.611 c 40.234 103.611
 40.402 103.576 40.586 103.506 c 40.766 103.436 40.934 103.315 41.094 103.143
 c 41.246 102.971 41.375 102.74 41.484 102.447 c 41.586 102.158 41.641 101.795
 41.641 101.354 c 41.641 101.143 41.629 100.904 41.605 100.639 c 41.582 
100.381 41.539 100.104 41.48 99.815 c 40.633 99.815 l 40.703 100.115 40.754
 100.401 40.793 100.666 c 40.824 100.936 40.844 101.17 40.848 101.365 c 
40.844 101.608 40.824 101.807 40.793 101.963 c 40.754 102.127 40.703 102.256
 40.641 102.358 c 40.574 102.459 40.5 102.533 40.418 102.572 c 40.328 102.619
 40.238 102.639 40.141 102.639 c 40.039 102.639 39.949 102.619 39.871 102.58
 c 39.793 102.541 39.715 102.471 39.641 102.369 c 39.563 102.268 39.488 
102.123 39.414 101.936 c 39.34 101.748 39.258 101.506 39.172 101.205 c 39.074
 100.881 38.977 100.608 38.875 100.385 c 38.77 100.166 38.652 99.986 38.527
 99.846 c 38.398 99.709 38.254 99.608 38.094 99.545 c 37.934 99.486 37.754
 99.459 37.551 99.455 c h
36.051 94.108 m 36.789 94.131 l 36.492 94.432 36.277 94.733 36.148 95.041
 c 36.02 95.35 35.957 95.674 35.953 96.01 c 35.957 96.326 35.992 96.596 
36.07 96.815 c 36.148 97.041 36.262 97.225 36.402 97.365 c 36.543 97.514
 36.707 97.619 36.898 97.682 c 37.086 97.752 37.293 97.783 37.516 97.783
 c 38.066 97.783 38.496 97.58 38.809 97.17 c 39.117 96.76 39.273 96.154 
39.277 95.35 c 39.277 94.213 l 39.758 94.213 l 40.082 94.217 40.344 94.319
 40.539 94.526 c 40.734 94.733 40.832 95.049 40.832 95.475 c 40.832 95.787
 40.797 96.096 40.727 96.393 c 40.656 96.697 40.555 97.006 40.43 97.322 
c 41.289 97.322 l 41.332 97.205 41.375 97.072 41.418 96.924 c 41.457 96.779
 41.492 96.623 41.527 96.455 c 41.559 96.295 41.586 96.123 41.609 95.94 
c 41.629 95.764 41.641 95.584 41.641 95.397 c 41.641 95.069 41.602 94.768
 41.531 94.502 c 41.453 94.236 41.344 94.014 41.195 93.826 c 41.047 93.647
 40.859 93.506 40.633 93.404 c 40.406 93.311 40.141 93.26 39.836 93.256 
c 36.051 93.256 l h
38.551 94.213 m 38.551 95.42 l 38.547 95.662 38.523 95.865 38.477 96.033
 c 38.43 96.209 38.359 96.35 38.273 96.455 c 38.184 96.569 38.082 96.651
 37.961 96.697 c 37.836 96.752 37.699 96.776 37.551 96.776 c 37.441 96.776
 37.34 96.76 37.246 96.729 c 37.148 96.697 37.063 96.647 36.988 96.569 c
 36.91 96.498 36.848 96.401 36.809 96.283 c 36.762 96.166 36.742 96.026 
36.746 95.858 c 36.742 95.643 36.809 95.393 36.945 95.108 c 37.074 94.826
 37.285 94.529 37.578 94.213 c h
43.199 86.428 m 36.051 86.908 l 36.051 88.17 l 38.594 89.057 l 39.41 89.303
 l 38.527 89.561 l 36.051 90.381 l 36.051 91.6 l 43.199 92.092 l 43.199 
91.174 l 38.336 90.893 l 37.004 90.811 l 38.133 90.467 l 40.785 89.604 l
 40.785 88.932 l 37.941 87.936 l 37.004 87.604 l 37.988 87.58 l 43.199 87.295
 l h
41.543 85.072 m 41.543 84.201 l 40.531 84.174 l 40.918 83.85 41.199 83.529
 41.375 83.213 c 41.551 82.901 41.641 82.584 41.641 82.26 c 41.641 81.697
 41.453 81.264 41.086 80.967 c 40.715 80.674 40.168 80.541 39.445 80.561
 c 39.445 81.522 l 39.922 81.514 40.273 81.584 40.492 81.733 c 40.711 81.889
 40.82 82.108 40.82 82.397 c 40.82 82.526 40.797 82.654 40.75 82.783 c 40.703
 82.912 40.629 83.045 40.531 83.182 c 40.43 83.319 40.301 83.463 40.145 
83.615 c 39.984 83.772 39.797 83.936 39.578 84.108 c 36.051 84.108 l 36.051
 85.072 l h
40.754 77.256 m 40.754 78.881 l 41.543 78.881 l 41.543 76.295 l 36.844 
76.295 l 36.844 74.658 l 36.051 74.658 l 36.051 79.061 l 36.844 79.061 l
 36.844 77.256 l h
43.844 76.924 m 43.844 76.822 43.824 76.721 43.785 76.627 c 43.746 76.537
 43.691 76.459 43.625 76.389 c 43.551 76.322 43.473 76.272 43.387 76.233
 c 43.297 76.197 43.199 76.178 43.094 76.174 c 42.992 76.178 42.895 76.197
 42.805 76.233 c 42.711 76.272 42.629 76.322 42.563 76.389 c 42.492 76.459
 42.441 76.537 42.402 76.627 c 42.363 76.721 42.344 76.822 42.344 76.924
 c 42.344 77.033 42.363 77.131 42.402 77.217 c 42.441 77.311 42.492 77.389
 42.563 77.455 c 42.629 77.526 42.711 77.58 42.805 77.615 c 42.895 77.658
 42.992 77.678 43.094 77.674 c 43.199 77.678 43.297 77.658 43.387 77.615
 c 43.473 77.58 43.551 77.526 43.625 77.455 c 43.691 77.389 43.746 77.311
 43.785 77.217 c 43.824 77.131 43.844 77.033 43.844 76.924 c h
36.129 68.533 m 36.074 68.752 36.039 68.975 36.012 69.201 c 35.988 69.432
 35.977 69.666 35.973 69.901 c 35.977 70.596 36.129 71.108 36.441 71.444
 c 36.75 71.783 37.23 71.955 37.879 71.951 c 40.742 71.951 l 40.742 73.49
 l 41.543 73.49 l 41.543 71.951 l 43.051 71.951 l 43.297 71.002 l 41.543
 71.002 l 41.543 68.533 l 40.742 68.533 l 40.742 71.002 l 37.953 71.002 
l 37.559 71.006 37.266 70.901 37.07 70.69 c 36.875 70.483 36.777 70.174 
36.777 69.76 c 36.777 69.588 36.789 69.397 36.816 69.186 c 36.844 68.983
 36.887 68.764 36.949 68.533 c h
39.086 62.154 m 38.949 62.158 38.836 62.162 38.746 62.162 c 38.652 62.17
 38.566 62.174 38.488 62.174 c 38.488 66.029 l 37.926 66.033 37.492 65.877
 37.195 65.561 c 36.891 65.252 36.742 64.799 36.746 64.205 c 36.742 64.045
 36.75 63.885 36.766 63.725 c 36.777 63.565 36.793 63.408 36.816 63.26 c
 36.836 63.111 36.859 62.971 36.887 62.83 c 36.914 62.697 36.945 62.569 
36.98 62.447 c 36.199 62.447 l 36.121 62.709 36.066 63.002 36.023 63.326
 c 35.98 63.654 35.957 63.994 35.953 64.342 c 35.957 64.815 36.02 65.217
 36.145 65.557 c 36.27 65.897 36.453 66.174 36.699 66.389 c 36.938 66.608
 37.234 66.768 37.59 66.869 c 37.938 66.975 38.336 67.029 38.785 67.026 
c 39.168 67.029 39.531 66.975 39.879 66.861 c 40.223 66.752 40.527 66.588
 40.789 66.373 c 41.047 66.162 41.254 65.901 41.41 65.588 c 41.563 65.279
 41.641 64.928 41.641 64.533 c 41.641 64.154 41.578 63.815 41.457 63.518
 c 41.336 63.221 41.164 62.975 40.945 62.772 c 40.723 62.572 40.457 62.416
 40.145 62.311 c 39.828 62.209 39.477 62.158 39.086 62.154 c h
39.223 63.143 m 39.465 63.135 39.688 63.162 39.891 63.217 c 40.09 63.279
 40.266 63.369 40.414 63.486 c 40.559 63.611 40.672 63.764 40.754 63.944
 c 40.836 64.131 40.879 64.342 40.879 64.576 c 40.879 64.787 40.836 64.975
 40.758 65.147 c 40.676 65.319 40.566 65.467 40.422 65.588 c 40.273 65.717
 40.098 65.819 39.895 65.889 c 39.691 65.967 39.465 66.014 39.223 66.029
 c h
41.543 60.397 m 41.543 59.526 l 40.531 59.498 l 40.918 59.174 41.199 58.854
 41.375 58.537 c 41.551 58.225 41.641 57.908 41.641 57.584 c 41.641 57.022
 41.453 56.588 41.086 56.291 c 40.715 55.998 40.168 55.865 39.445 55.885
 c 39.445 56.846 l 39.922 56.838 40.273 56.908 40.492 57.057 c 40.711 57.213
 40.82 57.432 40.82 57.721 c 40.82 57.85 40.797 57.979 40.75 58.108 c 40.703
 58.236 40.629 58.369 40.531 58.506 c 40.43 58.643 40.301 58.787 40.145 
58.94 c 39.984 59.096 39.797 59.26 39.578 59.432 c 36.051 59.432 l 36.051
 60.397 l h
f
28.891 222.307 m 28.992 222.807 29.047 223.236 29.051 223.596 c 29.047 
224.455 28.598 224.885 27.707 224.881 c 26.742 224.881 l 26.742 222.475 
l 25.949 222.475 l 25.949 224.881 l 22.051 224.881 l 22.051 225.85 l 25.949
 225.85 l 25.949 227.615 l 26.742 227.615 l 26.742 225.85 l 27.652 225.85
 l 29.113 225.85 29.844 225.088 29.844 223.565 c 29.844 223.186 29.797 222.768
 29.711 222.307 c h
24.84 216.229 m 24.41 216.233 24.016 216.291 23.664 216.412 c 23.305 216.533
 23.004 216.709 22.754 216.932 c 22.5 217.158 22.301 217.432 22.164 217.756
 c 22.023 218.084 21.957 218.451 21.953 218.861 c 21.957 219.256 22.016 
219.611 22.137 219.92 c 22.258 220.233 22.438 220.494 22.676 220.713 c 22.91
 220.932 23.203 221.1 23.555 221.209 c 23.902 221.326 24.305 221.381 24.762
 221.381 c 25.188 221.381 25.578 221.322 25.93 221.201 c 26.281 221.084 
26.582 220.912 26.836 220.682 c 27.09 220.459 27.289 220.182 27.43 219.858
 c 27.57 219.533 27.641 219.166 27.641 218.752 c 27.641 218.361 27.578 218.01
 27.457 217.694 c 27.332 217.385 27.152 217.119 26.918 216.901 c 26.68 216.686
 26.387 216.522 26.043 216.404 c 25.691 216.291 25.293 216.233 24.84 216.229
 c h
24.797 217.205 m 25.133 217.209 25.43 217.248 25.684 217.319 c 25.938 217.397
 26.148 217.502 26.32 217.635 c 26.488 217.776 26.617 217.944 26.703 218.143
 c 26.789 218.342 26.832 218.565 26.832 218.807 c 26.832 219.096 26.773 
219.338 26.664 219.537 c 26.547 219.74 26.398 219.904 26.215 220.033 c 26.027
 220.166 25.813 220.264 25.566 220.319 c 25.32 220.381 25.063 220.408 24.797
 220.408 c 24.457 220.408 24.16 220.373 23.906 220.299 c 23.648 220.225 
23.434 220.119 23.266 219.979 c 23.094 219.842 22.969 219.674 22.883 219.475
 c 22.797 219.279 22.754 219.057 22.758 218.807 c 22.754 218.526 22.809 
218.279 22.922 218.076 c 23.031 217.873 23.18 217.709 23.367 217.58 c 23.551
 217.451 23.766 217.358 24.016 217.295 c 24.258 217.24 24.52 217.209 24.797
 217.205 c h
27.543 214.615 m 27.543 213.744 l 26.531 213.717 l 26.918 213.393 27.199
 213.072 27.375 212.756 c 27.551 212.444 27.641 212.127 27.641 211.803 c
 27.641 211.24 27.453 210.807 27.086 210.51 c 26.715 210.217 26.168 210.084
 25.445 210.104 c 25.445 211.065 l 25.922 211.057 26.273 211.127 26.492 
211.276 c 26.711 211.432 26.82 211.651 26.82 211.94 c 26.82 212.069 26.797
 212.197 26.75 212.326 c 26.703 212.455 26.629 212.588 26.531 212.725 c 
26.43 212.861 26.301 213.006 26.145 213.158 c 25.984 213.315 25.797 213.479
 25.578 213.651 c 22.051 213.651 l 22.051 214.615 l h
22.051 197.486 m 22.051 198.44 l 26.508 198.58 l 28.219 198.643 l 27.223
 198.975 l 24.379 200.029 l 24.379 200.701 l 27.113 201.709 l 28.219 202.041
 l 26.43 202.065 l 22.051 202.19 l 22.051 203.108 l 29.199 202.76 l 29.199
 201.604 l 26.508 200.643 l 25.602 200.33 l 26.508 200.029 l 29.199 199.018
 l 29.199 197.83 l h
24.84 191.553 m 24.41 191.557 24.016 191.615 23.664 191.736 c 23.305 191.858
 23.004 192.033 22.754 192.256 c 22.5 192.483 22.301 192.756 22.164 193.08
 c 22.023 193.408 21.957 193.776 21.953 194.186 c 21.957 194.58 22.016 194.936
 22.137 195.244 c 22.258 195.557 22.438 195.819 22.676 196.037 c 22.91 196.256
 23.203 196.424 23.555 196.533 c 23.902 196.651 24.305 196.705 24.762 196.705
 c 25.188 196.705 25.578 196.647 25.93 196.526 c 26.281 196.408 26.582 196.236
 26.836 196.006 c 27.09 195.783 27.289 195.506 27.43 195.182 c 27.57 194.858
 27.641 194.49 27.641 194.076 c 27.641 193.686 27.578 193.334 27.457 193.018
 c 27.332 192.709 27.152 192.444 26.918 192.225 c 26.68 192.01 26.387 191.846
 26.043 191.729 c 25.691 191.615 25.293 191.557 24.84 191.553 c h
24.797 192.529 m 25.133 192.533 25.43 192.572 25.684 192.643 c 25.938 192.721
 26.148 192.826 26.32 192.959 c 26.488 193.1 26.617 193.268 26.703 193.467
 c 26.789 193.666 26.832 193.889 26.832 194.131 c 26.832 194.42 26.773 194.662
 26.664 194.861 c 26.547 195.065 26.398 195.229 26.215 195.358 c 26.027 
195.49 25.813 195.588 25.566 195.643 c 25.32 195.705 25.063 195.733 24.797
 195.733 c 24.457 195.733 24.16 195.697 23.906 195.623 c 23.648 195.549 
23.434 195.444 23.266 195.303 c 23.094 195.166 22.969 194.998 22.883 194.799
 c 22.797 194.604 22.754 194.381 22.758 194.131 c 22.754 193.85 22.809 193.604
 22.922 193.401 c 23.031 193.197 23.18 193.033 23.367 192.904 c 23.551 192.776
 23.766 192.682 24.016 192.619 c 24.258 192.565 24.52 192.533 24.797 192.529
 c h
27.543 190.166 m 27.543 189.319 l 26.656 189.279 l 26.844 189.123 27 188.971
 27.129 188.819 c 27.25 188.67 27.352 188.522 27.43 188.377 c 27.508 188.233
 27.563 188.084 27.594 187.936 c 27.625 187.787 27.641 187.635 27.641 187.471
 c 27.641 186.908 27.473 186.479 27.141 186.19 c 26.805 185.901 26.301 185.756
 25.633 185.752 c 22.051 185.752 l 22.051 186.705 l 25.555 186.705 l 25.984
 186.705 26.301 186.787 26.512 186.947 c 26.715 187.108 26.82 187.346 26.82
 187.662 c 26.82 187.783 26.801 187.897 26.766 188.006 c 26.73 188.115 26.672
 188.233 26.586 188.35 c 26.5 188.475 26.383 188.604 26.238 188.74 c 26.09
 188.885 25.906 189.041 25.691 189.213 c 22.051 189.213 l 22.051 190.166
 l h
24.84 179.213 m 24.41 179.217 24.016 179.276 23.664 179.397 c 23.305 179.518
 23.004 179.694 22.754 179.916 c 22.5 180.143 22.301 180.416 22.164 180.74
 c 22.023 181.069 21.957 181.436 21.953 181.846 c 21.957 182.24 22.016 182.596
 22.137 182.904 c 22.258 183.217 22.438 183.479 22.676 183.697 c 22.91 183.916
 23.203 184.084 23.555 184.194 c 23.902 184.311 24.305 184.365 24.762 184.365
 c 25.188 184.365 25.578 184.307 25.93 184.186 c 26.281 184.069 26.582 183.897
 26.836 183.666 c 27.09 183.444 27.289 183.166 27.43 182.842 c 27.57 182.518
 27.641 182.151 27.641 181.736 c 27.641 181.346 27.578 180.994 27.457 180.678
 c 27.332 180.369 27.152 180.104 26.918 179.885 c 26.68 179.67 26.387 179.506
 26.043 179.389 c 25.691 179.276 25.293 179.217 24.84 179.213 c h
24.797 180.19 m 25.133 180.194 25.43 180.233 25.684 180.303 c 25.938 180.381
 26.148 180.486 26.32 180.619 c 26.488 180.76 26.617 180.928 26.703 181.127
 c 26.789 181.326 26.832 181.549 26.832 181.791 c 26.832 182.08 26.773 182.322
 26.664 182.522 c 26.547 182.725 26.398 182.889 26.215 183.018 c 26.027 
183.151 25.813 183.248 25.566 183.303 c 25.32 183.365 25.063 183.393 24.797
 183.393 c 24.457 183.393 24.16 183.358 23.906 183.283 c 23.648 183.209 
23.434 183.104 23.266 182.963 c 23.094 182.826 22.969 182.658 22.883 182.459
 c 22.797 182.264 22.754 182.041 22.758 181.791 c 22.754 181.51 22.809 181.264
 22.922 181.061 c 23.031 180.858 23.18 180.694 23.367 180.565 c 23.551 180.436
 23.766 180.342 24.016 180.279 c 24.258 180.225 24.52 180.194 24.797 180.19
 c h
24.68 178.104 m 25.145 178.104 25.559 178.041 25.926 177.912 c 26.285 177.787
 26.594 177.608 26.844 177.369 c 27.094 177.139 27.281 176.854 27.41 176.522
 c 27.539 176.194 27.605 175.826 27.605 175.42 c 27.605 175.248 27.594 175.076
 27.574 174.904 c 27.551 174.736 27.516 174.572 27.469 174.404 c 29.777 
174.404 l 29.777 173.447 l 22.051 173.447 l 22.051 174.299 l 23.09 174.33
 l 22.699 174.6 22.414 174.889 22.23 175.197 c 22.047 175.51 21.957 175.846
 21.953 176.201 c 21.957 176.518 22.02 176.795 22.148 177.033 c 22.277 177.272
 22.461 177.471 22.703 177.627 c 22.938 177.791 23.227 177.908 23.566 177.986
 c 23.898 178.065 24.27 178.104 24.68 178.104 c h
24.742 177.131 m 24.074 177.131 23.578 177.033 23.254 176.838 c 22.926 
176.643 22.766 176.369 22.766 176.01 c 22.766 175.776 22.871 175.522 23.09
 175.248 c 23.301 174.983 23.621 174.701 24.047 174.404 c 26.594 174.404
 l 26.664 174.565 26.723 174.736 26.762 174.924 c 26.801 175.115 26.82 175.303
 26.82 175.486 c 26.82 176.006 26.652 176.408 26.316 176.697 c 25.98 176.986
 25.453 177.131 24.742 177.131 c h
22.051 167.244 m 22.051 168.1 l 22.938 168.131 l 22.742 168.299 22.586 
168.455 22.461 168.6 c 22.336 168.748 22.234 168.893 22.16 169.037 c 22.086
 169.186 22.035 169.334 22 169.479 c 21.973 169.631 21.957 169.787 21.953
 169.947 c 21.957 170.518 22.121 170.944 22.449 171.229 c 22.781 171.518
 23.281 171.662 23.953 171.658 c 27.543 171.658 l 27.543 170.705 l 24.031
 170.705 l 23.188 170.705 22.766 170.389 22.766 169.756 c 22.766 169.639
 22.781 169.526 22.816 169.416 c 22.852 169.307 22.914 169.19 23 169.065
 c 23.086 168.944 23.199 168.815 23.348 168.67 c 23.488 168.533 23.672 168.373
 23.898 168.197 c 27.543 168.197 l 27.543 167.244 l h
22.051 160.553 m 22.051 161.858 l 24.992 164.42 l 22.051 164.42 l 22.051
 165.369 l 29.777 165.369 l 29.777 164.42 l 25.031 164.42 l 27.543 161.951
 l 27.543 160.694 l 25.008 163.272 l h
22.051 154.908 m 22.051 155.764 l 22.938 155.795 l 22.742 155.963 22.586
 156.119 22.461 156.264 c 22.336 156.412 22.234 156.557 22.16 156.701 c 
22.086 156.85 22.035 156.998 22 157.143 c 21.973 157.295 21.957 157.451 
21.953 157.611 c 21.957 158.182 22.121 158.608 22.449 158.893 c 22.781 159.182
 23.281 159.326 23.953 159.322 c 27.543 159.322 l 27.543 158.369 l 24.031
 158.369 l 23.188 158.369 22.766 158.053 22.766 157.42 c 22.766 157.303 
22.781 157.19 22.816 157.08 c 22.852 156.971 22.914 156.854 23 156.729 c
 23.086 156.608 23.199 156.479 23.348 156.334 c 23.488 156.197 23.672 156.037
 23.898 155.861 c 27.543 155.861 l 27.543 154.908 l h
27.543 152.928 m 27.543 152.057 l 26.531 152.029 l 26.918 151.705 27.199
 151.385 27.375 151.069 c 27.551 150.756 27.641 150.44 27.641 150.115 c 
27.641 149.553 27.453 149.119 27.086 148.822 c 26.715 148.529 26.168 148.397
 25.445 148.416 c 25.445 149.377 l 25.922 149.369 26.273 149.44 26.492 149.588
 c 26.711 149.744 26.82 149.963 26.82 150.252 c 26.82 150.381 26.797 150.51
 26.75 150.639 c 26.703 150.768 26.629 150.901 26.531 151.037 c 26.43 151.174
 26.301 151.319 26.145 151.471 c 25.984 151.627 25.797 151.791 25.578 151.963
 c 22.051 151.963 l 22.051 152.928 l h
26.754 145.111 m 26.754 146.736 l 27.543 146.736 l 27.543 144.151 l 22.844
 144.151 l 22.844 142.514 l 22.051 142.514 l 22.051 146.916 l 22.844 146.916
 l 22.844 145.111 l h
29.844 144.779 m 29.844 144.678 29.824 144.576 29.785 144.483 c 29.746 
144.393 29.691 144.315 29.625 144.244 c 29.551 144.178 29.473 144.127 29.387
 144.088 c 29.297 144.053 29.199 144.033 29.094 144.029 c 28.992 144.033
 28.895 144.053 28.805 144.088 c 28.711 144.127 28.629 144.178 28.563 144.244
 c 28.492 144.315 28.441 144.393 28.402 144.483 c 28.363 144.576 28.344 
144.678 28.344 144.779 c 28.344 144.889 28.363 144.986 28.402 145.072 c 
28.441 145.166 28.492 145.244 28.563 145.311 c 28.629 145.381 28.711 145.436
 28.805 145.471 c 28.895 145.514 28.992 145.533 29.094 145.529 c 29.199 
145.533 29.297 145.514 29.387 145.471 c 29.473 145.436 29.551 145.381 29.625
 145.311 c 29.691 145.244 29.746 145.166 29.785 145.072 c 29.824 144.986
 29.844 144.889 29.844 144.779 c h
29.199 129.611 m 22.051 130.092 l 22.051 131.354 l 24.594 132.24 l 25.41
 132.486 l 24.527 132.744 l 22.051 133.565 l 22.051 134.783 l 29.199 135.276
 l 29.199 134.358 l 24.336 134.076 l 23.004 133.994 l 24.133 133.651 l 26.785
 132.787 l 26.785 132.115 l 23.941 131.119 l 23.004 130.787 l 23.988 130.764
 l 29.199 130.479 l h
24.84 123.697 m 24.41 123.701 24.016 123.76 23.664 123.881 c 23.305 124.002
 23.004 124.178 22.754 124.401 c 22.5 124.627 22.301 124.901 22.164 125.225
 c 22.023 125.553 21.957 125.92 21.953 126.33 c 21.957 126.725 22.016 127.08
 22.137 127.389 c 22.258 127.701 22.438 127.963 22.676 128.182 c 22.91 128.401
 23.203 128.569 23.555 128.678 c 23.902 128.795 24.305 128.85 24.762 128.85
 c 25.188 128.85 25.578 128.791 25.93 128.67 c 26.281 128.553 26.582 128.381
 26.836 128.151 c 27.09 127.928 27.289 127.651 27.43 127.326 c 27.57 127.002
 27.641 126.635 27.641 126.221 c 27.641 125.83 27.578 125.479 27.457 125.162
 c 27.332 124.854 27.152 124.588 26.918 124.369 c 26.68 124.154 26.387 123.99
 26.043 123.873 c 25.691 123.76 25.293 123.701 24.84 123.697 c h
24.797 124.674 m 25.133 124.678 25.43 124.717 25.684 124.787 c 25.938 124.865
 26.148 124.971 26.32 125.104 c 26.488 125.244 26.617 125.412 26.703 125.611
 c 26.789 125.811 26.832 126.033 26.832 126.276 c 26.832 126.565 26.773 
126.807 26.664 127.006 c 26.547 127.209 26.398 127.373 26.215 127.502 c 
26.027 127.635 25.813 127.733 25.566 127.787 c 25.32 127.85 25.063 127.877
 24.797 127.877 c 24.457 127.877 24.16 127.842 23.906 127.768 c 23.648 127.694
 23.434 127.588 23.266 127.447 c 23.094 127.311 22.969 127.143 22.883 126.944
 c 22.797 126.748 22.754 126.526 22.758 126.276 c 22.754 125.994 22.809 
125.748 22.922 125.545 c 23.031 125.342 23.18 125.178 23.367 125.049 c 23.551
 124.92 23.766 124.826 24.016 124.764 c 24.258 124.709 24.52 124.678 24.797
 124.674 c h
27.543 122.084 m 27.543 121.213 l 26.531 121.186 l 26.918 120.861 27.199
 120.541 27.375 120.225 c 27.551 119.912 27.641 119.596 27.641 119.272 c
 27.641 118.709 27.453 118.276 27.086 117.979 c 26.715 117.686 26.168 117.553
 25.445 117.572 c 25.445 118.533 l 25.922 118.526 26.273 118.596 26.492 
118.744 c 26.711 118.901 26.82 119.119 26.82 119.408 c 26.82 119.537 26.797
 119.666 26.75 119.795 c 26.703 119.924 26.629 120.057 26.531 120.194 c 
26.43 120.33 26.301 120.475 26.145 120.627 c 25.984 120.783 25.797 120.947
 25.578 121.119 c 22.051 121.119 l 22.051 122.084 l h
22.051 111.201 m 22.051 112.506 l 24.992 115.069 l 22.051 115.069 l 22.051
 116.018 l 29.777 116.018 l 29.777 115.069 l 25.031 115.069 l 27.543 112.6
 l 27.543 111.342 l 25.008 113.92 l h
23.551 105.623 m 23.355 105.627 23.18 105.658 23.027 105.721 c 22.875 105.787
 22.738 105.877 22.621 105.99 c 22.5 106.104 22.398 106.236 22.316 106.385
 c 22.23 106.537 22.164 106.694 22.109 106.861 c 22.055 107.033 22.016 107.209
 21.992 107.385 c 21.969 107.565 21.957 107.74 21.953 107.908 c 21.957 108.283
 21.973 108.623 22.004 108.936 c 22.035 109.248 22.086 109.553 22.16 109.85
 c 23.035 109.85 l 22.941 109.529 22.871 109.213 22.828 108.893 c 22.777
 108.58 22.754 108.264 22.758 107.947 c 22.754 107.494 22.816 107.158 22.941
 106.936 c 23.066 106.721 23.242 106.611 23.473 106.608 c 23.57 106.611 
23.66 106.627 23.738 106.662 c 23.816 106.697 23.891 106.76 23.961 106.85
 c 24.031 106.944 24.105 107.088 24.184 107.276 c 24.258 107.471 24.344 
107.729 24.445 108.057 c 24.516 108.307 24.598 108.537 24.695 108.744 c 
24.785 108.955 24.898 109.135 25.027 109.287 c 25.152 109.444 25.301 109.565
 25.473 109.651 c 25.645 109.736 25.848 109.779 26.082 109.779 c 26.234 
109.779 26.402 109.744 26.586 109.674 c 26.766 109.604 26.934 109.483 27.094
 109.311 c 27.246 109.139 27.375 108.908 27.484 108.615 c 27.586 108.326
 27.641 107.963 27.641 107.522 c 27.641 107.311 27.629 107.072 27.605 106.807
 c 27.582 106.549 27.539 106.272 27.48 105.983 c 26.633 105.983 l 26.703
 106.283 26.754 106.569 26.793 106.834 c 26.824 107.104 26.844 107.338 26.848
 107.533 c 26.844 107.776 26.824 107.975 26.793 108.131 c 26.754 108.295
 26.703 108.424 26.641 108.526 c 26.574 108.627 26.5 108.701 26.418 108.74
 c 26.328 108.787 26.238 108.807 26.141 108.807 c 26.039 108.807 25.949 
108.787 25.871 108.748 c 25.793 108.709 25.715 108.639 25.641 108.537 c 
25.563 108.436 25.488 108.291 25.414 108.104 c 25.34 107.916 25.258 107.674
 25.172 107.373 c 25.074 107.049 24.977 106.776 24.875 106.553 c 24.77 106.334
 24.652 106.154 24.527 106.014 c 24.398 105.877 24.254 105.776 24.094 105.713
 c 23.934 105.654 23.754 105.627 23.551 105.623 c h
22.051 99.389 m 22.051 100.342 l 25.555 100.342 l 25.977 100.342 26.293
 100.424 26.504 100.58 c 26.715 100.744 26.82 100.971 26.82 101.26 c 26.82
 101.393 26.801 101.51 26.766 101.619 c 26.73 101.729 26.672 101.846 26.586
 101.967 c 26.5 102.088 26.383 102.221 26.238 102.361 c 26.09 102.506 25.906
 102.666 25.691 102.85 c 22.051 102.85 l 22.051 103.803 l 29.777 103.803
 l 29.777 102.85 l 27.543 102.85 l 26.676 102.885 l 26.852 102.736 27.004
 102.592 27.129 102.444 c 27.25 102.303 27.348 102.158 27.426 102.014 c 
27.5 101.869 27.555 101.721 27.59 101.572 c 27.621 101.424 27.641 101.272
 27.641 101.108 c 27.641 100.565 27.473 100.139 27.141 99.838 c 26.805 99.541
 26.301 99.393 25.633 99.389 c h
24.84 92.854 m 24.41 92.858 24.016 92.916 23.664 93.037 c 23.305 93.158
 23.004 93.334 22.754 93.557 c 22.5 93.783 22.301 94.057 22.164 94.381 c
 22.023 94.709 21.957 95.076 21.953 95.486 c 21.957 95.881 22.016 96.236
 22.137 96.545 c 22.258 96.858 22.438 97.119 22.676 97.338 c 22.91 97.557
 23.203 97.725 23.555 97.834 c 23.902 97.951 24.305 98.006 24.762 98.006
 c 25.188 98.006 25.578 97.947 25.93 97.826 c 26.281 97.709 26.582 97.537
 26.836 97.307 c 27.09 97.084 27.289 96.807 27.43 96.483 c 27.57 96.158 
27.641 95.791 27.641 95.377 c 27.641 94.986 27.578 94.635 27.457 94.319 
c 27.332 94.01 27.152 93.744 26.918 93.526 c 26.68 93.311 26.387 93.147 
26.043 93.029 c 25.691 92.916 25.293 92.858 24.84 92.854 c h
24.797 93.83 m 25.133 93.834 25.43 93.873 25.684 93.944 c 25.938 94.022
 26.148 94.127 26.32 94.26 c 26.488 94.401 26.617 94.569 26.703 94.768 c
 26.789 94.967 26.832 95.19 26.832 95.432 c 26.832 95.721 26.773 95.963 
26.664 96.162 c 26.547 96.365 26.398 96.529 26.215 96.658 c 26.027 96.791
 25.813 96.889 25.566 96.944 c 25.32 97.006 25.063 97.033 24.797 97.033 
c 24.457 97.033 24.16 96.998 23.906 96.924 c 23.648 96.85 23.434 96.744 
23.266 96.604 c 23.094 96.467 22.969 96.299 22.883 96.1 c 22.797 95.904 
22.754 95.682 22.758 95.432 c 22.754 95.151 22.809 94.904 22.922 94.701 
c 23.031 94.498 23.18 94.334 23.367 94.205 c 23.551 94.076 23.766 93.983
 24.016 93.92 c 24.258 93.865 24.52 93.834 24.797 93.83 c h
24.895 86.772 m 24.402 86.772 23.977 86.842 23.613 86.979 c 23.246 87.115
 22.945 87.303 22.707 87.545 c 22.465 87.787 22.281 88.072 22.164 88.397
 c 22.043 88.729 21.988 89.084 21.984 89.463 c 21.988 89.639 21.996 89.815
 22.012 89.986 c 22.031 90.162 22.059 90.334 22.105 90.51 c 19.809 90.51
 l 19.809 91.463 l 27.543 91.463 l 27.543 90.615 l 26.621 90.557 l 26.996
 90.283 27.258 89.994 27.414 89.682 c 27.563 89.377 27.641 89.041 27.641
 88.674 c 27.641 88.365 27.574 88.088 27.441 87.85 c 27.309 87.615 27.121
 87.416 26.887 87.252 c 26.645 87.092 26.359 86.975 26.023 86.893 c 25.688
 86.815 25.309 86.772 24.895 86.772 c h
24.852 87.744 m 25.137 87.744 25.398 87.768 25.641 87.807 c 25.879 87.854
 26.086 87.92 26.262 88.006 c 26.43 88.1 26.563 88.217 26.664 88.358 c 26.758
 88.502 26.809 88.67 26.809 88.865 c 26.809 88.986 26.789 89.108 26.75 89.233
 c 26.711 89.358 26.645 89.486 26.559 89.619 c 26.465 89.752 26.348 89.893
 26.203 90.041 c 26.055 90.19 25.871 90.346 25.656 90.51 c 22.992 90.51 
l 22.918 90.338 22.859 90.154 22.82 89.959 c 22.773 89.768 22.754 89.58 
22.758 89.389 c 22.754 88.881 22.926 88.479 23.277 88.182 c 23.621 87.893
 24.148 87.744 24.852 87.744 c h
24.895 74.436 m 24.434 74.436 24.027 74.498 23.672 74.623 c 23.309 74.748
 23.004 74.928 22.758 75.158 c 22.504 75.393 22.313 75.674 22.184 76.006
 c 22.051 76.338 21.988 76.713 21.984 77.127 c 21.988 77.451 22.016 77.783
 22.078 78.123 c 22.137 78.463 22.234 78.799 22.375 79.127 c 29.777 79.127
 l 29.777 78.174 l 27.652 78.174 l 26.633 78.221 l 27 77.947 27.258 77.654
 27.414 77.342 c 27.563 77.029 27.641 76.697 27.641 76.338 c 27.641 76.029
 27.574 75.752 27.441 75.514 c 27.309 75.279 27.121 75.08 26.887 74.916 
c 26.645 74.756 26.359 74.639 26.023 74.557 c 25.688 74.479 25.309 74.436
 24.895 74.436 c h
24.852 75.408 m 25.137 75.408 25.398 75.432 25.641 75.471 c 25.879 75.518
 26.086 75.584 26.262 75.67 c 26.43 75.764 26.563 75.881 26.664 76.022 c
 26.758 76.166 26.809 76.334 26.809 76.529 c 26.809 76.651 26.789 76.772
 26.75 76.897 c 26.711 77.022 26.645 77.151 26.559 77.283 c 26.465 77.416
 26.348 77.557 26.203 77.705 c 26.055 77.854 25.871 78.01 25.656 78.174 
c 22.992 78.174 l 22.918 77.99 22.859 77.803 22.82 77.608 c 22.773 77.416
 22.754 77.233 22.758 77.053 c 22.754 76.838 22.789 76.627 22.859 76.428
 c 22.93 76.233 23.043 76.061 23.207 75.904 c 23.363 75.756 23.578 75.635
 23.852 75.545 c 24.117 75.455 24.453 75.408 24.852 75.408 c h
27.543 68.076 m 22.629 69.947 l 22.133 70.143 21.707 70.342 21.34 70.545
 c 20.98 70.756 20.684 70.979 20.453 71.221 c 20.223 71.467 20.051 71.736
 19.941 72.026 c 19.832 72.319 19.777 72.643 19.777 73.002 c 19.777 73.1
 19.781 73.186 19.781 73.26 c 19.789 73.338 19.793 73.424 19.797 73.51 c
 20.66 73.51 l 20.652 73.436 20.641 73.35 20.633 73.252 c 20.625 73.158 
20.621 73.057 20.617 72.947 c 20.621 72.776 20.648 72.611 20.695 72.459 
c 20.75 72.311 20.832 72.166 20.945 72.029 c 21.063 71.897 21.211 71.768
 21.391 71.643 c 21.574 71.518 21.793 71.397 22.051 71.279 c 27.543 73.475
 l 27.543 72.389 l 23.91 71.002 l 23.059 70.721 l 23.934 70.404 l 27.543
 69.119 l h
22.051 55.748 m 22.051 56.846 l 24.336 57.912 l 24.508 57.998 24.652 58.08
 24.77 58.158 c 24.887 58.244 24.977 58.334 25.043 58.428 c 25.109 58.529
 25.156 58.635 25.188 58.748 c 25.215 58.865 25.23 58.994 25.234 59.131 
c 25.234 59.592 l 22.051 59.592 l 22.051 60.565 l 29.199 60.565 l 29.199
 58.651 l 29.199 58.236 29.152 57.877 29.063 57.58 c 28.969 57.283 28.84
 57.041 28.68 56.846 c 28.512 56.658 28.316 56.518 28.086 56.424 c 27.852
 56.338 27.594 56.291 27.316 56.287 c 27.094 56.291 26.883 56.326 26.684
 56.389 c 26.484 56.459 26.305 56.557 26.145 56.682 c 25.98 56.815 25.84
 56.975 25.723 57.162 c 25.602 57.358 25.512 57.576 25.457 57.819 c 25.387
 57.623 25.266 57.451 25.094 57.307 c 24.918 57.17 24.688 57.026 24.402 
56.877 c h
27.234 57.307 m 27.613 57.311 27.898 57.432 28.094 57.666 c 28.281 57.908
 28.379 58.244 28.379 58.674 c 28.379 59.592 l 26.016 59.592 l 26.016 58.803
 l 26.012 58.576 26.039 58.369 26.094 58.186 c 26.148 58.002 26.227 57.846
 26.328 57.713 c 26.43 57.588 26.555 57.486 26.711 57.412 c 26.859 57.346
 27.035 57.311 27.234 57.307 c h
25.672 49.471 m 25.027 49.475 24.473 49.549 24.008 49.697 c 23.539 49.85
 23.152 50.053 22.852 50.311 c 22.543 50.569 22.316 50.869 22.172 51.213
 c 22.027 51.557 21.957 51.92 21.953 52.303 c 21.957 52.764 22.035 53.166
 22.199 53.502 c 22.363 53.846 22.605 54.127 22.918 54.35 c 23.23 54.576
 23.613 54.744 24.066 54.85 c 24.516 54.963 25.023 55.018 25.59 55.014 c
 26.223 55.018 26.77 54.944 27.238 54.791 c 27.703 54.643 28.09 54.44 28.398
 54.182 c 28.699 53.928 28.926 53.627 29.074 53.283 c 29.219 52.944 29.293
 52.58 29.297 52.194 c 29.293 51.736 29.207 51.338 29.043 50.994 c 28.871
 50.658 28.633 50.373 28.324 50.143 c 28.012 49.92 27.633 49.752 27.184 
49.639 c 26.734 49.529 26.23 49.475 25.672 49.471 c h
25.602 50.483 m 26.02 50.486 26.402 50.518 26.75 50.58 c 27.098 50.643 
27.395 50.748 27.648 50.889 c 27.898 51.033 28.094 51.213 28.234 51.436 
c 28.371 51.662 28.441 51.936 28.445 52.248 c 28.441 52.557 28.367 52.819
 28.223 53.037 c 28.07 53.26 27.871 53.444 27.621 53.584 c 27.367 53.729
 27.07 53.834 26.73 53.901 c 26.387 53.971 26.023 54.002 25.645 54.002 c
 25.215 54.002 24.828 53.971 24.484 53.904 c 24.133 53.842 23.836 53.74 
23.59 53.596 c 23.336 53.459 23.141 53.276 23.008 53.053 c 22.867 52.83 
22.801 52.565 22.801 52.248 c 22.801 51.944 22.871 51.678 23.02 51.455 c
 23.164 51.233 23.367 51.049 23.621 50.904 c 23.875 50.764 24.172 50.658
 24.512 50.588 c 24.848 50.522 25.211 50.486 25.602 50.483 c h
24.188 43.604 m 23.844 43.604 23.539 43.67 23.277 43.803 c 23.012 43.936
 22.789 44.127 22.609 44.373 c 22.422 44.619 22.285 44.916 22.191 45.264
 c 22.098 45.611 22.051 45.998 22.051 46.424 c 22.051 48.295 l 29.199 48.295
 l 29.199 46.248 l 29.199 44.658 28.617 43.861 27.461 43.858 c 27.07 43.861
 26.738 43.955 26.461 44.135 c 26.184 44.322 25.98 44.619 25.848 45.033 
c 25.809 44.842 25.746 44.662 25.66 44.486 c 25.57 44.315 25.457 44.162 
25.32 44.029 c 25.18 43.901 25.016 43.795 24.828 43.717 c 24.637 43.643 
24.422 43.604 24.188 43.604 c h
27.328 44.869 m 27.473 44.869 27.609 44.893 27.738 44.936 c 27.867 44.983
 27.98 45.061 28.074 45.166 c 28.168 45.279 28.242 45.428 28.297 45.611 
c 28.352 45.799 28.379 46.033 28.379 46.315 c 28.379 47.322 l 26.141 47.322
 l 26.141 46.346 l 26.141 46.127 26.164 45.928 26.211 45.744 c 26.258 45.565
 26.328 45.408 26.43 45.279 c 26.523 45.151 26.648 45.053 26.801 44.979 
c 26.945 44.908 27.121 44.869 27.328 44.869 c h
24.156 44.635 m 24.336 44.635 24.5 44.674 24.648 44.752 c 24.789 44.83 
24.914 44.944 25.016 45.084 c 25.117 45.233 25.195 45.408 25.25 45.619 c
 25.305 45.83 25.332 46.069 25.332 46.326 c 25.332 47.322 l 22.871 47.322
 l 22.871 46.291 l 22.871 45.736 22.973 45.319 23.184 45.045 c 23.387 44.772
 23.711 44.635 24.156 44.635 c h
25.672 37.135 m 25.027 37.139 24.473 37.213 24.008 37.361 c 23.539 37.514
 23.152 37.717 22.852 37.975 c 22.543 38.233 22.316 38.533 22.172 38.877
 c 22.027 39.221 21.957 39.584 21.953 39.967 c 21.957 40.428 22.035 40.83
 22.199 41.166 c 22.363 41.51 22.605 41.791 22.918 42.014 c 23.23 42.24 
23.613 42.408 24.066 42.514 c 24.516 42.627 25.023 42.682 25.59 42.678 c
 26.223 42.682 26.77 42.608 27.238 42.455 c 27.703 42.307 28.09 42.104 28.398
 41.846 c 28.699 41.592 28.926 41.291 29.074 40.947 c 29.219 40.608 29.293
 40.244 29.297 39.858 c 29.293 39.401 29.207 39.002 29.043 38.658 c 28.871
 38.322 28.633 38.037 28.324 37.807 c 28.012 37.584 27.633 37.416 27.184
 37.303 c 26.734 37.194 26.23 37.139 25.672 37.135 c h
25.602 38.147 m 26.02 38.151 26.402 38.182 26.75 38.244 c 27.098 38.307
 27.395 38.412 27.648 38.553 c 27.898 38.697 28.094 38.877 28.234 39.1 c
 28.371 39.326 28.441 39.6 28.445 39.912 c 28.441 40.221 28.367 40.483 28.223
 40.701 c 28.07 40.924 27.871 41.108 27.621 41.248 c 27.367 41.393 27.07
 41.498 26.73 41.565 c 26.387 41.635 26.023 41.666 25.645 41.666 c 25.215
 41.666 24.828 41.635 24.484 41.569 c 24.133 41.506 23.836 41.404 23.59 
41.26 c 23.336 41.123 23.141 40.94 23.008 40.717 c 22.867 40.494 22.801 
40.229 22.801 39.912 c 22.801 39.608 22.871 39.342 23.02 39.119 c 23.164
 38.897 23.367 38.713 23.621 38.569 c 23.875 38.428 24.172 38.322 24.512
 38.252 c 24.848 38.186 25.211 38.151 25.602 38.147 c h
22.051 30.795 m 22.051 32.026 l 24.938 33.764 l 22.051 35.51 l 22.051 36.725
 l 25.703 34.346 l 29.199 36.533 l 29.199 35.377 l 26.508 33.744 l 29.199
 32.096 l 29.199 30.975 l 25.746 33.17 l h
f
11.672 222.197 m 11.027 222.201 10.473 222.276 10.008 222.424 c 9.539 222.576
 9.152 222.779 8.852 223.037 c 8.543 223.295 8.316 223.596 8.172 223.94 
c 8.027 224.283 7.957 224.647 7.953 225.029 c 7.957 225.49 8.035 225.893
 8.199 226.229 c 8.363 226.572 8.605 226.854 8.918 227.076 c 9.23 227.303
 9.613 227.471 10.066 227.576 c 10.516 227.69 11.023 227.744 11.59 227.74
 c 12.223 227.744 12.77 227.67 13.238 227.518 c 13.703 227.369 14.09 227.166
 14.398 226.908 c 14.699 226.654 14.926 226.354 15.074 226.01 c 15.219 225.67
 15.293 225.307 15.297 224.92 c 15.293 224.463 15.207 224.065 15.043 223.721
 c 14.871 223.385 14.633 223.1 14.324 222.869 c 14.012 222.647 13.633 222.479
 13.184 222.365 c 12.734 222.256 12.23 222.201 11.672 222.197 c h
11.602 223.209 m 12.02 223.213 12.402 223.244 12.75 223.307 c 13.098 223.369
 13.395 223.475 13.648 223.615 c 13.898 223.76 14.094 223.94 14.234 224.162
 c 14.371 224.389 14.441 224.662 14.445 224.975 c 14.441 225.283 14.367 
225.545 14.223 225.764 c 14.07 225.986 13.871 226.17 13.621 226.311 c 13.367
 226.455 13.07 226.561 12.73 226.627 c 12.387 226.697 12.023 226.729 11.645
 226.729 c 11.215 226.729 10.828 226.697 10.484 226.631 c 10.133 226.569
 9.836 226.467 9.59 226.322 c 9.336 226.186 9.141 226.002 9.008 225.779 
c 8.867 225.557 8.801 225.291 8.801 224.975 c 8.801 224.67 8.871 224.404
 9.02 224.182 c 9.164 223.959 9.367 223.776 9.621 223.631 c 9.875 223.49
 10.172 223.385 10.512 223.315 c 10.848 223.248 11.211 223.213 11.602 223.209
 c h
8.254 216.744 m 8.156 216.994 8.09 217.248 8.043 217.506 c 8 217.772 7.977
 218.041 7.973 218.315 c 7.977 219.186 8.207 219.854 8.68 220.319 c 9.148
 220.791 9.836 221.026 10.742 221.022 c 11.172 221.026 11.566 220.955 11.922
 220.819 c 12.273 220.686 12.574 220.498 12.828 220.252 c 13.078 220.01 
13.273 219.717 13.41 219.377 c 13.547 219.037 13.617 218.662 13.617 218.252
 c 13.617 217.971 13.594 217.705 13.555 217.455 c 13.512 217.209 13.449 
216.975 13.359 216.744 c 12.453 216.744 l 12.574 216.986 12.664 217.229 
12.723 217.471 c 12.777 217.721 12.809 217.975 12.809 218.233 c 12.809 218.483
 12.762 218.713 12.668 218.924 c 12.574 219.143 12.438 219.33 12.266 219.494
 c 12.086 219.658 11.875 219.791 11.625 219.885 c 11.375 219.983 11.09 220.029
 10.773 220.026 c 10.105 220.029 9.609 219.865 9.281 219.541 c 8.953 219.221
 8.789 218.776 8.789 218.197 c 8.789 217.944 8.816 217.694 8.875 217.447
 c 8.934 217.209 9.023 216.975 9.141 216.744 c h
8.129 210.412 m 8.074 210.631 8.039 210.854 8.012 211.08 c 7.988 211.311
 7.977 211.545 7.973 211.779 c 7.977 212.475 8.129 212.986 8.441 213.322
 c 8.75 213.662 9.23 213.834 9.879 213.83 c 12.742 213.83 l 12.742 215.369
 l 13.543 215.369 l 13.543 213.83 l 15.051 213.83 l 15.297 212.881 l 13.543
 212.881 l 13.543 210.412 l 12.742 210.412 l 12.742 212.881 l 9.953 212.881
 l 9.559 212.885 9.266 212.779 9.07 212.569 c 8.875 212.361 8.777 212.053
 8.777 211.639 c 8.777 211.467 8.789 211.276 8.816 211.065 c 8.844 210.861
 8.887 210.643 8.949 210.412 c h
9.773 206.51 m 9.773 206.385 9.75 206.268 9.703 206.158 c 9.656 206.049
 9.59 205.955 9.504 205.869 c 9.418 205.791 9.32 205.725 9.211 205.674 c
 9.102 205.631 8.98 205.608 8.855 205.604 c 8.727 205.608 8.609 205.631 
8.504 205.674 c 8.391 205.725 8.297 205.791 8.215 205.869 c 8.133 205.955
 8.07 206.049 8.023 206.158 c 7.98 206.268 7.957 206.385 7.953 206.51 c 
7.957 206.639 7.98 206.76 8.023 206.865 c 8.07 206.979 8.133 207.072 8.215
 207.154 c 8.297 207.236 8.391 207.303 8.504 207.346 c 8.609 207.397 8.727
 207.42 8.855 207.416 c 8.98 207.42 9.102 207.397 9.211 207.346 c 9.32 207.303
 9.418 207.236 9.504 207.154 c 9.59 207.072 9.656 206.979 9.703 206.865 
c 9.75 206.76 9.773 206.639 9.773 206.51 c h
8.051 191.756 m 8.051 196.248 l 8.938 196.248 l 8.938 194.408 l 14.152 
194.408 l 13.223 196.119 l 14.035 196.471 l 15.23 194.197 l 15.23 193.354
 l 8.938 193.354 l 8.938 191.756 l h
9.633 185.174 m 9.633 186.393 l 8.051 186.393 l 8.051 187.365 l 9.633 187.365
 l 9.633 190.807 l 10.469 190.807 l 15.199 187.76 l 15.199 186.393 l 10.469
 186.393 l 10.469 185.174 l h
14.281 187.365 m 10.469 189.854 l 10.469 187.365 l h
8.129 179.569 m 8.074 179.787 8.039 180.01 8.012 180.236 c 7.988 180.467
 7.977 180.701 7.973 180.936 c 7.977 181.631 8.129 182.143 8.441 182.479
 c 8.75 182.819 9.23 182.99 9.879 182.986 c 12.742 182.986 l 12.742 184.526
 l 13.543 184.526 l 13.543 182.986 l 15.051 182.986 l 15.297 182.037 l 13.543
 182.037 l 13.543 179.569 l 12.742 179.569 l 12.742 182.037 l 9.953 182.037
 l 9.559 182.041 9.266 181.936 9.07 181.725 c 8.875 181.518 8.777 181.209
 8.777 180.795 c 8.777 180.623 8.789 180.432 8.816 180.221 c 8.844 180.018
 8.887 179.799 8.949 179.569 c h
8.051 173.412 m 8.051 174.365 l 11.555 174.365 l 11.977 174.365 12.293 
174.447 12.504 174.604 c 12.715 174.768 12.82 174.994 12.82 175.283 c 12.82
 175.416 12.801 175.533 12.766 175.643 c 12.73 175.752 12.672 175.869 12.586
 175.99 c 12.5 176.111 12.383 176.244 12.238 176.385 c 12.09 176.529 11.906
 176.69 11.691 176.873 c 8.051 176.873 l 8.051 177.826 l 15.777 177.826 
l 15.777 176.873 l 13.543 176.873 l 12.676 176.908 l 12.852 176.76 13.004
 176.615 13.129 176.467 c 13.25 176.326 13.348 176.182 13.426 176.037 c 
13.5 175.893 13.555 175.744 13.59 175.596 c 13.621 175.447 13.641 175.295
 13.641 175.131 c 13.641 174.588 13.473 174.162 13.141 173.861 c 12.805 
173.565 12.301 173.416 11.633 173.412 c h
8.051 160.854 m 8.051 165.561 l 8.902 165.561 l 10.742 163.713 l 11.039
 163.412 11.301 163.166 11.52 162.975 c 11.738 162.787 11.938 162.639 12.117
 162.533 c 12.297 162.428 12.465 162.358 12.625 162.319 c 12.785 162.283
 12.961 162.264 13.148 162.264 c 13.32 162.264 13.484 162.287 13.648 162.334
 c 13.805 162.381 13.945 162.455 14.066 162.553 c 14.184 162.654 14.277 
162.783 14.348 162.936 c 14.414 163.096 14.449 163.283 14.453 163.498 c 
14.449 163.807 14.383 164.08 14.25 164.326 c 14.117 164.576 13.941 164.807
 13.727 165.01 c 14.355 165.533 l 14.637 165.268 14.863 164.959 15.039 164.604
 c 15.207 164.252 15.293 163.842 15.297 163.373 c 15.293 163.057 15.246 
162.768 15.152 162.506 c 15.059 162.248 14.922 162.026 14.742 161.834 c 
14.563 161.647 14.344 161.498 14.086 161.393 c 13.828 161.291 13.535 161.24
 13.215 161.236 c 12.938 161.24 12.684 161.276 12.453 161.346 c 12.215 161.42
 11.984 161.529 11.754 161.678 c 11.523 161.826 11.281 162.014 11.035 162.233
 c 10.785 162.459 10.516 162.725 10.223 163.029 c 8.957 164.326 l 8.957 
160.854 l h
11.621 154.522 m 11.07 154.526 10.574 154.58 10.125 154.686 c 9.672 154.799
 9.285 154.967 8.965 155.186 c 8.645 155.412 8.395 155.686 8.219 156.014
 c 8.043 156.342 7.957 156.729 7.953 157.174 c 7.957 157.557 8.027 157.908
 8.168 158.221 c 8.309 158.537 8.527 158.803 8.832 159.022 c 9.129 159.244
 9.512 159.416 9.977 159.537 c 10.438 159.658 10.984 159.717 11.621 159.717
 c 12.164 159.717 12.664 159.662 13.117 159.549 c 13.566 159.44 13.953 159.276
 14.281 159.053 c 14.602 158.834 14.852 158.557 15.031 158.225 c 15.203 
157.893 15.293 157.506 15.297 157.065 c 15.293 156.686 15.219 156.338 15.078
 156.022 c 14.93 155.709 14.707 155.44 14.41 155.217 c 14.105 154.994 13.727
 154.822 13.266 154.701 c 12.805 154.584 12.254 154.526 11.621 154.522 c
 h
11.59 155.483 m 11.711 155.486 11.832 155.49 11.957 155.498 c 12.078 155.506
 12.199 155.518 12.316 155.526 c 10.07 158.553 l 9.879 158.502 9.703 158.432
 9.543 158.346 c 9.383 158.26 9.246 158.158 9.129 158.041 c 9.012 157.924
 8.922 157.791 8.859 157.635 c 8.797 157.486 8.766 157.315 8.766 157.119
 c 8.766 156.877 8.824 156.651 8.945 156.444 c 9.066 156.244 9.246 156.072
 9.484 155.928 c 9.719 155.787 10.012 155.678 10.367 155.6 c 10.715 155.526
 11.125 155.486 11.59 155.483 c h
11.656 158.752 m 11.539 158.756 11.426 158.756 11.313 158.752 c 11.199 
158.752 11.09 158.744 10.988 158.733 c 13.223 155.709 l 13.406 155.764 13.574
 155.834 13.73 155.916 c 13.879 156.002 14.012 156.104 14.129 156.217 c 
14.238 156.338 14.324 156.471 14.387 156.615 c 14.445 156.768 14.477 156.936
 14.48 157.119 c 14.477 157.369 14.418 157.592 14.301 157.795 c 14.18 157.998
 14 158.17 13.762 158.311 c 13.523 158.455 13.227 158.565 12.875 158.639
 c 12.52 158.717 12.113 158.756 11.656 158.752 c h
8.051 148.572 m 8.051 153.065 l 8.938 153.065 l 8.938 151.225 l 14.152 
151.225 l 13.223 152.936 l 14.035 153.287 l 15.23 151.014 l 15.23 150.17
 l 8.938 150.17 l 8.938 148.572 l h
10.223 142.483 m 9.906 142.486 9.609 142.549 9.336 142.674 c 9.059 142.803
 8.82 142.994 8.617 143.248 c 8.41 143.506 8.246 143.826 8.129 144.213 c
 8.012 144.6 7.957 145.049 7.953 145.561 c 7.957 145.846 7.965 146.104 7.98
 146.326 c 8 146.557 8.023 146.768 8.051 146.959 c 8.902 146.959 l 8.859
 146.74 8.828 146.502 8.809 146.244 c 8.785 145.994 8.777 145.736 8.777 
145.475 c 8.777 145.119 8.809 144.815 8.871 144.557 c 8.934 144.307 9.023
 144.1 9.148 143.94 c 9.266 143.779 9.414 143.662 9.586 143.588 c 9.758 
143.518 9.949 143.483 10.168 143.479 c 10.359 143.483 10.531 143.526 10.68
 143.611 c 10.824 143.701 10.945 143.822 11.047 143.979 c 11.141 144.139
 11.215 144.33 11.27 144.549 c 11.316 144.772 11.344 145.014 11.344 145.272
 c 11.344 146.084 l 12.125 146.084 l 12.125 145.26 l 12.121 145.049 12.148
 144.854 12.207 144.674 c 12.262 144.502 12.344 144.35 12.453 144.221 c 
12.555 144.096 12.688 143.998 12.844 143.928 c 13 143.861 13.176 143.826
 13.371 143.826 c 13.754 143.826 14.031 143.944 14.207 144.178 c 14.383 
144.412 14.473 144.756 14.473 145.205 c 14.473 145.447 14.445 145.694 14.398
 145.947 c 14.348 146.205 14.277 146.479 14.188 146.768 c 15.02 146.768 
l 15.059 146.647 15.098 146.518 15.133 146.373 c 15.168 146.236 15.199 146.096
 15.223 145.951 c 15.246 145.815 15.262 145.674 15.277 145.533 c 15.285 
145.397 15.293 145.264 15.297 145.135 c 15.293 144.756 15.25 144.424 15.172
 144.135 c 15.086 143.85 14.969 143.608 14.82 143.412 c 14.664 143.221 14.48
 143.076 14.262 142.975 c 14.043 142.881 13.797 142.83 13.523 142.826 c 
13.117 142.83 12.773 142.936 12.496 143.143 c 12.219 143.354 12 143.639 
11.836 144.002 c 11.805 143.819 11.746 143.639 11.66 143.455 c 11.57 143.276
 11.457 143.111 11.32 142.967 c 11.184 142.822 11.023 142.705 10.84 142.615
 c 10.652 142.529 10.445 142.486 10.223 142.483 c h
f
Q Q
showpage
%%Trailer
count op_count sub {pop} repeat
countdictstack dict_count sub {end} repeat
cairo_eps_state restore
%%EOF
