PCBNEW-LibModule-V1  2013/10/08 3:01:43
# encoding utf-8
Units mm
$INDEX
BH-411-1P
BH-411-1P_Offset
CC-6.3-11
DIODE-R-1
LHL08
NTH_3.2
OSX10201-LRPB2
PIN-SOCKET-1x6-L
PKM13EPYH4000
RBS040200
RXEF010
TOUCH_4x4
$EndINDEX
$MODULE BH-411-1P
Po 0 0 0 15 51FA82BA 00000000 ~~
Li BH-411-1P
Sc 0
AR 
Op 0 0 0
T0 19.9 8.3 1 1 0 0.15 N V 21 N "BH-411-1P"
T1 -18.5 -8.5 1 1 0 0.15 N V 21 N "VAL**"
DS 21.3 -8.8 23.1 -8.8 0.15 21
DS -23.6 -9.7 -23.6 -7.9 0.15 21
DS -24.5 -8.8 -22.7 -8.8 0.15 21
DS -25 6.5 25 6.5 0.15 21
DS 25 6.5 25 2.5 0.15 21
DS -25 6.5 -25 2 0.15 21
DS 25 -6.5 25 -2 0.15 21
DS -25 -6.5 25 -6.5 0.15 21
DS -25 -6.5 -25 -2 0.15 21
DS -25 -6.5 -25 -2 0.15 21
DS -25 -6.5 25 -6.5 0.15 21
DS 25 -6.5 25 -2 0.15 21
$PAD
Sh "1" C 4 4 0 0 0
Dr 0.8 0 0
At STD N 00E0FFFF
Ne 0 ""
Po -22.6 0
$EndPAD
$PAD
Sh "2" C 4 4 0 0 0
Dr 0.8 0 0
At STD N 00E0FFFF
Ne 0 ""
Po 22.6 0
$EndPAD
$EndMODULE BH-411-1P
$MODULE BH-411-1P_Offset
Po 0 0 0 15 522042AA 00000000 ~~
Li BH-411-1P_Offset
Sc 0
AR /51F0027D
Op 0 0 0
T0 19.9 8.3 1 1 0 0.15 N V 21 N "BT1"
T1 -18.5 -8.5 1 1 0 0.15 N V 21 N "AAA x1"
DS 21.3 -8.8 23.1 -8.8 0.15 21
DS -23.6 -9.7 -23.6 -7.9 0.15 21
DS -24.5 -8.8 -22.7 -8.8 0.15 21
DS -25 6.5 25 6.5 0.15 21
DS 25 6.5 25 2.5 0.15 21
DS -25 6.5 -25 2 0.15 21
DS 25 -6.5 25 -2 0.15 21
DS -25 -6.5 25 -6.5 0.15 21
DS -25 -6.5 -25 -2 0.15 21
DS -25 -6.5 -25 -2 0.15 21
DS -25 -6.5 25 -6.5 0.15 21
DS 25 -6.5 25 -2 0.15 21
$PAD
Sh "1" R 4 4 0 0 0
Dr 0.8 0.8 0
At STD N 00E0FFFF
Ne 2 "N-0000017"
Po -22.6 0
$EndPAD
$PAD
Sh "2" R 4 4 0 0 0
Dr 0.8 -0.8 0
At STD N 00E0FFFF
Ne 1 "GND"
Po 22.6 0
$EndPAD
$EndMODULE BH-411-1P_Offset
$MODULE CC-6.3-11
Po 0 0 0 15 5210E86A 00000000 ~~
Li CC-6.3-11
Sc 0
AR 
Op 0 0 0
T0 0 2 1 1 0 0.15 N V 21 N "CC-6.3-11"
T1 0 -4 1 1 0 0.15 N V 21 N "VAL**"
DS -3.5 -2.5 -3.5 -1.5 0.15 21
DS -4 -2 -3 -2 0.15 21
DC 0 0 3.15 0 0.15 21
$PAD
Sh "1" R 1.6 1.6 0 0 0
Dr 0.6 0 0
At STD N 00E0FFFF
Ne 0 ""
Po -1.25 0
$EndPAD
$PAD
Sh "2" C 1.6 1.6 0 0 0
Dr 0.6 0 0
At STD N 00E0FFFF
Ne 0 ""
Po 1.25 0
$EndPAD
$EndMODULE CC-6.3-11
$MODULE DIODE-R-1
Po 0 0 0 15 5249C269 00000000 ~~
Li DIODE-R-1
Sc 0
AR 
Op 0 0 0
T0 0 2.5 1 1 0 0.15 N V 21 N "DIODE-R-1"
T1 0 -2 1 1 0 0.15 N V 21 N "D**"
DS 0.8 -1.3 0.8 1.3 0.15 21
DS 0.8 1.3 0.7 1.3 0.15 21
DS 0.7 1.3 0.7 -1.3 0.15 21
DS -1.3 -1.3 -1.3 1.3 0.15 21
DS -1.3 1.3 1.2 1.3 0.15 21
DS 1.2 1.3 1.2 -1.3 0.15 21
DS 1.2 -1.3 -1.3 -1.3 0.15 21
DS 1.8 -1.3 1.8 1.3 0.15 24
DS 1.8 1.3 -1.8 1.3 0.15 24
DS -1.8 1.3 -1.8 -1.3 0.15 24
DS -1.8 -1.3 1.8 -1.3 0.15 24
$PAD
Sh "2" C 1.6 1.6 0 0 0
Dr 0.7 0 0
At STD N 00E0FFFF
Ne 0 ""
Po 2.4 0
$EndPAD
$PAD
Sh "1" C 1.6 1.6 0 0 0
Dr 0.7 0 0
At STD N 00E0FFFF
Ne 0 ""
Po -2.4 0
$EndPAD
$EndMODULE DIODE-R-1
$MODULE LHL08
Po 0 0 0 15 51FA8A2C 00000000 ~~
Li LHL08
Sc 0
AR 
Op 0 0 0
T0 0 3 1 1 0 0.15 N V 21 N "LHL08"
T1 0 6 1 1 0 0.15 N V 21 N "VAL**"
DC 0 0 4.5 0 0.15 21
$PAD
Sh "1" C 1.8 1.8 0 0 0
Dr 0.6 0 0
At STD N 00E0FFFF
Ne 0 ""
Po -2.5 0
$EndPAD
$PAD
Sh "2" C 1.8 1.8 0 0 0
Dr 0.6 0 0
At STD N 00E0FFFF
Ne 0 ""
Po 2.5 0
$EndPAD
$EndMODULE LHL08
$MODULE NTH_3.2
Po 0 0 0 15 5252F703 00000000 ~~
Li NTH_3.2
Sc 0
AR 
Op 0 0 0
T0 0 -2.54 1 1 0 0.15 N I 21 N "NTH_3.2"
T1 0 3.81 1 1 0 0.15 N I 21 N "VAL**"
$PAD
Sh "" C 3.2 3.2 0 0 0
Dr 3.2 0 0
At HOLE N 00F0FFFF
Ne 0 ""
Po 0 0
$EndPAD
$EndMODULE NTH_3.2
$MODULE OSX10201-LRPB2
Po 0 0 0 15 51FA8638 00000000 ~~
Li OSX10201-LRPB2
Sc 0
AR 
Op 0 0 0
T0 6.4 7 1 1 0 0.15 N V 21 N "OSX10201-LRPB2"
T1 -3.6 7 1 1 0 0.15 N V 21 N "VAL**"
DS -10.6 6 13.2 6 0.15 21
DS 13.2 6 13.2 -6 0.15 21
DS 13.2 -6 -13.2 -6 0.15 21
DS -13.2 -6 -13.2 5.4 0.15 21
DS -13.2 5.4 -12.6 6 0.15 21
DS -12.6 6 -12.2 6 0.15 21
DS -11.4 5.6 -11.6 5.8 0.15 21
DS -11.6 6.6 -11.2 6.6 0.15 21
DS -11.4 5.6 -11.4 6.6 0.15 21
DS -12 5 12.6 5 0.15 24
DS 12.6 5 12.4 5 0.15 21
DS -12.6 4.4 -12.6 -5 0.15 24
DS -12.6 4.4 -12 5 0.15 24
DS -12.6 -5 12.6 -5 0.15 24
DS 12.6 -5 12.6 5 0.15 24
$PAD
Sh "1" R 1.6 2.4 0 0 0
Dr 0.8 0 0
At STD N 00E0FFFF
Ne 0 ""
Po -11.43 3.81
$EndPAD
$PAD
Sh "2" O 1.6 2.4 0 0 0
Dr 0.8 0 0
At STD N 00E0FFFF
Ne 0 ""
Po -8.89 3.81
$EndPAD
$PAD
Sh "3" O 1.6 2.4 0 0 0
Dr 0.8 0 0
At STD N 00E0FFFF
Ne 0 ""
Po -6.35 3.81
$EndPAD
$PAD
Sh "4" O 1.6 2.4 0 0 0
Dr 0.8 0 0
At STD N 00E0FFFF
Ne 0 ""
Po -3.81 3.81
$EndPAD
$PAD
Sh "5" O 1.6 2.4 0 0 0
Dr 0.8 0 0
At STD N 00E0FFFF
Ne 0 ""
Po -1.27 3.81
$EndPAD
$PAD
Sh "6" O 1.6 2.4 0 0 0
Dr 0.8 0 0
At STD N 00E0FFFF
Ne 0 ""
Po 1.27 3.81
$EndPAD
$PAD
Sh "7" O 1.6 2.4 0 0 0
Dr 0.8 0 0
At STD N 00E0FFFF
Ne 0 ""
Po 3.81 3.81
$EndPAD
$PAD
Sh "8" O 1.6 2.4 0 0 0
Dr 0.8 0 0
At STD N 00E0FFFF
Ne 0 ""
Po 6.35 3.81
$EndPAD
$PAD
Sh "9" O 1.6 2.4 0 0 0
Dr 0.8 0 0
At STD N 00E0FFFF
Ne 0 ""
Po 8.89 3.81
$EndPAD
$PAD
Sh "10" O 1.6 2.4 0 0 0
Dr 0.8 0 0
At STD N 00E0FFFF
Ne 0 ""
Po 11.43 3.81
$EndPAD
$PAD
Sh "11" O 1.6 2.4 0 0 0
Dr 0.8 0 0
At STD N 00E0FFFF
Ne 0 ""
Po 11.43 -3.81
$EndPAD
$PAD
Sh "12" O 1.6 2.4 0 0 0
Dr 0.8 0 0
At STD N 00E0FFFF
Ne 0 ""
Po 8.89 -3.81
$EndPAD
$PAD
Sh "13" O 1.6 2.4 0 0 0
Dr 0.8 0 0
At STD N 00E0FFFF
Ne 0 ""
Po 6.35 -3.81
$EndPAD
$PAD
Sh "14" O 1.6 2.4 0 0 0
Dr 0.8 0 0
At STD N 00E0FFFF
Ne 0 ""
Po 3.81 -3.81
$EndPAD
$PAD
Sh "15" O 1.6 2.4 0 0 0
Dr 0.8 0 0
At STD N 00E0FFFF
Ne 0 ""
Po 1.27 -3.81
$EndPAD
$PAD
Sh "16" O 1.6 2.4 0 0 0
Dr 0.8 0 0
At STD N 00E0FFFF
Ne 0 ""
Po -1.27 -3.81
$EndPAD
$PAD
Sh "17" O 1.6 2.4 0 0 0
Dr 0.8 0 0
At STD N 00E0FFFF
Ne 0 ""
Po -3.81 -3.81
$EndPAD
$PAD
Sh "18" O 1.6 2.4 0 0 0
Dr 0.8 0 0
At STD N 00E0FFFF
Ne 0 ""
Po -6.35 -3.81
$EndPAD
$PAD
Sh "19" O 1.6 2.4 0 0 0
Dr 0.8 0 0
At STD N 00E0FFFF
Ne 0 ""
Po -8.89 -3.81
$EndPAD
$PAD
Sh "20" O 1.6 2.4 0 0 0
Dr 0.8 0 0
At STD N 00E0FFFF
Ne 0 ""
Po -11.43 -3.81
$EndPAD
$EndMODULE OSX10201-LRPB2
$MODULE PIN-SOCKET-1x6-L
Po 0 0 0 15 51FA8C3B 00000000 ~~
Li PIN-SOCKET-1x6-L
Sc 0
AR 
Op 0 0 0
T0 5.485 0 1 1 900 0.15 N V 21 N "PIN-SOCKET-1x6-L"
T1 3.58 -5.715 1 1 900 0.15 N V 21 N "VAL**"
DS 2.945 6.35 4.215 5.715 0.15 21
DS 4.215 5.715 4.215 6.985 0.15 21
DS 4.215 6.985 2.945 6.35 0.15 21
DS -2.135 -8.255 2.31 -8.255 0.15 21
DS 2.31 -8.255 2.31 8.255 0.15 21
DS 2.31 8.255 -2.135 8.255 0.15 21
DS -2.135 8.255 -2.135 -8.255 0.15 21
DS -1.5 -7.8 -10 -7.8 0.15 24
DS -10 -7.8 -10 7.8 0.15 24
DS -10 7.8 -1.5 7.8 0.15 24
$PAD
Sh "1" R 2.4 1.6 0 0 0
Dr 0.6 0 0
At STD N 00E0FFFF
Ne 0 ""
Po 0 6.35
$EndPAD
$PAD
Sh "2" O 2.4 1.6 0 0 0
Dr 0.6 0 0
At STD N 00E0FFFF
Ne 0 ""
Po 0 3.81
$EndPAD
$PAD
Sh "3" O 2.4 1.6 0 0 0
Dr 0.6 0 0
At STD N 00E0FFFF
Ne 0 ""
Po 0 1.27
$EndPAD
$PAD
Sh "4" O 2.4 1.6 0 0 0
Dr 0.6 0 0
At STD N 00E0FFFF
Ne 0 ""
Po 0 -1.27
$EndPAD
$PAD
Sh "5" O 2.4 1.6 0 0 0
Dr 0.6 0 0
At STD N 00E0FFFF
Ne 0 ""
Po 0 -3.81
$EndPAD
$PAD
Sh "6" O 2.4 1.6 0 0 0
Dr 0.6 0 0
At STD N 00E0FFFF
Ne 0 ""
Po 0 -6.35
$EndPAD
$EndMODULE PIN-SOCKET-1x6-L
$MODULE PKM13EPYH4000
Po 0 0 0 15 5249AD24 00000000 ~~
Li PKM13EPYH4000
Sc 0
AR 
Op 0 0 0
T0 0 8 1 1 0 0.15 N V 21 N "PKM13EPYH4000"
T1 6 -6 1 1 0 0.15 N V 21 N "P**"
DC 0 0 0 -7 0.15 21
DC 0 0 0 -6.3 0.15 24
$PAD
Sh "1" C 1.6 1.6 0 0 0
Dr 0.6 0 0
At STD N 00E0FFFF
Ne 0 ""
Po 2.5 0
$EndPAD
$PAD
Sh "2" C 1.6 1.6 0 0 0
Dr 0.6 0 0
At STD N 00E0FFFF
Ne 0 ""
Po -2.5 0
$EndPAD
$EndMODULE PKM13EPYH4000
$MODULE RBS040200
Po 0 0 0 15 51FA5ED5 00000000 ~~
Li RBS040200
Sc 0
AR 
Op 0 0 0
T0 5.77 -3 1 1 0 0.15 N V 21 N "RBS040200"
T1 10.27 3.5 1 1 0 0.15 N V 21 N "VAL**"
DS 1.27 -2.5 12.27 -2.5 0.15 21
DS 12.27 -2.5 12.27 2.5 0.15 21
DS 12.27 2.5 1.27 2.5 0.15 21
$PAD
Sh "4" C 1.6 1.6 0 0 0
Dr 0.8 0 0
At STD N 00E0FFFF
Ne 0 ""
Po -1.27 -1.27
$EndPAD
$PAD
Sh "3" C 1.6 1.6 0 0 0
Dr 0.8 0 0
At STD N 00E0FFFF
Ne 0 ""
Po 1.27 -1.27
$EndPAD
$PAD
Sh "1" C 1.6 1.6 0 0 0
Dr 0.8 0 0
At STD N 00E0FFFF
Ne 0 ""
Po -1.27 1.27
$EndPAD
$PAD
Sh "2" C 1.6 1.6 0 0 0
Dr 0.8 0 0
At STD N 00E0FFFF
Ne 0 ""
Po 1.27 1.27
$EndPAD
$EndMODULE RBS040200
$MODULE RXEF010
Po 0 0 0 15 5249BA0C 00000000 ~~
Li RXEF010
Sc 0
AR 
Op 0 0 0
T0 -0.1 2.5 1 1 0 0.15 N V 21 N "RXEF010"
T1 -1.3 -2.3 1 1 0 0.15 N V 21 N "F**"
DS -3.7 1.5 -3.7 -1.5 0.15 21
DS -3.7 -1.5 3.7 -1.5 0.15 21
DS 3.7 -1.5 3.7 1.5 0.15 21
DS 3.7 1.5 -3.7 1.5 0.15 21
$PAD
Sh "1" C 1.8 1.8 0 0 0
Dr 0.6 0 0
At STD N 00E0FFFF
Ne 0 ""
Po -2.54 0
$EndPAD
$PAD
Sh "2" C 1.8 1.8 0 0 0
Dr 0.6 0 0
At STD N 00E0FFFF
Ne 0 ""
Po 2.54 0
$EndPAD
$EndMODULE RXEF010
$MODULE TOUCH_4x4
Po 0 0 0 15 524B151D 00000000 ~~
Li TOUCH_4x4
Sc 0
AR 
Op 0 0 0
T0 0 3.5 1 1 0 0.15 N I 21 N "TOUCH_4x4"
T1 0 -3.5 1 1 0 0.15 N V 21 N "J**"
DS -2.5 -2.5 2.5 -2.5 0.15 21
DS 2.5 -2.5 2.5 2.5 0.15 21
DS 2.5 2.5 -2.5 2.5 0.15 21
DS -2.5 2.5 -2.5 -2.5 0.15 21
$PAD
Sh "1" R 4 4 0 0 0
Dr 0 0 0
At SMD N 00008000
Ne 0 ""
Po 0 0
$EndPAD
$EndMODULE TOUCH_4x4
$EndLIBRARY
