EESchema Schematic File Version 2
LIBS:power
LIBS:device
LIBS:transistors
LIBS:conn
LIBS:linear
LIBS:regul
LIBS:74xx
LIBS:cmos4000
LIBS:adc-dac
LIBS:memory
LIBS:xilinx
LIBS:special
LIBS:microcontrollers
LIBS:dsp
LIBS:microchip
LIBS:analog_switches
LIBS:motorola
LIBS:texas
LIBS:intel
LIBS:audio
LIBS:interface
LIBS:digital-audio
LIBS:philips
LIBS:display
LIBS:cypress
LIBS:siliconi
LIBS:opto
LIBS:atmel
LIBS:contrib
LIBS:valves
LIBS:VersaWriter
LIBS:VersaWriter-cache
EELAYER 24 0
EELAYER END
$Descr A4 11693 8268
encoding utf-8
Sheet 1 1
Title "USB Programmable VersaWriter"
Date "Oct. 1th 2013"
Rev "2"
Comp "Author: Kenta IDA"
Comment1 ""
Comment2 ""
Comment3 ""
Comment4 ""
$EndDescr
$Comp
L ATMEGA328P-P U1
U 1 1 51EE869E
P 2600 3800
F 0 "U1" H 1850 5050 40  0000 L BNN
F 1 "ATMEGA328P-P" H 3000 2400 40  0000 L BNN
F 2 "DIP-28__300_ELL" H 2600 3800 30  0000 C CIN
F 3 "" H 2600 3800 60  0000 C CNN
	1    2600 3800
	1    0    0    -1  
$EndComp
$Comp
L R R7
U 1 1 51EE8726
P 7950 5400
F 0 "R7" V 8030 5400 40  0000 C CNN
F 1 "200" V 7957 5401 40  0000 C CNN
F 2 "R3-5" V 7880 5400 30  0000 C CNN
F 3 "~" H 7950 5400 30  0000 C CNN
	1    7950 5400
	1    0    0    -1  
$EndComp
$Comp
L R R8
U 1 1 51EE8735
P 8150 5400
F 0 "R8" V 8250 5400 40  0000 C CNN
F 1 "200" V 8157 5401 40  0000 C CNN
F 2 "R3-5" V 8080 5400 30  0000 C CNN
F 3 "~" H 8150 5400 30  0000 C CNN
	1    8150 5400
	1    0    0    -1  
$EndComp
$Comp
L R R9
U 1 1 51EE8744
P 8350 5400
F 0 "R9" V 8430 5400 40  0000 C CNN
F 1 "150" V 8357 5401 40  0000 C CNN
F 2 "R3" V 8280 5400 30  0000 C CNN
F 3 "~" H 8350 5400 30  0000 C CNN
	1    8350 5400
	1    0    0    -1  
$EndComp
$Comp
L OSX10201-LRPB2 D1
U 1 1 51EE8DF4
P 7050 4200
F 0 "D1" H 6700 5900 60  0000 C CNN
F 1 "OSX10201-LRPB2" H 7050 4600 60  0000 C CNN
F 2 "OSX10201-LRPB2" H 7050 4200 60  0000 C CNN
F 3 "" H 7050 4200 60  0000 C CNN
	1    7050 4200
	-1   0    0    -1  
$EndComp
$Comp
L OSX10201-LRPB2 D2
U 1 1 51EE8E52
P 7050 5700
F 0 "D2" H 6700 7400 60  0000 C CNN
F 1 "OSX10201-LRPB2" H 7050 6100 60  0000 C CNN
F 2 "OSX10201-LRPB2" H 7050 5700 60  0000 C CNN
F 3 "" H 7050 5700 60  0000 C CNN
	1    7050 5700
	-1   0    0    -1  
$EndComp
$Comp
L CP1 C7
U 1 1 51EE9048
P 5800 1600
F 0 "C7" H 5850 1700 50  0000 L CNN
F 1 "100u" H 5850 1500 50  0000 L CNN
F 2 "C2" H 5800 1600 60  0000 C CNN
F 3 "~" H 5800 1600 60  0000 C CNN
	1    5800 1600
	1    0    0    -1  
$EndComp
$Comp
L DIODESCH D5
U 1 1 51EE90F1
P 6700 900
F 0 "D5" H 6700 1000 40  0000 C CNN
F 1 "SBM1045VSS" H 6700 800 40  0000 C CNN
F 2 "D6" H 6700 900 60  0000 C CNN
F 3 "~" H 6700 900 60  0000 C CNN
	1    6700 900 
	1    0    0    -1  
$EndComp
$Comp
L DIODE D4
U 1 1 51EE9603
P 3250 5500
F 0 "D4" H 3250 5600 40  0000 C CNN
F 1 "1N4148" H 3250 5400 40  0000 C CNN
F 2 "D3" H 3250 5500 60  0000 C CNN
F 3 "~" H 3250 5500 60  0000 C CNN
	1    3250 5500
	1    0    0    -1  
$EndComp
$Comp
L HT77 U2
U 1 1 51EE97C9
P 6750 1400
F 0 "U2" H 6550 1650 60  0000 C CNN
F 1 "HT7750A" H 7000 1050 60  0000 C CNN
F 2 "TO92-123" H 6750 900 60  0000 C CNN
F 3 "" H 6750 900 60  0000 C CNN
	1    6750 1400
	1    0    0    -1  
$EndComp
$Comp
L CP1 C9
U 1 1 51EE987E
P 7600 1600
F 0 "C9" H 7650 1700 50  0000 L CNN
F 1 "100u" H 7650 1500 50  0000 L CNN
F 2 "CP6" H 7600 1600 60  0000 C CNN
F 3 "~" H 7600 1600 60  0000 C CNN
	1    7600 1600
	1    0    0    -1  
$EndComp
$Comp
L C C8
U 1 1 51EE98B4
P 7350 1600
F 0 "C8" H 7350 1700 40  0000 L CNN
F 1 "100n" H 7356 1515 40  0000 L CNN
F 2 "C2" H 7388 1450 30  0000 C CNN
F 3 "~" H 7350 1600 60  0000 C CNN
	1    7350 1600
	1    0    0    -1  
$EndComp
$Comp
L GND #PWR01
U 1 1 51EE9BCA
P 6750 1950
F 0 "#PWR01" H 6750 1950 30  0001 C CNN
F 1 "GND" H 6750 1880 30  0001 C CNN
F 2 "" H 6750 1950 60  0000 C CNN
F 3 "" H 6750 1950 60  0000 C CNN
	1    6750 1950
	1    0    0    -1  
$EndComp
$Comp
L GND #PWR02
U 1 1 51EE9BD7
P 7350 1950
F 0 "#PWR02" H 7350 1950 30  0001 C CNN
F 1 "GND" H 7350 1880 30  0001 C CNN
F 2 "" H 7350 1950 60  0000 C CNN
F 3 "" H 7350 1950 60  0000 C CNN
	1    7350 1950
	1    0    0    -1  
$EndComp
$Comp
L GND #PWR03
U 1 1 51EE9BDD
P 7600 1950
F 0 "#PWR03" H 7600 1950 30  0001 C CNN
F 1 "GND" H 7600 1880 30  0001 C CNN
F 2 "" H 7600 1950 60  0000 C CNN
F 3 "" H 7600 1950 60  0000 C CNN
	1    7600 1950
	1    0    0    -1  
$EndComp
$Comp
L GND #PWR04
U 1 1 51EE9BE3
P 5800 1950
F 0 "#PWR04" H 5800 1950 30  0001 C CNN
F 1 "GND" H 5800 1880 30  0001 C CNN
F 2 "" H 5800 1950 60  0000 C CNN
F 3 "" H 5800 1950 60  0000 C CNN
	1    5800 1950
	1    0    0    -1  
$EndComp
$Comp
L DIODE D3
U 1 1 51EE9D14
P 2650 5500
F 0 "D3" H 2650 5600 40  0000 C CNN
F 1 "1N4148" H 2650 5400 40  0000 C CNN
F 2 "D3" H 2650 5500 60  0000 C CNN
F 3 "~" H 2650 5500 60  0000 C CNN
	1    2650 5500
	1    0    0    -1  
$EndComp
$Comp
L R R5
U 1 1 51EE9D24
P 3700 6050
F 0 "R5" V 3780 6050 40  0000 C CNN
F 1 "75" V 3707 6051 40  0000 C CNN
F 2 "R3" V 3630 6050 30  0000 C CNN
F 3 "~" H 3700 6050 30  0000 C CNN
	1    3700 6050
	0    -1   -1   0   
$EndComp
$Comp
L R R6
U 1 1 51EE9D2A
P 3700 6200
F 0 "R6" V 3780 6200 40  0000 C CNN
F 1 "75" V 3707 6201 40  0000 C CNN
F 2 "R3" V 3630 6200 30  0000 C CNN
F 3 "~" H 3700 6200 30  0000 C CNN
	1    3700 6200
	0    -1   -1   0   
$EndComp
$Comp
L GND #PWR05
U 1 1 51EE9D30
P 2450 6700
F 0 "#PWR05" H 2450 6700 30  0001 C CNN
F 1 "GND" H 2450 6630 30  0001 C CNN
F 2 "" H 2450 6700 60  0000 C CNN
F 3 "" H 2450 6700 60  0000 C CNN
	1    2450 6700
	1    0    0    -1  
$EndComp
$Comp
L R R2
U 1 1 51EE9D97
P 2850 5750
F 0 "R2" V 2930 5750 40  0000 C CNN
F 1 "1k" V 2857 5751 40  0000 C CNN
F 2 "R3" V 2780 5750 30  0000 C CNN
F 3 "~" H 2850 5750 30  0000 C CNN
	1    2850 5750
	-1   0    0    1   
$EndComp
$Comp
L USB-B CN1
U 1 1 51EEA42B
P 1500 6300
F 0 "CN1" H 1450 6900 60  0000 C CNN
F 1 "USB-B" H 1500 5850 60  0000 C CNN
F 2 "USB_B" H 1550 5650 60  0000 C CNN
F 3 "" H 1550 5650 60  0000 C CNN
	1    1500 6300
	1    0    0    -1  
$EndComp
Entry Wire Line
	5800 2600 5900 2700
Entry Wire Line
	5800 2800 5900 2900
Entry Wire Line
	5800 3000 5900 3100
Entry Wire Line
	5800 3200 5900 3300
Entry Wire Line
	5800 3400 5900 3500
Entry Wire Line
	5800 4100 5900 4200
Entry Wire Line
	5800 4300 5900 4400
Entry Wire Line
	5800 4500 5900 4600
Entry Wire Line
	5800 4700 5900 4800
Entry Wire Line
	5800 4900 5900 5000
Text Label 5800 4500 3    60   ~ 0
SEGMENT[1..10]
Text Label 5900 2700 0    39   ~ 0
SEGMENT1
Text Label 5900 2900 0    39   ~ 0
SEGMENT2
Text Label 5900 3100 0    39   ~ 0
SEGMENT3
Text Label 5900 3300 0    39   ~ 0
SEGMENT4
Text Label 5900 3500 0    39   ~ 0
SEGMENT5
Text Label 5900 4200 0    39   ~ 0
SEGMENT6
Text Label 5900 4400 0    39   ~ 0
SEGMENT7
Text Label 5900 4600 0    39   ~ 0
SEGMENT8
Text Label 5900 4800 0    39   ~ 0
SEGMENT9
Text Label 5900 5000 0    39   ~ 0
SEGMENT10
Entry Wire Line
	5800 3200 5900 3300
Entry Wire Line
	5700 3550 5800 3450
Entry Wire Line
	5700 3100 5800 3000
Entry Wire Line
	5700 3650 5800 3550
Entry Wire Line
	5700 3750 5800 3650
Entry Wire Line
	5700 3850 5800 3750
Entry Wire Line
	5700 3950 5800 3850
Entry Wire Line
	5700 4050 5800 3950
Entry Wire Line
	5700 3200 5800 3100
Entry Wire Line
	5700 3300 5800 3200
Entry Wire Line
	5700 3400 5800 3300
Text Label 5700 3550 2    39   ~ 0
SEGMENT1
Text Label 5700 3650 2    39   ~ 0
SEGMENT2
Text Label 5700 3750 2    39   ~ 0
SEGMENT3
Text Label 5700 3850 2    39   ~ 0
SEGMENT4
Text Label 5700 3950 2    39   ~ 0
SEGMENT5
Text Label 5700 4050 2    39   ~ 0
SEGMENT6
Text Label 5700 3100 2    39   ~ 0
SEGMENT7
Text Label 5700 3200 2    39   ~ 0
SEGMENT8
Text Label 5700 3300 2    39   ~ 0
SEGMENT9
Text Label 5700 3400 2    39   ~ 0
SEGMENT10
$Comp
L VDD #PWR06
U 1 1 51EEB568
P 7600 900
F 0 "#PWR06" H 7600 1000 30  0001 C CNN
F 1 "VDD" H 7600 1010 30  0000 C CNN
F 2 "" H 7600 900 60  0000 C CNN
F 3 "" H 7600 900 60  0000 C CNN
	1    7600 900 
	1    0    0    -1  
$EndComp
$Comp
L VDD #PWR07
U 1 1 51EEB577
P 3450 5500
F 0 "#PWR07" H 3450 5600 30  0001 C CNN
F 1 "VDD" H 3450 5610 30  0000 C CNN
F 2 "" H 3450 5500 60  0000 C CNN
F 3 "" H 3450 5500 60  0000 C CNN
	1    3450 5500
	1    0    0    -1  
$EndComp
$Comp
L PSW F1
U 1 1 51EEB90C
P 2250 5500
F 0 "F1" H 2200 5650 60  0000 C CNN
F 1 "100mA" H 2250 5350 60  0000 C CNN
F 2 "RXEF010" H 2250 5350 60  0000 C CNN
F 3 "" H 2250 5350 60  0000 C CNN
	1    2250 5500
	1    0    0    -1  
$EndComp
$Comp
L C C3
U 1 1 51EEBAE1
P 1700 3500
F 0 "C3" H 1700 3600 40  0000 L CNN
F 1 "100n" H 1706 3415 40  0000 L CNN
F 2 "C2" H 1738 3350 30  0000 C CNN
F 3 "~" H 1700 3500 60  0000 C CNN
	1    1700 3500
	1    0    0    -1  
$EndComp
$Comp
L GND #PWR08
U 1 1 51EEBAE7
P 1700 3700
F 0 "#PWR08" H 1700 3700 30  0001 C CNN
F 1 "GND" H 1700 3630 30  0001 C CNN
F 2 "" H 1700 3700 60  0000 C CNN
F 3 "" H 1700 3700 60  0000 C CNN
	1    1700 3700
	1    0    0    -1  
$EndComp
$Comp
L GND #PWR09
U 1 1 51EEBAED
P 1700 5100
F 0 "#PWR09" H 1700 5100 30  0001 C CNN
F 1 "GND" H 1700 5030 30  0001 C CNN
F 2 "" H 1700 5100 60  0000 C CNN
F 3 "" H 1700 5100 60  0000 C CNN
	1    1700 5100
	1    0    0    -1  
$EndComp
$Comp
L VDD #PWR010
U 1 1 51EEBC93
P 1700 2700
F 0 "#PWR010" H 1700 2800 30  0001 C CNN
F 1 "VDD" H 1700 2810 30  0000 C CNN
F 2 "" H 1700 2700 60  0000 C CNN
F 3 "" H 1700 2700 60  0000 C CNN
	1    1700 2700
	1    0    0    -1  
$EndComp
$Comp
L R R3
U 1 1 51EFE00E
P 2850 6600
F 0 "R3" V 2930 6600 40  0000 C CNN
F 1 "10k" V 2857 6601 40  0000 C CNN
F 2 "R3" V 2780 6600 30  0000 C CNN
F 3 "~" H 2850 6600 30  0000 C CNN
	1    2850 6600
	-1   0    0    1   
$EndComp
$Comp
L GND #PWR011
U 1 1 51EFE014
P 2850 6850
F 0 "#PWR011" H 2850 6850 30  0001 C CNN
F 1 "GND" H 2850 6780 30  0001 C CNN
F 2 "" H 2850 6850 60  0000 C CNN
F 3 "" H 2850 6850 60  0000 C CNN
	1    2850 6850
	1    0    0    -1  
$EndComp
$Comp
L R R4
U 1 1 51EFF989
P 3450 5750
F 0 "R4" V 3530 5750 40  0000 C CNN
F 1 "1.5k" V 3457 5751 40  0000 C CNN
F 2 "R3" V 3380 5750 30  0000 C CNN
F 3 "~" H 3450 5750 30  0000 C CNN
	1    3450 5750
	-1   0    0    1   
$EndComp
$Comp
L VDD #PWR012
U 1 1 51EFFC0D
P 1000 2800
F 0 "#PWR012" H 1000 2900 30  0001 C CNN
F 1 "VDD" H 1000 2910 30  0000 C CNN
F 2 "" H 1000 2800 60  0000 C CNN
F 3 "" H 1000 2800 60  0000 C CNN
	1    1000 2800
	1    0    0    -1  
$EndComp
$Comp
L C C2
U 1 1 51EFFC13
P 1000 3000
F 0 "C2" H 1000 3100 40  0000 L CNN
F 1 "100n" H 1006 2915 40  0000 L CNN
F 2 "C2" H 1038 2850 30  0000 C CNN
F 3 "~" H 1000 3000 60  0000 C CNN
	1    1000 3000
	1    0    0    -1  
$EndComp
$Comp
L GND #PWR013
U 1 1 51EFFC19
P 1000 3200
F 0 "#PWR013" H 1000 3200 30  0001 C CNN
F 1 "GND" H 1000 3130 30  0001 C CNN
F 2 "" H 1000 3200 60  0000 C CNN
F 3 "" H 1000 3200 60  0000 C CNN
	1    1000 3200
	1    0    0    -1  
$EndComp
$Comp
L VDD #PWR014
U 1 1 51EFFC1F
P 750 2800
F 0 "#PWR014" H 750 2900 30  0001 C CNN
F 1 "VDD" H 750 2910 30  0000 C CNN
F 2 "" H 750 2800 60  0000 C CNN
F 3 "" H 750 2800 60  0000 C CNN
	1    750  2800
	1    0    0    -1  
$EndComp
$Comp
L C C1
U 1 1 51EFFC25
P 750 3000
F 0 "C1" H 750 3100 40  0000 L CNN
F 1 "100n" H 756 2915 40  0000 L CNN
F 2 "C2" H 788 2850 30  0000 C CNN
F 3 "~" H 750 3000 60  0000 C CNN
	1    750  3000
	1    0    0    -1  
$EndComp
$Comp
L GND #PWR015
U 1 1 51EFFC2B
P 750 3200
F 0 "#PWR015" H 750 3200 30  0001 C CNN
F 1 "GND" H 750 3130 30  0001 C CNN
F 2 "" H 750 3200 60  0000 C CNN
F 3 "" H 750 3200 60  0000 C CNN
	1    750  3200
	1    0    0    -1  
$EndComp
$Comp
L GND #PWR016
U 1 1 51F001FF
P 5100 1950
F 0 "#PWR016" H 5100 1950 30  0001 C CNN
F 1 "GND" H 5100 1880 30  0001 C CNN
F 2 "" H 5100 1950 60  0000 C CNN
F 3 "" H 5100 1950 60  0000 C CNN
	1    5100 1950
	1    0    0    -1  
$EndComp
$Comp
L BATTERY BT1
U 1 1 51F0027D
P 5100 1200
F 0 "BT1" H 5100 1400 50  0000 C CNN
F 1 "AAA x1" H 5100 1010 50  0000 C CNN
F 2 "BH-411-1P" H 5100 1200 60  0000 C CNN
F 3 "~" H 5100 1200 60  0000 C CNN
	1    5100 1200
	0    1    1    0   
$EndComp
Wire Wire Line
	7850 2700 8350 2700
Wire Wire Line
	8350 2700 8350 5150
Wire Wire Line
	8150 3100 8150 5150
Wire Wire Line
	7950 3500 7950 5150
Wire Wire Line
	7850 4200 8350 4200
Connection ~ 8350 4200
Connection ~ 6400 900 
Wire Wire Line
	5800 900  5800 1400
Wire Wire Line
	6900 900  7750 900 
Wire Wire Line
	7600 900  7600 1400
Wire Wire Line
	7350 1400 7350 900 
Connection ~ 7350 900 
Wire Wire Line
	7100 1400 7100 900 
Connection ~ 7100 900 
Wire Wire Line
	5800 1950 5800 1800
Wire Wire Line
	6750 1950 6750 1750
Wire Wire Line
	7350 1950 7350 1800
Wire Wire Line
	7600 1950 7600 1800
Wire Wire Line
	2450 6400 2450 6700
Wire Wire Line
	2450 6400 2000 6400
Wire Wire Line
	2000 6600 2450 6600
Connection ~ 2450 6600
Wire Wire Line
	2850 5500 3050 5500
Wire Wire Line
	2000 6050 3450 6050
Wire Wire Line
	2000 6200 3450 6200
Connection ~ 2850 5500
Wire Bus Line
	5800 2600 5800 4900
Wire Wire Line
	5900 2700 6200 2700
Wire Wire Line
	6200 2700 6200 2800
Wire Wire Line
	6200 2900 6200 3000
Wire Wire Line
	6200 3100 6200 3200
Wire Wire Line
	6200 3300 6200 3400
Wire Wire Line
	6200 3500 6200 3600
Wire Wire Line
	5900 3300 6200 3300
Wire Wire Line
	6200 3100 5900 3100
Wire Wire Line
	5900 2900 6200 2900
Wire Wire Line
	6200 4200 6200 4300
Wire Wire Line
	6200 4400 6200 4500
Wire Wire Line
	6200 4600 6200 4700
Wire Wire Line
	6200 4800 6200 4900
Wire Wire Line
	6200 5000 6200 5100
Wire Wire Line
	6200 4200 5900 4200
Wire Wire Line
	6200 4400 5900 4400
Wire Wire Line
	6200 4600 5900 4600
Wire Wire Line
	6200 4800 5900 4800
Wire Wire Line
	6200 5000 5900 5000
Wire Wire Line
	5900 3500 6200 3500
Wire Wire Line
	5700 3100 3600 3100
Wire Wire Line
	3600 3200 5700 3200
Wire Wire Line
	5700 3300 3600 3300
Wire Wire Line
	3600 3400 5700 3400
Wire Wire Line
	5700 3550 3600 3550
Wire Wire Line
	3600 3650 5700 3650
Wire Wire Line
	5700 3750 3600 3750
Wire Wire Line
	3600 3850 5700 3850
Wire Wire Line
	3600 3950 5700 3950
Wire Wire Line
	3600 4050 5700 4050
Wire Wire Line
	3950 6050 4050 6050
Wire Wire Line
	4050 6050 4050 4600
Wire Wire Line
	4050 4600 3600 4600
Wire Wire Line
	3600 4500 4100 4500
Wire Wire Line
	4100 4500 4100 6200
Wire Wire Line
	4100 6200 3950 6200
Wire Wire Line
	4000 4700 4000 6350
Wire Wire Line
	4000 4700 3600 4700
Wire Wire Line
	7950 5650 5500 5650
Wire Wire Line
	5500 5650 5500 4800
Wire Wire Line
	5500 4800 3600 4800
Wire Wire Line
	3600 4900 5450 4900
Wire Wire Line
	5450 4900 5450 5700
Wire Wire Line
	5450 5700 8350 5700
Wire Wire Line
	8350 5700 8350 5650
Wire Wire Line
	8150 5650 8150 5750
Wire Wire Line
	8150 5750 5400 5750
Wire Wire Line
	5400 5750 5400 5000
Wire Wire Line
	5400 5000 3600 5000
Wire Wire Line
	2050 5500 2050 5850
Wire Wire Line
	2050 5850 2000 5850
Wire Wire Line
	1700 4900 1700 5100
Connection ~ 1700 5000
Wire Wire Line
	1700 3300 1700 3300
Wire Wire Line
	1700 3000 1700 2700
Connection ~ 7300 400 
Wire Wire Line
	3450 6050 3450 6000
Wire Wire Line
	2850 6000 2850 6350
Wire Wire Line
	2850 6350 4000 6350
Connection ~ 2850 6350
Connection ~ 3450 6050
Connection ~ 3450 5500
Wire Wire Line
	5100 900  5800 900 
Connection ~ 7600 900 
Connection ~ 1700 2700
Wire Wire Line
	1000 2800 1000 2800
$Comp
L PWR_FLAG #FLG017
U 1 1 51F01540
P 7750 900
F 0 "#FLG017" H 7750 995 30  0001 C CNN
F 1 "PWR_FLAG" H 7750 1080 30  0000 C CNN
F 2 "" H 7750 900 60  0000 C CNN
F 3 "" H 7750 900 60  0000 C CNN
	1    7750 900 
	1    0    0    -1  
$EndComp
$Comp
L PWR_FLAG #FLG018
U 1 1 51F015E3
P 8000 1800
F 0 "#FLG018" H 8000 1895 30  0001 C CNN
F 1 "PWR_FLAG" H 8000 1980 30  0000 C CNN
F 2 "" H 8000 1800 60  0000 C CNN
F 3 "" H 8000 1800 60  0000 C CNN
	1    8000 1800
	1    0    0    -1  
$EndComp
Wire Wire Line
	7600 1800 8000 1800
NoConn ~ 3600 4150
NoConn ~ 3600 4400
Wire Wire Line
	6400 900  6400 1400
Wire Wire Line
	5100 1500 5100 1950
Connection ~ 2900 550 
$Comp
L INDUCTOR L1
U 1 1 5220AC52
P 6100 900
F 0 "L1" V 6050 900 40  0000 C CNN
F 1 "INDUCTOR" V 6200 900 40  0000 C CNN
F 2 "LHL08" H 6100 900 60  0000 C CNN
F 3 "" H 6100 900 60  0000 C CNN
	1    6100 900 
	0    -1   -1   0   
$EndComp
Wire Wire Line
	6400 900  6500 900 
Wire Wire Line
	7850 3100 8150 3100
Wire Wire Line
	7850 3500 7950 3500
Wire Wire Line
	7850 4600 8150 4600
Connection ~ 8150 4600
Wire Wire Line
	7850 5000 7950 5000
Connection ~ 7950 5000
NoConn ~ 7850 2800
NoConn ~ 7850 3200
NoConn ~ 7850 3600
NoConn ~ 7850 4300
NoConn ~ 7850 4700
NoConn ~ 7850 5100
$Comp
L PIEZO P1
U 1 1 52499C8D
P 4100 2700
F 0 "P1" H 4100 2550 60  0000 C CNN
F 1 "PIEZO" H 4100 2850 60  0000 C CNN
F 2 "" H 4100 2700 60  0000 C CNN
F 3 "" H 4100 2700 60  0000 C CNN
	1    4100 2700
	1    0    0    -1  
$EndComp
Wire Wire Line
	3850 2700 3850 2800
Wire Wire Line
	3850 2800 3600 2800
Wire Wire Line
	3600 2900 4350 2900
Wire Wire Line
	4350 2900 4350 2700
NoConn ~ 3600 3000
NoConn ~ 3600 2700
NoConn ~ 4350 4750
$Comp
L TOUCHPAD J1
U 1 1 524B0CE7
P 4400 4300
F 0 "J1" H 4400 4400 60  0000 C CNN
F 1 "TOUCHPAD" H 4400 4200 60  0000 C CNN
F 2 "" H 4400 4300 60  0000 C CNN
F 3 "" H 4400 4300 60  0000 C CNN
	1    4400 4300
	1    0    0    -1  
$EndComp
Wire Wire Line
	3600 4300 4000 4300
$EndSCHEMATC
