G04 (created by PCBNEW (2013-09-28 BZR 4356)-product) date 2013/10/08 3:06:28*
%MOIN*%
G04 Gerber Fmt 3.4, Leading zero omitted, Abs format*
%FSLAX34Y34*%
G01*
G70*
G90*
G04 APERTURE LIST*
%ADD10C,0.005906*%
%ADD11C,0.060000*%
%ADD12C,0.157480*%
%ADD13R,0.055000X0.055000*%
%ADD14C,0.055000*%
%ADD15R,0.094488X0.062992*%
%ADD16O,0.094488X0.062992*%
%ADD17O,0.062000X0.090000*%
%ADD18R,0.062000X0.090000*%
%ADD19R,0.062992X0.062992*%
%ADD20C,0.062992*%
%ADD21R,0.157480X0.157480*%
%ADD22C,0.070866*%
%ADD23C,0.039370*%
%ADD24C,0.007874*%
%ADD25C,0.011811*%
%ADD26C,0.015748*%
%ADD27C,0.019685*%
%ADD28C,0.047244*%
%ADD29C,0.010000*%
G04 APERTURE END LIST*
G54D10*
G54D11*
X15145Y34270D03*
X16145Y34270D03*
X16145Y35057D03*
X15145Y35057D03*
G54D12*
X13283Y36120D03*
X18007Y36120D03*
G54D13*
X2395Y20620D03*
G54D14*
X2395Y21620D03*
X1395Y21620D03*
X6145Y37370D03*
X6145Y33870D03*
X5145Y37370D03*
X5145Y33870D03*
X15645Y25870D03*
X15645Y28870D03*
X10895Y17120D03*
X10895Y14120D03*
X11895Y14120D03*
X11895Y17120D03*
X17895Y28870D03*
X17895Y25870D03*
X16895Y28870D03*
X16895Y25870D03*
G54D15*
X8145Y28370D03*
G54D16*
X8145Y27370D03*
X8145Y26370D03*
X8145Y25370D03*
X8145Y24370D03*
X8145Y23370D03*
X8145Y22370D03*
X8145Y21370D03*
X8145Y20370D03*
X8145Y19370D03*
X11145Y19370D03*
X11145Y20370D03*
X11145Y21370D03*
X11145Y22370D03*
X11145Y23370D03*
X11145Y24370D03*
X11145Y25370D03*
X11145Y26370D03*
X11145Y27370D03*
X11145Y28370D03*
G54D15*
X8145Y38370D03*
G54D16*
X8145Y37370D03*
X8145Y36370D03*
X8145Y35370D03*
X8145Y34370D03*
X8145Y33370D03*
X8145Y32370D03*
X8145Y31370D03*
X8145Y30370D03*
X8145Y29370D03*
X11145Y29370D03*
X11145Y30370D03*
X11145Y31370D03*
X11145Y32370D03*
X11145Y33370D03*
X11145Y34370D03*
X11145Y35370D03*
X11145Y36370D03*
X11145Y37370D03*
X11145Y38370D03*
G54D17*
X15145Y11120D03*
X14145Y11120D03*
X13145Y11120D03*
X12145Y11120D03*
X11145Y11120D03*
X10145Y11120D03*
X9145Y11120D03*
X8145Y11120D03*
X7145Y11120D03*
X6145Y11120D03*
X5145Y11120D03*
X4145Y11120D03*
X3145Y11120D03*
G54D18*
X16145Y11120D03*
G54D17*
X3145Y8120D03*
X4145Y8120D03*
X5145Y8120D03*
X6145Y8120D03*
X7145Y8120D03*
X8145Y8120D03*
X9145Y8120D03*
X10145Y8120D03*
X11145Y8120D03*
X12145Y8120D03*
X13145Y8120D03*
X14145Y8120D03*
X15145Y8120D03*
X16145Y8120D03*
G54D13*
X15645Y29870D03*
G54D14*
X15645Y32870D03*
G54D13*
X14645Y32870D03*
G54D14*
X14645Y29870D03*
X9145Y7120D03*
X11145Y7120D03*
X8145Y6120D03*
X10145Y6120D03*
X10895Y12370D03*
X8895Y12370D03*
X2895Y26620D03*
X895Y26620D03*
G54D19*
X2387Y24370D03*
G54D20*
X1403Y24370D03*
G54D21*
X1062Y2870D03*
X18228Y2870D03*
G54D22*
X2395Y16885D03*
X2395Y18854D03*
G54D20*
X2161Y30120D03*
X4129Y30120D03*
G54D22*
X13395Y32870D03*
X13395Y30870D03*
G54D19*
X2387Y13620D03*
G54D20*
X1403Y13620D03*
X4895Y22564D03*
X4895Y20675D03*
G54D14*
X4145Y37370D03*
X4145Y33870D03*
G54D23*
X12395Y25370D03*
X12645Y23370D03*
X12770Y21370D03*
X13020Y20370D03*
X5645Y11870D03*
X6645Y12870D03*
X13895Y20620D03*
X12145Y18870D03*
X16145Y13370D03*
X15145Y12370D03*
X4645Y14370D03*
X6395Y14370D03*
X5395Y29120D03*
X6895Y18620D03*
X7395Y18620D03*
X5645Y29620D03*
X6645Y13870D03*
X4895Y13870D03*
X12645Y12620D03*
X14645Y14620D03*
X13145Y12370D03*
X15145Y14370D03*
X10145Y17870D03*
X14395Y17870D03*
G54D24*
X12395Y25370D02*
X11145Y25370D01*
X12645Y23370D02*
X11145Y23370D01*
X11145Y21370D02*
X12770Y21370D01*
X13020Y20370D02*
X11145Y20370D01*
X5645Y11870D02*
X6645Y12870D01*
X10895Y35370D02*
X11145Y35370D01*
X10895Y33370D02*
X11145Y33370D01*
X10895Y31370D02*
X11145Y31370D01*
G54D25*
X4145Y37370D02*
X4895Y36620D01*
X7895Y28370D02*
X8145Y28370D01*
X7395Y28870D02*
X7895Y28370D01*
X7395Y36120D02*
X7395Y28870D01*
X4895Y36620D02*
X6895Y36620D01*
X6895Y36620D02*
X7395Y36120D01*
G54D24*
X12145Y18870D02*
X13895Y20620D01*
G54D26*
X15145Y12370D02*
X16145Y13370D01*
G54D25*
X4645Y14370D02*
X6395Y14370D01*
X7145Y18870D02*
X7145Y27620D01*
X7145Y27620D02*
X5645Y29120D01*
X5645Y29120D02*
X5395Y29120D01*
X6895Y18620D02*
X7145Y18870D01*
X7395Y18620D02*
X7395Y27870D01*
X7395Y27870D02*
X5645Y29620D01*
X4895Y13870D02*
X6645Y13870D01*
G54D27*
X14645Y14620D02*
X12645Y12620D01*
X15145Y14370D02*
X13145Y12370D01*
G54D28*
X6145Y18370D02*
X6645Y17870D01*
X6145Y18370D02*
X6145Y21370D01*
X6145Y21370D02*
X4895Y22370D01*
X4895Y22620D02*
X4895Y22370D01*
X6645Y17870D02*
X10145Y17870D01*
X10145Y17870D02*
X14395Y17870D01*
X10895Y12370D02*
X10145Y11620D01*
X10145Y11620D02*
X10145Y11120D01*
G54D10*
G36*
X19021Y269D02*
X18178Y269D01*
X18178Y1895D01*
X18178Y2820D01*
X18178Y2920D01*
X18178Y3844D01*
X18115Y3907D01*
X17391Y3907D01*
X17299Y3869D01*
X17229Y3799D01*
X17190Y3707D01*
X17190Y3607D01*
X17190Y2982D01*
X17253Y2920D01*
X18178Y2920D01*
X18178Y2820D01*
X17253Y2820D01*
X17190Y2757D01*
X17190Y2132D01*
X17190Y2032D01*
X17229Y1941D01*
X17299Y1870D01*
X17391Y1832D01*
X18115Y1832D01*
X18178Y1895D01*
X18178Y269D01*
X16705Y269D01*
X16705Y7966D01*
X16705Y8273D01*
X16705Y10620D01*
X16705Y10719D01*
X16705Y11619D01*
X16667Y11711D01*
X16597Y11782D01*
X16592Y11783D01*
X16592Y13458D01*
X16524Y13622D01*
X16399Y13748D01*
X16234Y13816D01*
X16170Y13816D01*
X16170Y25974D01*
X16170Y28974D01*
X16170Y32974D01*
X16091Y33167D01*
X15943Y33314D01*
X15750Y33394D01*
X15541Y33395D01*
X15348Y33315D01*
X15200Y33167D01*
X15170Y33095D01*
X15170Y33194D01*
X15132Y33286D01*
X15062Y33357D01*
X14970Y33395D01*
X14870Y33395D01*
X14320Y33395D01*
X14250Y33365D01*
X14250Y36241D01*
X14223Y36377D01*
X14139Y36489D01*
X13769Y36120D01*
X14139Y35750D01*
X14223Y35862D01*
X14250Y36241D01*
X14250Y33365D01*
X14229Y33357D01*
X14158Y33286D01*
X14120Y33194D01*
X14120Y33095D01*
X14120Y32545D01*
X14158Y32453D01*
X14229Y32383D01*
X14320Y32345D01*
X14420Y32345D01*
X14970Y32345D01*
X15062Y32383D01*
X15132Y32453D01*
X15170Y32545D01*
X15170Y32644D01*
X15170Y32644D01*
X15200Y32573D01*
X15347Y32425D01*
X15540Y32345D01*
X15749Y32344D01*
X15942Y32424D01*
X16090Y32572D01*
X16170Y32765D01*
X16170Y32974D01*
X16170Y28974D01*
X16091Y29167D01*
X15943Y29314D01*
X15870Y29345D01*
X15970Y29345D01*
X16062Y29383D01*
X16132Y29453D01*
X16170Y29545D01*
X16170Y29644D01*
X16170Y30194D01*
X16132Y30286D01*
X16062Y30357D01*
X15970Y30395D01*
X15870Y30395D01*
X15320Y30395D01*
X15229Y30357D01*
X15158Y30286D01*
X15120Y30194D01*
X15120Y30095D01*
X15120Y30095D01*
X15091Y30167D01*
X14943Y30314D01*
X14750Y30394D01*
X14541Y30395D01*
X14348Y30315D01*
X14200Y30167D01*
X14120Y29974D01*
X14120Y29766D01*
X14200Y29573D01*
X14347Y29425D01*
X14540Y29345D01*
X14749Y29344D01*
X14942Y29424D01*
X15090Y29572D01*
X15120Y29644D01*
X15120Y29545D01*
X15158Y29453D01*
X15229Y29383D01*
X15320Y29345D01*
X15420Y29345D01*
X15420Y29345D01*
X15348Y29315D01*
X15200Y29167D01*
X15120Y28974D01*
X15120Y28766D01*
X15200Y28573D01*
X15347Y28425D01*
X15540Y28345D01*
X15749Y28344D01*
X15942Y28424D01*
X16090Y28572D01*
X16170Y28765D01*
X16170Y28974D01*
X16170Y25974D01*
X16091Y26167D01*
X15943Y26314D01*
X15750Y26394D01*
X15541Y26395D01*
X15348Y26315D01*
X15200Y26167D01*
X15120Y25974D01*
X15120Y25766D01*
X15200Y25573D01*
X15347Y25425D01*
X15540Y25345D01*
X15749Y25344D01*
X15942Y25424D01*
X16090Y25572D01*
X16170Y25765D01*
X16170Y25974D01*
X16170Y13816D01*
X16057Y13817D01*
X15892Y13749D01*
X15767Y13623D01*
X15698Y13459D01*
X15698Y13388D01*
X15592Y13281D01*
X15592Y14458D01*
X15524Y14622D01*
X15399Y14748D01*
X15234Y14816D01*
X15057Y14817D01*
X15049Y14813D01*
X15024Y14872D01*
X14899Y14998D01*
X14881Y15005D01*
X14881Y17870D01*
X14844Y18056D01*
X14739Y18213D01*
X14581Y18319D01*
X14395Y18356D01*
X14342Y18356D01*
X14342Y20708D01*
X14274Y20872D01*
X14149Y20998D01*
X14000Y21060D01*
X14000Y30989D01*
X14000Y32989D01*
X13908Y33211D01*
X13738Y33382D01*
X13653Y33417D01*
X13653Y35264D01*
X13653Y36975D01*
X13541Y37059D01*
X13162Y37086D01*
X13025Y37059D01*
X12913Y36975D01*
X13283Y36606D01*
X13653Y36975D01*
X13653Y35264D01*
X13283Y35634D01*
X12913Y35264D01*
X13025Y35180D01*
X13405Y35153D01*
X13541Y35180D01*
X13653Y35264D01*
X13653Y33417D01*
X13516Y33474D01*
X13275Y33474D01*
X13053Y33382D01*
X12883Y33212D01*
X12797Y33005D01*
X12797Y36120D01*
X12427Y36489D01*
X12344Y36377D01*
X12317Y35998D01*
X12344Y35862D01*
X12427Y35750D01*
X12797Y36120D01*
X12797Y33005D01*
X12791Y32990D01*
X12791Y32750D01*
X12883Y32528D01*
X13052Y32358D01*
X13274Y32265D01*
X13515Y32265D01*
X13737Y32357D01*
X13907Y32527D01*
X13999Y32749D01*
X14000Y32989D01*
X14000Y30989D01*
X13908Y31211D01*
X13738Y31382D01*
X13516Y31474D01*
X13275Y31474D01*
X13053Y31382D01*
X12883Y31212D01*
X12791Y30990D01*
X12791Y30750D01*
X12883Y30528D01*
X13052Y30358D01*
X13274Y30265D01*
X13515Y30265D01*
X13737Y30357D01*
X13907Y30527D01*
X13999Y30749D01*
X14000Y30989D01*
X14000Y21060D01*
X13984Y21066D01*
X13807Y21067D01*
X13642Y20999D01*
X13517Y20873D01*
X13448Y20709D01*
X13448Y20582D01*
X13425Y20559D01*
X13399Y20622D01*
X13274Y20748D01*
X13109Y20816D01*
X12932Y20817D01*
X12767Y20749D01*
X12678Y20659D01*
X11790Y20659D01*
X11716Y20769D01*
X11566Y20870D01*
X11716Y20970D01*
X11790Y21080D01*
X12428Y21080D01*
X12517Y20991D01*
X12681Y20923D01*
X12859Y20923D01*
X13023Y20991D01*
X13149Y21116D01*
X13217Y21280D01*
X13217Y21458D01*
X13149Y21622D01*
X13024Y21748D01*
X12859Y21816D01*
X12682Y21817D01*
X12517Y21749D01*
X12428Y21659D01*
X11790Y21659D01*
X11716Y21769D01*
X11566Y21870D01*
X11716Y21970D01*
X11839Y22153D01*
X11882Y22370D01*
X11839Y22586D01*
X11716Y22769D01*
X11566Y22870D01*
X11716Y22970D01*
X11790Y23080D01*
X12303Y23080D01*
X12392Y22991D01*
X12556Y22923D01*
X12734Y22923D01*
X12898Y22991D01*
X13024Y23116D01*
X13092Y23280D01*
X13092Y23458D01*
X13024Y23622D01*
X12899Y23748D01*
X12734Y23816D01*
X12557Y23817D01*
X12392Y23749D01*
X12303Y23659D01*
X11790Y23659D01*
X11716Y23769D01*
X11566Y23870D01*
X11716Y23970D01*
X11839Y24153D01*
X11882Y24370D01*
X11839Y24586D01*
X11716Y24769D01*
X11566Y24870D01*
X11716Y24970D01*
X11790Y25080D01*
X12053Y25080D01*
X12142Y24991D01*
X12306Y24923D01*
X12484Y24923D01*
X12648Y24991D01*
X12774Y25116D01*
X12842Y25280D01*
X12842Y25458D01*
X12774Y25622D01*
X12649Y25748D01*
X12484Y25816D01*
X12307Y25817D01*
X12142Y25749D01*
X12053Y25659D01*
X11790Y25659D01*
X11716Y25769D01*
X11566Y25870D01*
X11716Y25970D01*
X11839Y26153D01*
X11882Y26370D01*
X11839Y26586D01*
X11716Y26769D01*
X11566Y26870D01*
X11716Y26970D01*
X11839Y27153D01*
X11882Y27370D01*
X11839Y27586D01*
X11716Y27769D01*
X11566Y27870D01*
X11716Y27970D01*
X11839Y28153D01*
X11882Y28370D01*
X11839Y28586D01*
X11716Y28769D01*
X11566Y28870D01*
X11716Y28970D01*
X11839Y29153D01*
X11882Y29370D01*
X11839Y29586D01*
X11716Y29769D01*
X11566Y29870D01*
X11716Y29970D01*
X11839Y30153D01*
X11882Y30370D01*
X11839Y30586D01*
X11716Y30769D01*
X11566Y30870D01*
X11716Y30970D01*
X11839Y31153D01*
X11882Y31370D01*
X11839Y31586D01*
X11716Y31769D01*
X11566Y31870D01*
X11716Y31970D01*
X11839Y32153D01*
X11882Y32370D01*
X11839Y32586D01*
X11716Y32769D01*
X11566Y32870D01*
X11716Y32970D01*
X11839Y33153D01*
X11882Y33370D01*
X11839Y33586D01*
X11716Y33769D01*
X11566Y33870D01*
X11716Y33970D01*
X11839Y34153D01*
X11882Y34370D01*
X11839Y34586D01*
X11716Y34769D01*
X11566Y34870D01*
X11716Y34970D01*
X11839Y35153D01*
X11882Y35370D01*
X11839Y35586D01*
X11716Y35769D01*
X11566Y35870D01*
X11716Y35970D01*
X11839Y36153D01*
X11882Y36370D01*
X11839Y36586D01*
X11716Y36769D01*
X11566Y36870D01*
X11716Y36970D01*
X11839Y37153D01*
X11882Y37370D01*
X11839Y37586D01*
X11716Y37769D01*
X11566Y37870D01*
X11716Y37970D01*
X11839Y38153D01*
X11882Y38370D01*
X11839Y38586D01*
X11716Y38769D01*
X11533Y38892D01*
X11317Y38935D01*
X10974Y38935D01*
X10757Y38892D01*
X10574Y38769D01*
X10452Y38586D01*
X10409Y38370D01*
X10452Y38153D01*
X10574Y37970D01*
X10724Y37870D01*
X10574Y37769D01*
X10452Y37586D01*
X10409Y37370D01*
X10452Y37153D01*
X10574Y36970D01*
X10724Y36870D01*
X10574Y36769D01*
X10452Y36586D01*
X10409Y36370D01*
X10452Y36153D01*
X10574Y35970D01*
X10724Y35870D01*
X10574Y35769D01*
X10452Y35586D01*
X10409Y35370D01*
X10452Y35153D01*
X10574Y34970D01*
X10724Y34870D01*
X10574Y34769D01*
X10452Y34586D01*
X10409Y34370D01*
X10452Y34153D01*
X10574Y33970D01*
X10724Y33870D01*
X10574Y33769D01*
X10452Y33586D01*
X10409Y33370D01*
X10452Y33153D01*
X10574Y32970D01*
X10724Y32870D01*
X10574Y32769D01*
X10452Y32586D01*
X10409Y32370D01*
X10452Y32153D01*
X10574Y31970D01*
X10724Y31870D01*
X10574Y31769D01*
X10452Y31586D01*
X10409Y31370D01*
X10452Y31153D01*
X10574Y30970D01*
X10724Y30870D01*
X10574Y30769D01*
X10452Y30586D01*
X10409Y30370D01*
X10452Y30153D01*
X10574Y29970D01*
X10724Y29870D01*
X10574Y29769D01*
X10452Y29586D01*
X10409Y29370D01*
X10452Y29153D01*
X10574Y28970D01*
X10724Y28870D01*
X10574Y28769D01*
X10452Y28586D01*
X10409Y28370D01*
X10452Y28153D01*
X10574Y27970D01*
X10724Y27870D01*
X10574Y27769D01*
X10452Y27586D01*
X10409Y27370D01*
X10452Y27153D01*
X10574Y26970D01*
X10724Y26870D01*
X10574Y26769D01*
X10452Y26586D01*
X10409Y26370D01*
X10452Y26153D01*
X10574Y25970D01*
X10724Y25870D01*
X10574Y25769D01*
X10452Y25586D01*
X10409Y25370D01*
X10452Y25153D01*
X10574Y24970D01*
X10724Y24870D01*
X10574Y24769D01*
X10452Y24586D01*
X10409Y24370D01*
X10452Y24153D01*
X10574Y23970D01*
X10724Y23870D01*
X10574Y23769D01*
X10452Y23586D01*
X10409Y23370D01*
X10452Y23153D01*
X10574Y22970D01*
X10724Y22870D01*
X10574Y22769D01*
X10452Y22586D01*
X10409Y22370D01*
X10452Y22153D01*
X10574Y21970D01*
X10724Y21870D01*
X10574Y21769D01*
X10452Y21586D01*
X10409Y21370D01*
X10452Y21153D01*
X10574Y20970D01*
X10724Y20870D01*
X10574Y20769D01*
X10452Y20586D01*
X10409Y20370D01*
X10452Y20153D01*
X10574Y19970D01*
X10724Y19870D01*
X10574Y19769D01*
X10452Y19586D01*
X10409Y19370D01*
X10452Y19153D01*
X10574Y18970D01*
X10757Y18848D01*
X10974Y18805D01*
X11317Y18805D01*
X11533Y18848D01*
X11698Y18958D01*
X11698Y18781D01*
X11766Y18617D01*
X11892Y18491D01*
X12056Y18423D01*
X12234Y18423D01*
X12398Y18491D01*
X12524Y18616D01*
X12592Y18780D01*
X12592Y18907D01*
X13858Y20173D01*
X13984Y20173D01*
X14148Y20241D01*
X14274Y20366D01*
X14342Y20530D01*
X14342Y20708D01*
X14342Y18356D01*
X10145Y18356D01*
X7763Y18356D01*
X7774Y18366D01*
X7842Y18530D01*
X7842Y18708D01*
X7787Y18842D01*
X7974Y18805D01*
X8317Y18805D01*
X8533Y18848D01*
X8716Y18970D01*
X8839Y19153D01*
X8882Y19370D01*
X8839Y19586D01*
X8716Y19769D01*
X8566Y19870D01*
X8716Y19970D01*
X8839Y20153D01*
X8882Y20370D01*
X8839Y20586D01*
X8716Y20769D01*
X8566Y20870D01*
X8716Y20970D01*
X8839Y21153D01*
X8882Y21370D01*
X8839Y21586D01*
X8716Y21769D01*
X8566Y21870D01*
X8716Y21970D01*
X8839Y22153D01*
X8882Y22370D01*
X8839Y22586D01*
X8716Y22769D01*
X8566Y22870D01*
X8716Y22970D01*
X8839Y23153D01*
X8882Y23370D01*
X8839Y23586D01*
X8716Y23769D01*
X8566Y23870D01*
X8716Y23970D01*
X8839Y24153D01*
X8882Y24370D01*
X8839Y24586D01*
X8716Y24769D01*
X8566Y24870D01*
X8716Y24970D01*
X8839Y25153D01*
X8882Y25370D01*
X8839Y25586D01*
X8716Y25769D01*
X8566Y25870D01*
X8716Y25970D01*
X8839Y26153D01*
X8882Y26370D01*
X8839Y26586D01*
X8716Y26769D01*
X8566Y26870D01*
X8716Y26970D01*
X8839Y27153D01*
X8882Y27370D01*
X8839Y27586D01*
X8716Y27769D01*
X8663Y27805D01*
X8667Y27805D01*
X8759Y27843D01*
X8830Y27913D01*
X8868Y28005D01*
X8868Y28104D01*
X8868Y28734D01*
X8830Y28826D01*
X8759Y28896D01*
X8667Y28935D01*
X8663Y28935D01*
X8716Y28970D01*
X8839Y29153D01*
X8882Y29370D01*
X8839Y29586D01*
X8716Y29769D01*
X8566Y29870D01*
X8716Y29970D01*
X8839Y30153D01*
X8882Y30370D01*
X8839Y30586D01*
X8716Y30769D01*
X8566Y30870D01*
X8716Y30970D01*
X8839Y31153D01*
X8882Y31370D01*
X8839Y31586D01*
X8716Y31769D01*
X8566Y31870D01*
X8716Y31970D01*
X8839Y32153D01*
X8882Y32370D01*
X8839Y32586D01*
X8716Y32769D01*
X8566Y32870D01*
X8716Y32970D01*
X8839Y33153D01*
X8882Y33370D01*
X8839Y33586D01*
X8716Y33769D01*
X8566Y33870D01*
X8716Y33970D01*
X8839Y34153D01*
X8882Y34370D01*
X8839Y34586D01*
X8716Y34769D01*
X8566Y34870D01*
X8716Y34970D01*
X8839Y35153D01*
X8882Y35370D01*
X8839Y35586D01*
X8716Y35769D01*
X8566Y35870D01*
X8716Y35970D01*
X8839Y36153D01*
X8882Y36370D01*
X8839Y36586D01*
X8716Y36769D01*
X8566Y36870D01*
X8716Y36970D01*
X8839Y37153D01*
X8882Y37370D01*
X8839Y37586D01*
X8716Y37769D01*
X8663Y37805D01*
X8667Y37805D01*
X8759Y37843D01*
X8830Y37913D01*
X8868Y38005D01*
X8868Y38104D01*
X8868Y38734D01*
X8830Y38826D01*
X8759Y38896D01*
X8667Y38935D01*
X8568Y38935D01*
X7623Y38935D01*
X7531Y38896D01*
X7461Y38826D01*
X7423Y38734D01*
X7423Y38635D01*
X7423Y38005D01*
X7461Y37913D01*
X7531Y37843D01*
X7623Y37805D01*
X7627Y37805D01*
X7574Y37769D01*
X7452Y37586D01*
X7409Y37370D01*
X7452Y37153D01*
X7574Y36970D01*
X7724Y36870D01*
X7574Y36769D01*
X7452Y36586D01*
X7437Y36514D01*
X7114Y36838D01*
X7013Y36905D01*
X6895Y36929D01*
X6447Y36929D01*
X6590Y37072D01*
X6670Y37265D01*
X6670Y37474D01*
X6591Y37667D01*
X6443Y37814D01*
X6250Y37894D01*
X6041Y37895D01*
X5848Y37815D01*
X5700Y37667D01*
X5645Y37534D01*
X5591Y37667D01*
X5443Y37814D01*
X5250Y37894D01*
X5041Y37895D01*
X4848Y37815D01*
X4700Y37667D01*
X4645Y37534D01*
X4591Y37667D01*
X4443Y37814D01*
X4250Y37894D01*
X4041Y37895D01*
X3848Y37815D01*
X3700Y37667D01*
X3620Y37474D01*
X3620Y37266D01*
X3700Y37073D01*
X3847Y36925D01*
X4040Y36845D01*
X4233Y36845D01*
X4677Y36401D01*
X4777Y36334D01*
X4895Y36311D01*
X6767Y36311D01*
X7086Y35992D01*
X7086Y28870D01*
X7110Y28751D01*
X7177Y28651D01*
X7423Y28405D01*
X7423Y28279D01*
X6670Y29032D01*
X6670Y33974D01*
X6591Y34167D01*
X6443Y34314D01*
X6250Y34394D01*
X6041Y34395D01*
X5848Y34315D01*
X5700Y34167D01*
X5645Y34034D01*
X5591Y34167D01*
X5443Y34314D01*
X5250Y34394D01*
X5041Y34395D01*
X4848Y34315D01*
X4700Y34167D01*
X4645Y34034D01*
X4591Y34167D01*
X4443Y34314D01*
X4250Y34394D01*
X4041Y34395D01*
X3848Y34315D01*
X3700Y34167D01*
X3620Y33974D01*
X3620Y33766D01*
X3700Y33573D01*
X3847Y33425D01*
X4040Y33345D01*
X4249Y33344D01*
X4442Y33424D01*
X4590Y33572D01*
X4645Y33705D01*
X4700Y33573D01*
X4847Y33425D01*
X5040Y33345D01*
X5249Y33344D01*
X5442Y33424D01*
X5590Y33572D01*
X5645Y33705D01*
X5700Y33573D01*
X5847Y33425D01*
X6040Y33345D01*
X6249Y33344D01*
X6442Y33424D01*
X6590Y33572D01*
X6670Y33765D01*
X6670Y33974D01*
X6670Y29032D01*
X6092Y29610D01*
X6092Y29708D01*
X6024Y29872D01*
X5899Y29998D01*
X5734Y30066D01*
X5557Y30067D01*
X5392Y29999D01*
X5267Y29873D01*
X5198Y29709D01*
X5198Y29531D01*
X5202Y29523D01*
X5142Y29499D01*
X5017Y29373D01*
X4948Y29209D01*
X4948Y29031D01*
X5016Y28867D01*
X5142Y28741D01*
X5306Y28673D01*
X5484Y28673D01*
X5605Y28723D01*
X6836Y27492D01*
X6836Y19066D01*
X6807Y19067D01*
X6642Y18999D01*
X6631Y18988D01*
X6631Y21370D01*
X6626Y21396D01*
X6628Y21423D01*
X6608Y21489D01*
X6594Y21556D01*
X6579Y21578D01*
X6571Y21604D01*
X6527Y21656D01*
X6489Y21713D01*
X6466Y21728D01*
X6449Y21749D01*
X5460Y22540D01*
X5460Y22676D01*
X5374Y22884D01*
X5216Y23043D01*
X5008Y23129D01*
X4783Y23130D01*
X4694Y23093D01*
X4694Y30231D01*
X4609Y30439D01*
X4450Y30598D01*
X4242Y30684D01*
X4018Y30685D01*
X3810Y30599D01*
X3651Y30440D01*
X3565Y30232D01*
X3564Y30008D01*
X3650Y29800D01*
X3809Y29641D01*
X4017Y29555D01*
X4241Y29555D01*
X4449Y29640D01*
X4608Y29799D01*
X4694Y30007D01*
X4694Y30231D01*
X4694Y23093D01*
X4576Y23044D01*
X4416Y22885D01*
X4330Y22677D01*
X4330Y22453D01*
X4416Y22245D01*
X4438Y22223D01*
X4446Y22184D01*
X4461Y22161D01*
X4469Y22135D01*
X4513Y22083D01*
X4551Y22026D01*
X4574Y22011D01*
X4591Y21990D01*
X5659Y21136D01*
X5659Y18370D01*
X5696Y18184D01*
X5801Y18026D01*
X6301Y17526D01*
X6459Y17420D01*
X6645Y17383D01*
X10145Y17383D01*
X10431Y17383D01*
X10365Y17195D01*
X10377Y16987D01*
X10435Y16847D01*
X10527Y16822D01*
X10824Y17120D01*
X10819Y17125D01*
X10890Y17196D01*
X10895Y17190D01*
X10901Y17196D01*
X10971Y17125D01*
X10966Y17120D01*
X11263Y16822D01*
X11356Y16847D01*
X11394Y16957D01*
X11450Y16823D01*
X11597Y16675D01*
X11790Y16595D01*
X11999Y16594D01*
X12192Y16674D01*
X12340Y16822D01*
X12420Y17015D01*
X12420Y17224D01*
X12354Y17383D01*
X14395Y17383D01*
X14581Y17420D01*
X14739Y17526D01*
X14844Y17684D01*
X14881Y17870D01*
X14881Y15005D01*
X14734Y15066D01*
X14557Y15067D01*
X14392Y14999D01*
X14267Y14873D01*
X14198Y14709D01*
X14198Y14666D01*
X12599Y13066D01*
X12557Y13067D01*
X12420Y13010D01*
X12420Y14224D01*
X12341Y14417D01*
X12193Y14564D01*
X12000Y14644D01*
X11791Y14645D01*
X11598Y14565D01*
X11450Y14417D01*
X11395Y14284D01*
X11341Y14417D01*
X11193Y14564D01*
X11192Y14565D01*
X11192Y16752D01*
X10895Y17049D01*
X10598Y16752D01*
X10622Y16659D01*
X10819Y16590D01*
X11028Y16601D01*
X11168Y16659D01*
X11192Y16752D01*
X11192Y14565D01*
X11000Y14644D01*
X10791Y14645D01*
X10598Y14565D01*
X10450Y14417D01*
X10370Y14224D01*
X10370Y14016D01*
X10450Y13823D01*
X10597Y13675D01*
X10790Y13595D01*
X10999Y13594D01*
X11192Y13674D01*
X11340Y13822D01*
X11395Y13955D01*
X11450Y13823D01*
X11597Y13675D01*
X11790Y13595D01*
X11999Y13594D01*
X12192Y13674D01*
X12340Y13822D01*
X12420Y14015D01*
X12420Y14224D01*
X12420Y13010D01*
X12392Y12999D01*
X12267Y12873D01*
X12198Y12709D01*
X12198Y12531D01*
X12266Y12367D01*
X12392Y12241D01*
X12556Y12173D01*
X12734Y12173D01*
X12742Y12176D01*
X12766Y12117D01*
X12892Y11991D01*
X13056Y11923D01*
X13234Y11923D01*
X13398Y11991D01*
X13524Y12116D01*
X13592Y12280D01*
X13592Y12324D01*
X15191Y13923D01*
X15234Y13923D01*
X15398Y13991D01*
X15524Y14116D01*
X15592Y14280D01*
X15592Y14458D01*
X15592Y13281D01*
X15127Y12816D01*
X15057Y12817D01*
X14892Y12749D01*
X14767Y12623D01*
X14698Y12459D01*
X14698Y12281D01*
X14766Y12117D01*
X14892Y11991D01*
X15056Y11923D01*
X15234Y11923D01*
X15398Y11991D01*
X15524Y12116D01*
X15592Y12280D01*
X15592Y12352D01*
X16163Y12923D01*
X16234Y12923D01*
X16398Y12991D01*
X16524Y13116D01*
X16592Y13280D01*
X16592Y13458D01*
X16592Y11783D01*
X16505Y11820D01*
X16405Y11820D01*
X15785Y11820D01*
X15694Y11782D01*
X15623Y11711D01*
X15585Y11619D01*
X15585Y11603D01*
X15541Y11669D01*
X15359Y11791D01*
X15145Y11833D01*
X14931Y11791D01*
X14749Y11669D01*
X14645Y11514D01*
X14541Y11669D01*
X14359Y11791D01*
X14145Y11833D01*
X13931Y11791D01*
X13749Y11669D01*
X13645Y11514D01*
X13541Y11669D01*
X13359Y11791D01*
X13145Y11833D01*
X12931Y11791D01*
X12749Y11669D01*
X12645Y11514D01*
X12541Y11669D01*
X12359Y11791D01*
X12145Y11833D01*
X11931Y11791D01*
X11749Y11669D01*
X11645Y11514D01*
X11541Y11669D01*
X11359Y11791D01*
X11145Y11833D01*
X11022Y11809D01*
X11099Y11886D01*
X11192Y11924D01*
X11340Y12072D01*
X11420Y12265D01*
X11420Y12474D01*
X11341Y12667D01*
X11193Y12814D01*
X11000Y12894D01*
X10791Y12895D01*
X10598Y12815D01*
X10450Y12667D01*
X10411Y12573D01*
X9801Y11963D01*
X9696Y11806D01*
X9659Y11620D01*
X9659Y11534D01*
X9645Y11514D01*
X9643Y11520D01*
X9506Y11691D01*
X9425Y11735D01*
X9425Y12294D01*
X9414Y12502D01*
X9356Y12642D01*
X9263Y12667D01*
X9192Y12596D01*
X9192Y12737D01*
X9168Y12830D01*
X8971Y12899D01*
X8762Y12888D01*
X8622Y12830D01*
X8598Y12737D01*
X8895Y12440D01*
X9192Y12737D01*
X9192Y12596D01*
X8966Y12370D01*
X9263Y12072D01*
X9356Y12097D01*
X9425Y12294D01*
X9425Y11735D01*
X9313Y11796D01*
X9282Y11803D01*
X9195Y11755D01*
X9195Y11170D01*
X9203Y11170D01*
X9203Y11070D01*
X9195Y11070D01*
X9195Y10485D01*
X9282Y10437D01*
X9313Y10443D01*
X9506Y10548D01*
X9643Y10719D01*
X9645Y10725D01*
X9749Y10570D01*
X9931Y10448D01*
X10145Y10406D01*
X10359Y10448D01*
X10541Y10570D01*
X10645Y10726D01*
X10749Y10570D01*
X10931Y10448D01*
X11145Y10406D01*
X11359Y10448D01*
X11541Y10570D01*
X11645Y10726D01*
X11749Y10570D01*
X11931Y10448D01*
X12145Y10406D01*
X12359Y10448D01*
X12541Y10570D01*
X12645Y10726D01*
X12749Y10570D01*
X12931Y10448D01*
X13145Y10406D01*
X13359Y10448D01*
X13541Y10570D01*
X13645Y10726D01*
X13749Y10570D01*
X13931Y10448D01*
X14145Y10406D01*
X14359Y10448D01*
X14541Y10570D01*
X14645Y10726D01*
X14749Y10570D01*
X14931Y10448D01*
X15145Y10406D01*
X15359Y10448D01*
X15541Y10570D01*
X15585Y10636D01*
X15585Y10620D01*
X15623Y10528D01*
X15694Y10458D01*
X15785Y10420D01*
X15885Y10420D01*
X16505Y10420D01*
X16597Y10458D01*
X16667Y10528D01*
X16705Y10620D01*
X16705Y8273D01*
X16663Y8488D01*
X16541Y8669D01*
X16359Y8791D01*
X16145Y8833D01*
X15931Y8791D01*
X15749Y8669D01*
X15645Y8514D01*
X15541Y8669D01*
X15359Y8791D01*
X15145Y8833D01*
X14931Y8791D01*
X14749Y8669D01*
X14645Y8514D01*
X14541Y8669D01*
X14359Y8791D01*
X14145Y8833D01*
X13931Y8791D01*
X13749Y8669D01*
X13645Y8514D01*
X13541Y8669D01*
X13359Y8791D01*
X13145Y8833D01*
X12931Y8791D01*
X12749Y8669D01*
X12645Y8514D01*
X12541Y8669D01*
X12359Y8791D01*
X12145Y8833D01*
X11931Y8791D01*
X11749Y8669D01*
X11645Y8514D01*
X11541Y8669D01*
X11359Y8791D01*
X11145Y8833D01*
X10931Y8791D01*
X10749Y8669D01*
X10645Y8514D01*
X10643Y8520D01*
X10506Y8691D01*
X10313Y8796D01*
X10282Y8803D01*
X10195Y8755D01*
X10195Y8170D01*
X10203Y8170D01*
X10203Y8070D01*
X10195Y8070D01*
X10195Y7485D01*
X10282Y7437D01*
X10313Y7443D01*
X10506Y7548D01*
X10643Y7719D01*
X10645Y7725D01*
X10749Y7570D01*
X10852Y7501D01*
X10848Y7487D01*
X11145Y7190D01*
X11442Y7487D01*
X11439Y7501D01*
X11541Y7570D01*
X11645Y7726D01*
X11749Y7570D01*
X11931Y7448D01*
X12145Y7406D01*
X12359Y7448D01*
X12541Y7570D01*
X12645Y7726D01*
X12749Y7570D01*
X12931Y7448D01*
X13145Y7406D01*
X13359Y7448D01*
X13541Y7570D01*
X13645Y7726D01*
X13749Y7570D01*
X13931Y7448D01*
X14145Y7406D01*
X14359Y7448D01*
X14541Y7570D01*
X14645Y7726D01*
X14749Y7570D01*
X14931Y7448D01*
X15145Y7406D01*
X15359Y7448D01*
X15541Y7570D01*
X15645Y7726D01*
X15749Y7570D01*
X15931Y7448D01*
X16145Y7406D01*
X16359Y7448D01*
X16541Y7570D01*
X16663Y7752D01*
X16705Y7966D01*
X16705Y269D01*
X11675Y269D01*
X11675Y7044D01*
X11664Y7252D01*
X11606Y7392D01*
X11513Y7417D01*
X11216Y7120D01*
X11513Y6822D01*
X11606Y6847D01*
X11675Y7044D01*
X11675Y269D01*
X11442Y269D01*
X11442Y6752D01*
X11145Y7049D01*
X11074Y6978D01*
X11074Y7120D01*
X10777Y7417D01*
X10685Y7392D01*
X10615Y7195D01*
X10627Y6987D01*
X10685Y6847D01*
X10777Y6822D01*
X11074Y7120D01*
X11074Y6978D01*
X10848Y6752D01*
X10872Y6659D01*
X11069Y6590D01*
X11278Y6601D01*
X11418Y6659D01*
X11442Y6752D01*
X11442Y269D01*
X10675Y269D01*
X10675Y6044D01*
X10664Y6252D01*
X10606Y6392D01*
X10513Y6417D01*
X10442Y6346D01*
X10442Y6487D01*
X10418Y6580D01*
X10221Y6649D01*
X10095Y6643D01*
X10095Y7485D01*
X10095Y8070D01*
X10087Y8070D01*
X10087Y8170D01*
X10095Y8170D01*
X10095Y8755D01*
X10009Y8803D01*
X9977Y8796D01*
X9785Y8691D01*
X9647Y8520D01*
X9645Y8514D01*
X9541Y8669D01*
X9359Y8791D01*
X9192Y8824D01*
X9192Y12002D01*
X8895Y12299D01*
X8824Y12228D01*
X8824Y12370D01*
X8527Y12667D01*
X8435Y12642D01*
X8365Y12445D01*
X8377Y12237D01*
X8435Y12097D01*
X8527Y12072D01*
X8824Y12370D01*
X8824Y12228D01*
X8598Y12002D01*
X8622Y11909D01*
X8819Y11840D01*
X9028Y11851D01*
X9168Y11909D01*
X9192Y12002D01*
X9192Y8824D01*
X9145Y8833D01*
X9095Y8823D01*
X9095Y10485D01*
X9095Y11070D01*
X9087Y11070D01*
X9087Y11170D01*
X9095Y11170D01*
X9095Y11755D01*
X9009Y11803D01*
X8977Y11796D01*
X8785Y11691D01*
X8647Y11520D01*
X8645Y11514D01*
X8541Y11669D01*
X8359Y11791D01*
X8145Y11833D01*
X7931Y11791D01*
X7749Y11669D01*
X7645Y11514D01*
X7541Y11669D01*
X7359Y11791D01*
X7145Y11833D01*
X6931Y11791D01*
X6749Y11669D01*
X6645Y11514D01*
X6541Y11669D01*
X6359Y11791D01*
X6145Y11833D01*
X6092Y11823D01*
X6092Y11907D01*
X6608Y12423D01*
X6734Y12423D01*
X6898Y12491D01*
X7024Y12616D01*
X7092Y12780D01*
X7092Y12958D01*
X7092Y13958D01*
X7024Y14122D01*
X6899Y14248D01*
X6839Y14273D01*
X6842Y14280D01*
X6842Y14458D01*
X6774Y14622D01*
X6649Y14748D01*
X6484Y14816D01*
X6307Y14817D01*
X6142Y14749D01*
X6072Y14679D01*
X5460Y14679D01*
X5460Y20787D01*
X5374Y20994D01*
X5216Y21153D01*
X5008Y21240D01*
X4783Y21240D01*
X4576Y21154D01*
X4416Y20995D01*
X4330Y20788D01*
X4330Y20563D01*
X4416Y20355D01*
X4575Y20196D01*
X4782Y20110D01*
X5007Y20110D01*
X5215Y20195D01*
X5374Y20354D01*
X5460Y20562D01*
X5460Y20787D01*
X5460Y14679D01*
X4968Y14679D01*
X4899Y14748D01*
X4734Y14816D01*
X4557Y14817D01*
X4392Y14749D01*
X4267Y14623D01*
X4198Y14459D01*
X4198Y14281D01*
X4266Y14117D01*
X4392Y13991D01*
X4451Y13966D01*
X4448Y13959D01*
X4448Y13781D01*
X4516Y13617D01*
X4642Y13491D01*
X4806Y13423D01*
X4984Y13423D01*
X5148Y13491D01*
X5218Y13561D01*
X6322Y13561D01*
X6392Y13491D01*
X6556Y13423D01*
X6734Y13423D01*
X6898Y13491D01*
X7024Y13616D01*
X7092Y13780D01*
X7092Y13958D01*
X7092Y12958D01*
X7024Y13122D01*
X6899Y13248D01*
X6734Y13316D01*
X6557Y13317D01*
X6392Y13249D01*
X6267Y13123D01*
X6198Y12959D01*
X6198Y12832D01*
X5683Y12316D01*
X5557Y12317D01*
X5392Y12249D01*
X5267Y12123D01*
X5198Y11959D01*
X5198Y11823D01*
X5145Y11833D01*
X4931Y11791D01*
X4749Y11669D01*
X4645Y11514D01*
X4541Y11669D01*
X4359Y11791D01*
X4145Y11833D01*
X3931Y11791D01*
X3749Y11669D01*
X3645Y11514D01*
X3541Y11669D01*
X3420Y11750D01*
X3420Y26724D01*
X3341Y26917D01*
X3193Y27064D01*
X3000Y27144D01*
X2791Y27145D01*
X2726Y27118D01*
X2726Y30231D01*
X2640Y30439D01*
X2481Y30598D01*
X2454Y30609D01*
X2454Y37969D01*
X2321Y38293D01*
X2073Y38540D01*
X1750Y38675D01*
X1400Y38675D01*
X1077Y38541D01*
X829Y38294D01*
X695Y37971D01*
X694Y37621D01*
X828Y37297D01*
X1075Y37049D01*
X1399Y36915D01*
X1749Y36915D01*
X2072Y37048D01*
X2320Y37296D01*
X2454Y37619D01*
X2454Y37969D01*
X2454Y30609D01*
X2274Y30684D01*
X2049Y30685D01*
X1841Y30599D01*
X1682Y30440D01*
X1596Y30232D01*
X1596Y30008D01*
X1682Y29800D01*
X1840Y29641D01*
X2048Y29555D01*
X2273Y29555D01*
X2481Y29640D01*
X2640Y29799D01*
X2726Y30007D01*
X2726Y30231D01*
X2726Y27118D01*
X2598Y27065D01*
X2450Y26917D01*
X2370Y26724D01*
X2370Y26516D01*
X2450Y26323D01*
X2597Y26175D01*
X2790Y26095D01*
X2999Y26094D01*
X3192Y26174D01*
X3340Y26322D01*
X3420Y26515D01*
X3420Y26724D01*
X3420Y11750D01*
X3359Y11791D01*
X3145Y11833D01*
X3000Y11804D01*
X3000Y17005D01*
X3000Y18974D01*
X2952Y19088D01*
X2952Y24005D01*
X2952Y24104D01*
X2952Y24734D01*
X2914Y24826D01*
X2844Y24896D01*
X2752Y24935D01*
X2653Y24935D01*
X2023Y24935D01*
X1931Y24896D01*
X1860Y24826D01*
X1822Y24734D01*
X1822Y24689D01*
X1800Y24696D01*
X1729Y24625D01*
X1729Y24766D01*
X1700Y24863D01*
X1488Y24939D01*
X1425Y24936D01*
X1425Y26544D01*
X1414Y26752D01*
X1356Y26892D01*
X1263Y26917D01*
X1192Y26846D01*
X1192Y26987D01*
X1168Y27080D01*
X971Y27149D01*
X762Y27138D01*
X622Y27080D01*
X598Y26987D01*
X895Y26690D01*
X1192Y26987D01*
X1192Y26846D01*
X966Y26620D01*
X1263Y26322D01*
X1356Y26347D01*
X1425Y26544D01*
X1425Y24936D01*
X1264Y24929D01*
X1192Y24899D01*
X1192Y26252D01*
X895Y26549D01*
X824Y26478D01*
X824Y26620D01*
X527Y26917D01*
X435Y26892D01*
X365Y26695D01*
X377Y26487D01*
X435Y26347D01*
X527Y26322D01*
X824Y26620D01*
X824Y26478D01*
X598Y26252D01*
X622Y26159D01*
X819Y26090D01*
X1028Y26101D01*
X1168Y26159D01*
X1192Y26252D01*
X1192Y24899D01*
X1106Y24863D01*
X1077Y24766D01*
X1403Y24440D01*
X1729Y24766D01*
X1729Y24625D01*
X1474Y24370D01*
X1800Y24044D01*
X1822Y24050D01*
X1822Y24005D01*
X1860Y23913D01*
X1931Y23843D01*
X2023Y23805D01*
X2122Y23805D01*
X2752Y23805D01*
X2844Y23843D01*
X2914Y23913D01*
X2952Y24005D01*
X2952Y19088D01*
X2920Y19166D01*
X2920Y21724D01*
X2841Y21917D01*
X2693Y22064D01*
X2500Y22144D01*
X2291Y22145D01*
X2098Y22065D01*
X1950Y21917D01*
X1898Y21791D01*
X1856Y21892D01*
X1763Y21917D01*
X1729Y21883D01*
X1729Y23973D01*
X1403Y24299D01*
X1332Y24228D01*
X1332Y24370D01*
X1006Y24696D01*
X909Y24666D01*
X833Y24455D01*
X844Y24230D01*
X909Y24073D01*
X1006Y24044D01*
X1332Y24370D01*
X1332Y24228D01*
X1077Y23973D01*
X1106Y23876D01*
X1318Y23800D01*
X1542Y23811D01*
X1700Y23876D01*
X1729Y23973D01*
X1729Y21883D01*
X1692Y21846D01*
X1692Y21987D01*
X1668Y22080D01*
X1471Y22149D01*
X1262Y22138D01*
X1122Y22080D01*
X1098Y21987D01*
X1395Y21690D01*
X1692Y21987D01*
X1692Y21846D01*
X1466Y21620D01*
X1763Y21322D01*
X1856Y21347D01*
X1894Y21457D01*
X1950Y21323D01*
X2097Y21175D01*
X2170Y21145D01*
X2070Y21145D01*
X1979Y21107D01*
X1908Y21036D01*
X1870Y20944D01*
X1870Y20845D01*
X1870Y20295D01*
X1908Y20203D01*
X1979Y20133D01*
X2070Y20095D01*
X2170Y20095D01*
X2720Y20095D01*
X2812Y20133D01*
X2882Y20203D01*
X2920Y20295D01*
X2920Y20394D01*
X2920Y20944D01*
X2882Y21036D01*
X2812Y21107D01*
X2720Y21145D01*
X2620Y21145D01*
X2620Y21145D01*
X2692Y21174D01*
X2840Y21322D01*
X2920Y21515D01*
X2920Y21724D01*
X2920Y19166D01*
X2908Y19196D01*
X2738Y19366D01*
X2516Y19458D01*
X2275Y19458D01*
X2053Y19366D01*
X1883Y19197D01*
X1791Y18975D01*
X1791Y18734D01*
X1883Y18512D01*
X2052Y18342D01*
X2274Y18250D01*
X2515Y18249D01*
X2737Y18341D01*
X2907Y18511D01*
X2999Y18733D01*
X3000Y18974D01*
X3000Y17005D01*
X2908Y17227D01*
X2738Y17397D01*
X2516Y17490D01*
X2275Y17490D01*
X2053Y17398D01*
X1883Y17228D01*
X1791Y17006D01*
X1791Y16766D01*
X1883Y16543D01*
X2052Y16373D01*
X2274Y16281D01*
X2515Y16281D01*
X2737Y16373D01*
X2907Y16543D01*
X2999Y16765D01*
X3000Y17005D01*
X3000Y11804D01*
X2952Y11795D01*
X2952Y13255D01*
X2952Y13354D01*
X2952Y13984D01*
X2914Y14076D01*
X2844Y14146D01*
X2752Y14185D01*
X2653Y14185D01*
X2023Y14185D01*
X1931Y14146D01*
X1860Y14076D01*
X1822Y13984D01*
X1822Y13939D01*
X1800Y13946D01*
X1729Y13875D01*
X1729Y14016D01*
X1700Y14113D01*
X1692Y14116D01*
X1692Y21252D01*
X1395Y21549D01*
X1324Y21478D01*
X1324Y21620D01*
X1027Y21917D01*
X935Y21892D01*
X865Y21695D01*
X877Y21487D01*
X935Y21347D01*
X1027Y21322D01*
X1324Y21620D01*
X1324Y21478D01*
X1098Y21252D01*
X1122Y21159D01*
X1319Y21090D01*
X1528Y21101D01*
X1668Y21159D01*
X1692Y21252D01*
X1692Y14116D01*
X1488Y14189D01*
X1264Y14179D01*
X1106Y14113D01*
X1077Y14016D01*
X1403Y13690D01*
X1729Y14016D01*
X1729Y13875D01*
X1474Y13620D01*
X1800Y13294D01*
X1822Y13300D01*
X1822Y13255D01*
X1860Y13163D01*
X1931Y13093D01*
X2023Y13055D01*
X2122Y13055D01*
X2752Y13055D01*
X2844Y13093D01*
X2914Y13163D01*
X2952Y13255D01*
X2952Y11795D01*
X2931Y11791D01*
X2749Y11669D01*
X2628Y11488D01*
X2585Y11273D01*
X2585Y10966D01*
X2628Y10752D01*
X2749Y10570D01*
X2931Y10448D01*
X3145Y10406D01*
X3359Y10448D01*
X3541Y10570D01*
X3645Y10726D01*
X3749Y10570D01*
X3931Y10448D01*
X4145Y10406D01*
X4359Y10448D01*
X4541Y10570D01*
X4645Y10726D01*
X4749Y10570D01*
X4931Y10448D01*
X5145Y10406D01*
X5359Y10448D01*
X5541Y10570D01*
X5645Y10726D01*
X5749Y10570D01*
X5931Y10448D01*
X6145Y10406D01*
X6359Y10448D01*
X6541Y10570D01*
X6645Y10726D01*
X6749Y10570D01*
X6931Y10448D01*
X7145Y10406D01*
X7359Y10448D01*
X7541Y10570D01*
X7645Y10726D01*
X7749Y10570D01*
X7931Y10448D01*
X8145Y10406D01*
X8359Y10448D01*
X8541Y10570D01*
X8645Y10725D01*
X8647Y10719D01*
X8785Y10548D01*
X8977Y10443D01*
X9009Y10437D01*
X9095Y10485D01*
X9095Y8823D01*
X8931Y8791D01*
X8749Y8669D01*
X8645Y8514D01*
X8541Y8669D01*
X8359Y8791D01*
X8145Y8833D01*
X7931Y8791D01*
X7749Y8669D01*
X7645Y8514D01*
X7541Y8669D01*
X7359Y8791D01*
X7145Y8833D01*
X6931Y8791D01*
X6749Y8669D01*
X6645Y8514D01*
X6541Y8669D01*
X6359Y8791D01*
X6145Y8833D01*
X5931Y8791D01*
X5749Y8669D01*
X5645Y8514D01*
X5541Y8669D01*
X5359Y8791D01*
X5145Y8833D01*
X4931Y8791D01*
X4749Y8669D01*
X4645Y8514D01*
X4541Y8669D01*
X4359Y8791D01*
X4145Y8833D01*
X3931Y8791D01*
X3749Y8669D01*
X3645Y8514D01*
X3541Y8669D01*
X3359Y8791D01*
X3145Y8833D01*
X2931Y8791D01*
X2749Y8669D01*
X2628Y8488D01*
X2585Y8273D01*
X2585Y7966D01*
X2628Y7752D01*
X2749Y7570D01*
X2931Y7448D01*
X3145Y7406D01*
X3359Y7448D01*
X3541Y7570D01*
X3645Y7726D01*
X3749Y7570D01*
X3931Y7448D01*
X4145Y7406D01*
X4359Y7448D01*
X4541Y7570D01*
X4645Y7726D01*
X4749Y7570D01*
X4931Y7448D01*
X5145Y7406D01*
X5359Y7448D01*
X5541Y7570D01*
X5645Y7726D01*
X5749Y7570D01*
X5931Y7448D01*
X6145Y7406D01*
X6359Y7448D01*
X6541Y7570D01*
X6645Y7726D01*
X6749Y7570D01*
X6931Y7448D01*
X7145Y7406D01*
X7359Y7448D01*
X7541Y7570D01*
X7645Y7726D01*
X7749Y7570D01*
X7931Y7448D01*
X8145Y7406D01*
X8359Y7448D01*
X8541Y7570D01*
X8645Y7726D01*
X8749Y7570D01*
X8811Y7528D01*
X8700Y7417D01*
X8620Y7224D01*
X8620Y7016D01*
X8700Y6823D01*
X8847Y6675D01*
X9040Y6595D01*
X9249Y6594D01*
X9442Y6674D01*
X9590Y6822D01*
X9670Y7015D01*
X9670Y7224D01*
X9591Y7417D01*
X9479Y7528D01*
X9541Y7570D01*
X9645Y7725D01*
X9647Y7719D01*
X9785Y7548D01*
X9977Y7443D01*
X10009Y7437D01*
X10095Y7485D01*
X10095Y6643D01*
X10012Y6638D01*
X9872Y6580D01*
X9848Y6487D01*
X10145Y6190D01*
X10442Y6487D01*
X10442Y6346D01*
X10216Y6120D01*
X10513Y5822D01*
X10606Y5847D01*
X10675Y6044D01*
X10675Y269D01*
X10442Y269D01*
X10442Y5752D01*
X10145Y6049D01*
X10074Y5978D01*
X10074Y6120D01*
X9777Y6417D01*
X9685Y6392D01*
X9615Y6195D01*
X9627Y5987D01*
X9685Y5847D01*
X9777Y5822D01*
X10074Y6120D01*
X10074Y5978D01*
X9848Y5752D01*
X9872Y5659D01*
X10069Y5590D01*
X10278Y5601D01*
X10418Y5659D01*
X10442Y5752D01*
X10442Y269D01*
X8670Y269D01*
X8670Y6224D01*
X8591Y6417D01*
X8443Y6564D01*
X8250Y6644D01*
X8041Y6645D01*
X7848Y6565D01*
X7700Y6417D01*
X7620Y6224D01*
X7620Y6016D01*
X7700Y5823D01*
X7847Y5675D01*
X8040Y5595D01*
X8249Y5594D01*
X8442Y5674D01*
X8590Y5822D01*
X8670Y6015D01*
X8670Y6224D01*
X8670Y269D01*
X3242Y269D01*
X3242Y6867D01*
X3108Y7190D01*
X2861Y7438D01*
X2537Y7572D01*
X2187Y7572D01*
X1864Y7439D01*
X1729Y7304D01*
X1729Y13223D01*
X1403Y13549D01*
X1332Y13478D01*
X1332Y13620D01*
X1006Y13946D01*
X909Y13916D01*
X833Y13705D01*
X844Y13480D01*
X909Y13323D01*
X1006Y13294D01*
X1332Y13620D01*
X1332Y13478D01*
X1077Y13223D01*
X1106Y13126D01*
X1318Y13050D01*
X1542Y13061D01*
X1700Y13126D01*
X1729Y13223D01*
X1729Y7304D01*
X1616Y7191D01*
X1482Y6868D01*
X1482Y6518D01*
X1615Y6195D01*
X1863Y5947D01*
X2186Y5813D01*
X2536Y5812D01*
X2859Y5946D01*
X3107Y6193D01*
X3241Y6517D01*
X3242Y6867D01*
X3242Y269D01*
X269Y269D01*
X269Y1832D01*
X325Y1832D01*
X1900Y1832D01*
X1992Y1870D01*
X2062Y1941D01*
X2100Y2032D01*
X2100Y2132D01*
X2100Y3707D01*
X2062Y3799D01*
X1992Y3869D01*
X1900Y3907D01*
X1800Y3907D01*
X269Y3907D01*
X269Y39100D01*
X19021Y39100D01*
X19021Y36382D01*
X18887Y36706D01*
X18596Y36999D01*
X18214Y37157D01*
X17802Y37157D01*
X17420Y37000D01*
X17128Y36708D01*
X16970Y36327D01*
X16970Y35914D01*
X17127Y35533D01*
X17419Y35241D01*
X17800Y35082D01*
X18213Y35082D01*
X18594Y35240D01*
X18886Y35531D01*
X19021Y35856D01*
X19021Y3907D01*
X18596Y3907D01*
X18596Y6867D01*
X18596Y31670D01*
X18462Y31993D01*
X18215Y32241D01*
X17892Y32375D01*
X17542Y32376D01*
X17218Y32242D01*
X16971Y31995D01*
X16836Y31671D01*
X16836Y31321D01*
X16970Y30998D01*
X17217Y30750D01*
X17540Y30616D01*
X17890Y30615D01*
X18214Y30749D01*
X18462Y30996D01*
X18596Y31320D01*
X18596Y31670D01*
X18596Y6867D01*
X18462Y7190D01*
X18420Y7232D01*
X18420Y25974D01*
X18420Y28974D01*
X18341Y29167D01*
X18193Y29314D01*
X18000Y29394D01*
X17791Y29395D01*
X17598Y29315D01*
X17450Y29167D01*
X17395Y29034D01*
X17341Y29167D01*
X17193Y29314D01*
X17000Y29394D01*
X16791Y29395D01*
X16695Y29355D01*
X16695Y34379D01*
X16612Y34581D01*
X16529Y34663D01*
X16611Y34745D01*
X16695Y34947D01*
X16695Y35166D01*
X16612Y35368D01*
X16457Y35523D01*
X16255Y35606D01*
X16036Y35607D01*
X15834Y35523D01*
X15679Y35369D01*
X15648Y35293D01*
X15626Y35344D01*
X15531Y35372D01*
X15460Y35301D01*
X15460Y35442D01*
X15433Y35538D01*
X15227Y35611D01*
X15008Y35600D01*
X14857Y35538D01*
X14830Y35442D01*
X15145Y35127D01*
X15460Y35442D01*
X15460Y35301D01*
X15216Y35057D01*
X15531Y34741D01*
X15626Y34769D01*
X15646Y34824D01*
X15679Y34745D01*
X15761Y34663D01*
X15679Y34582D01*
X15645Y34500D01*
X15612Y34581D01*
X15457Y34736D01*
X15352Y34779D01*
X15145Y34986D01*
X15074Y34915D01*
X15074Y35057D01*
X14759Y35372D01*
X14664Y35344D01*
X14590Y35138D01*
X14601Y34920D01*
X14664Y34769D01*
X14759Y34741D01*
X15074Y35057D01*
X15074Y34915D01*
X14939Y34779D01*
X14834Y34736D01*
X14679Y34582D01*
X14595Y34379D01*
X14595Y34161D01*
X14679Y33958D01*
X14833Y33804D01*
X15035Y33720D01*
X15254Y33719D01*
X15456Y33803D01*
X15611Y33958D01*
X15645Y34039D01*
X15679Y33958D01*
X15833Y33804D01*
X16035Y33720D01*
X16254Y33719D01*
X16456Y33803D01*
X16611Y33958D01*
X16695Y34160D01*
X16695Y34379D01*
X16695Y29355D01*
X16598Y29315D01*
X16450Y29167D01*
X16370Y28974D01*
X16370Y28766D01*
X16450Y28573D01*
X16597Y28425D01*
X16790Y28345D01*
X16999Y28344D01*
X17192Y28424D01*
X17340Y28572D01*
X17395Y28705D01*
X17450Y28573D01*
X17597Y28425D01*
X17790Y28345D01*
X17999Y28344D01*
X18192Y28424D01*
X18340Y28572D01*
X18420Y28765D01*
X18420Y28974D01*
X18420Y25974D01*
X18341Y26167D01*
X18193Y26314D01*
X18000Y26394D01*
X17791Y26395D01*
X17598Y26315D01*
X17450Y26167D01*
X17395Y26034D01*
X17341Y26167D01*
X17193Y26314D01*
X17000Y26394D01*
X16791Y26395D01*
X16598Y26315D01*
X16450Y26167D01*
X16370Y25974D01*
X16370Y25766D01*
X16450Y25573D01*
X16597Y25425D01*
X16790Y25345D01*
X16999Y25344D01*
X17192Y25424D01*
X17340Y25572D01*
X17395Y25705D01*
X17450Y25573D01*
X17597Y25425D01*
X17790Y25345D01*
X17999Y25344D01*
X18192Y25424D01*
X18340Y25572D01*
X18420Y25765D01*
X18420Y25974D01*
X18420Y7232D01*
X18215Y7438D01*
X17892Y7572D01*
X17542Y7572D01*
X17218Y7439D01*
X16971Y7191D01*
X16836Y6868D01*
X16836Y6518D01*
X16970Y6195D01*
X17217Y5947D01*
X17540Y5813D01*
X17890Y5812D01*
X18214Y5946D01*
X18462Y6193D01*
X18596Y6517D01*
X18596Y6867D01*
X18596Y3907D01*
X18340Y3907D01*
X18278Y3844D01*
X18278Y2920D01*
X18286Y2920D01*
X18286Y2820D01*
X18278Y2820D01*
X18278Y1895D01*
X18340Y1832D01*
X19021Y1832D01*
X19021Y269D01*
X19021Y269D01*
G37*
G54D29*
X19021Y269D02*
X18178Y269D01*
X18178Y1895D01*
X18178Y2820D01*
X18178Y2920D01*
X18178Y3844D01*
X18115Y3907D01*
X17391Y3907D01*
X17299Y3869D01*
X17229Y3799D01*
X17190Y3707D01*
X17190Y3607D01*
X17190Y2982D01*
X17253Y2920D01*
X18178Y2920D01*
X18178Y2820D01*
X17253Y2820D01*
X17190Y2757D01*
X17190Y2132D01*
X17190Y2032D01*
X17229Y1941D01*
X17299Y1870D01*
X17391Y1832D01*
X18115Y1832D01*
X18178Y1895D01*
X18178Y269D01*
X16705Y269D01*
X16705Y7966D01*
X16705Y8273D01*
X16705Y10620D01*
X16705Y10719D01*
X16705Y11619D01*
X16667Y11711D01*
X16597Y11782D01*
X16592Y11783D01*
X16592Y13458D01*
X16524Y13622D01*
X16399Y13748D01*
X16234Y13816D01*
X16170Y13816D01*
X16170Y25974D01*
X16170Y28974D01*
X16170Y32974D01*
X16091Y33167D01*
X15943Y33314D01*
X15750Y33394D01*
X15541Y33395D01*
X15348Y33315D01*
X15200Y33167D01*
X15170Y33095D01*
X15170Y33194D01*
X15132Y33286D01*
X15062Y33357D01*
X14970Y33395D01*
X14870Y33395D01*
X14320Y33395D01*
X14250Y33365D01*
X14250Y36241D01*
X14223Y36377D01*
X14139Y36489D01*
X13769Y36120D01*
X14139Y35750D01*
X14223Y35862D01*
X14250Y36241D01*
X14250Y33365D01*
X14229Y33357D01*
X14158Y33286D01*
X14120Y33194D01*
X14120Y33095D01*
X14120Y32545D01*
X14158Y32453D01*
X14229Y32383D01*
X14320Y32345D01*
X14420Y32345D01*
X14970Y32345D01*
X15062Y32383D01*
X15132Y32453D01*
X15170Y32545D01*
X15170Y32644D01*
X15170Y32644D01*
X15200Y32573D01*
X15347Y32425D01*
X15540Y32345D01*
X15749Y32344D01*
X15942Y32424D01*
X16090Y32572D01*
X16170Y32765D01*
X16170Y32974D01*
X16170Y28974D01*
X16091Y29167D01*
X15943Y29314D01*
X15870Y29345D01*
X15970Y29345D01*
X16062Y29383D01*
X16132Y29453D01*
X16170Y29545D01*
X16170Y29644D01*
X16170Y30194D01*
X16132Y30286D01*
X16062Y30357D01*
X15970Y30395D01*
X15870Y30395D01*
X15320Y30395D01*
X15229Y30357D01*
X15158Y30286D01*
X15120Y30194D01*
X15120Y30095D01*
X15120Y30095D01*
X15091Y30167D01*
X14943Y30314D01*
X14750Y30394D01*
X14541Y30395D01*
X14348Y30315D01*
X14200Y30167D01*
X14120Y29974D01*
X14120Y29766D01*
X14200Y29573D01*
X14347Y29425D01*
X14540Y29345D01*
X14749Y29344D01*
X14942Y29424D01*
X15090Y29572D01*
X15120Y29644D01*
X15120Y29545D01*
X15158Y29453D01*
X15229Y29383D01*
X15320Y29345D01*
X15420Y29345D01*
X15420Y29345D01*
X15348Y29315D01*
X15200Y29167D01*
X15120Y28974D01*
X15120Y28766D01*
X15200Y28573D01*
X15347Y28425D01*
X15540Y28345D01*
X15749Y28344D01*
X15942Y28424D01*
X16090Y28572D01*
X16170Y28765D01*
X16170Y28974D01*
X16170Y25974D01*
X16091Y26167D01*
X15943Y26314D01*
X15750Y26394D01*
X15541Y26395D01*
X15348Y26315D01*
X15200Y26167D01*
X15120Y25974D01*
X15120Y25766D01*
X15200Y25573D01*
X15347Y25425D01*
X15540Y25345D01*
X15749Y25344D01*
X15942Y25424D01*
X16090Y25572D01*
X16170Y25765D01*
X16170Y25974D01*
X16170Y13816D01*
X16057Y13817D01*
X15892Y13749D01*
X15767Y13623D01*
X15698Y13459D01*
X15698Y13388D01*
X15592Y13281D01*
X15592Y14458D01*
X15524Y14622D01*
X15399Y14748D01*
X15234Y14816D01*
X15057Y14817D01*
X15049Y14813D01*
X15024Y14872D01*
X14899Y14998D01*
X14881Y15005D01*
X14881Y17870D01*
X14844Y18056D01*
X14739Y18213D01*
X14581Y18319D01*
X14395Y18356D01*
X14342Y18356D01*
X14342Y20708D01*
X14274Y20872D01*
X14149Y20998D01*
X14000Y21060D01*
X14000Y30989D01*
X14000Y32989D01*
X13908Y33211D01*
X13738Y33382D01*
X13653Y33417D01*
X13653Y35264D01*
X13653Y36975D01*
X13541Y37059D01*
X13162Y37086D01*
X13025Y37059D01*
X12913Y36975D01*
X13283Y36606D01*
X13653Y36975D01*
X13653Y35264D01*
X13283Y35634D01*
X12913Y35264D01*
X13025Y35180D01*
X13405Y35153D01*
X13541Y35180D01*
X13653Y35264D01*
X13653Y33417D01*
X13516Y33474D01*
X13275Y33474D01*
X13053Y33382D01*
X12883Y33212D01*
X12797Y33005D01*
X12797Y36120D01*
X12427Y36489D01*
X12344Y36377D01*
X12317Y35998D01*
X12344Y35862D01*
X12427Y35750D01*
X12797Y36120D01*
X12797Y33005D01*
X12791Y32990D01*
X12791Y32750D01*
X12883Y32528D01*
X13052Y32358D01*
X13274Y32265D01*
X13515Y32265D01*
X13737Y32357D01*
X13907Y32527D01*
X13999Y32749D01*
X14000Y32989D01*
X14000Y30989D01*
X13908Y31211D01*
X13738Y31382D01*
X13516Y31474D01*
X13275Y31474D01*
X13053Y31382D01*
X12883Y31212D01*
X12791Y30990D01*
X12791Y30750D01*
X12883Y30528D01*
X13052Y30358D01*
X13274Y30265D01*
X13515Y30265D01*
X13737Y30357D01*
X13907Y30527D01*
X13999Y30749D01*
X14000Y30989D01*
X14000Y21060D01*
X13984Y21066D01*
X13807Y21067D01*
X13642Y20999D01*
X13517Y20873D01*
X13448Y20709D01*
X13448Y20582D01*
X13425Y20559D01*
X13399Y20622D01*
X13274Y20748D01*
X13109Y20816D01*
X12932Y20817D01*
X12767Y20749D01*
X12678Y20659D01*
X11790Y20659D01*
X11716Y20769D01*
X11566Y20870D01*
X11716Y20970D01*
X11790Y21080D01*
X12428Y21080D01*
X12517Y20991D01*
X12681Y20923D01*
X12859Y20923D01*
X13023Y20991D01*
X13149Y21116D01*
X13217Y21280D01*
X13217Y21458D01*
X13149Y21622D01*
X13024Y21748D01*
X12859Y21816D01*
X12682Y21817D01*
X12517Y21749D01*
X12428Y21659D01*
X11790Y21659D01*
X11716Y21769D01*
X11566Y21870D01*
X11716Y21970D01*
X11839Y22153D01*
X11882Y22370D01*
X11839Y22586D01*
X11716Y22769D01*
X11566Y22870D01*
X11716Y22970D01*
X11790Y23080D01*
X12303Y23080D01*
X12392Y22991D01*
X12556Y22923D01*
X12734Y22923D01*
X12898Y22991D01*
X13024Y23116D01*
X13092Y23280D01*
X13092Y23458D01*
X13024Y23622D01*
X12899Y23748D01*
X12734Y23816D01*
X12557Y23817D01*
X12392Y23749D01*
X12303Y23659D01*
X11790Y23659D01*
X11716Y23769D01*
X11566Y23870D01*
X11716Y23970D01*
X11839Y24153D01*
X11882Y24370D01*
X11839Y24586D01*
X11716Y24769D01*
X11566Y24870D01*
X11716Y24970D01*
X11790Y25080D01*
X12053Y25080D01*
X12142Y24991D01*
X12306Y24923D01*
X12484Y24923D01*
X12648Y24991D01*
X12774Y25116D01*
X12842Y25280D01*
X12842Y25458D01*
X12774Y25622D01*
X12649Y25748D01*
X12484Y25816D01*
X12307Y25817D01*
X12142Y25749D01*
X12053Y25659D01*
X11790Y25659D01*
X11716Y25769D01*
X11566Y25870D01*
X11716Y25970D01*
X11839Y26153D01*
X11882Y26370D01*
X11839Y26586D01*
X11716Y26769D01*
X11566Y26870D01*
X11716Y26970D01*
X11839Y27153D01*
X11882Y27370D01*
X11839Y27586D01*
X11716Y27769D01*
X11566Y27870D01*
X11716Y27970D01*
X11839Y28153D01*
X11882Y28370D01*
X11839Y28586D01*
X11716Y28769D01*
X11566Y28870D01*
X11716Y28970D01*
X11839Y29153D01*
X11882Y29370D01*
X11839Y29586D01*
X11716Y29769D01*
X11566Y29870D01*
X11716Y29970D01*
X11839Y30153D01*
X11882Y30370D01*
X11839Y30586D01*
X11716Y30769D01*
X11566Y30870D01*
X11716Y30970D01*
X11839Y31153D01*
X11882Y31370D01*
X11839Y31586D01*
X11716Y31769D01*
X11566Y31870D01*
X11716Y31970D01*
X11839Y32153D01*
X11882Y32370D01*
X11839Y32586D01*
X11716Y32769D01*
X11566Y32870D01*
X11716Y32970D01*
X11839Y33153D01*
X11882Y33370D01*
X11839Y33586D01*
X11716Y33769D01*
X11566Y33870D01*
X11716Y33970D01*
X11839Y34153D01*
X11882Y34370D01*
X11839Y34586D01*
X11716Y34769D01*
X11566Y34870D01*
X11716Y34970D01*
X11839Y35153D01*
X11882Y35370D01*
X11839Y35586D01*
X11716Y35769D01*
X11566Y35870D01*
X11716Y35970D01*
X11839Y36153D01*
X11882Y36370D01*
X11839Y36586D01*
X11716Y36769D01*
X11566Y36870D01*
X11716Y36970D01*
X11839Y37153D01*
X11882Y37370D01*
X11839Y37586D01*
X11716Y37769D01*
X11566Y37870D01*
X11716Y37970D01*
X11839Y38153D01*
X11882Y38370D01*
X11839Y38586D01*
X11716Y38769D01*
X11533Y38892D01*
X11317Y38935D01*
X10974Y38935D01*
X10757Y38892D01*
X10574Y38769D01*
X10452Y38586D01*
X10409Y38370D01*
X10452Y38153D01*
X10574Y37970D01*
X10724Y37870D01*
X10574Y37769D01*
X10452Y37586D01*
X10409Y37370D01*
X10452Y37153D01*
X10574Y36970D01*
X10724Y36870D01*
X10574Y36769D01*
X10452Y36586D01*
X10409Y36370D01*
X10452Y36153D01*
X10574Y35970D01*
X10724Y35870D01*
X10574Y35769D01*
X10452Y35586D01*
X10409Y35370D01*
X10452Y35153D01*
X10574Y34970D01*
X10724Y34870D01*
X10574Y34769D01*
X10452Y34586D01*
X10409Y34370D01*
X10452Y34153D01*
X10574Y33970D01*
X10724Y33870D01*
X10574Y33769D01*
X10452Y33586D01*
X10409Y33370D01*
X10452Y33153D01*
X10574Y32970D01*
X10724Y32870D01*
X10574Y32769D01*
X10452Y32586D01*
X10409Y32370D01*
X10452Y32153D01*
X10574Y31970D01*
X10724Y31870D01*
X10574Y31769D01*
X10452Y31586D01*
X10409Y31370D01*
X10452Y31153D01*
X10574Y30970D01*
X10724Y30870D01*
X10574Y30769D01*
X10452Y30586D01*
X10409Y30370D01*
X10452Y30153D01*
X10574Y29970D01*
X10724Y29870D01*
X10574Y29769D01*
X10452Y29586D01*
X10409Y29370D01*
X10452Y29153D01*
X10574Y28970D01*
X10724Y28870D01*
X10574Y28769D01*
X10452Y28586D01*
X10409Y28370D01*
X10452Y28153D01*
X10574Y27970D01*
X10724Y27870D01*
X10574Y27769D01*
X10452Y27586D01*
X10409Y27370D01*
X10452Y27153D01*
X10574Y26970D01*
X10724Y26870D01*
X10574Y26769D01*
X10452Y26586D01*
X10409Y26370D01*
X10452Y26153D01*
X10574Y25970D01*
X10724Y25870D01*
X10574Y25769D01*
X10452Y25586D01*
X10409Y25370D01*
X10452Y25153D01*
X10574Y24970D01*
X10724Y24870D01*
X10574Y24769D01*
X10452Y24586D01*
X10409Y24370D01*
X10452Y24153D01*
X10574Y23970D01*
X10724Y23870D01*
X10574Y23769D01*
X10452Y23586D01*
X10409Y23370D01*
X10452Y23153D01*
X10574Y22970D01*
X10724Y22870D01*
X10574Y22769D01*
X10452Y22586D01*
X10409Y22370D01*
X10452Y22153D01*
X10574Y21970D01*
X10724Y21870D01*
X10574Y21769D01*
X10452Y21586D01*
X10409Y21370D01*
X10452Y21153D01*
X10574Y20970D01*
X10724Y20870D01*
X10574Y20769D01*
X10452Y20586D01*
X10409Y20370D01*
X10452Y20153D01*
X10574Y19970D01*
X10724Y19870D01*
X10574Y19769D01*
X10452Y19586D01*
X10409Y19370D01*
X10452Y19153D01*
X10574Y18970D01*
X10757Y18848D01*
X10974Y18805D01*
X11317Y18805D01*
X11533Y18848D01*
X11698Y18958D01*
X11698Y18781D01*
X11766Y18617D01*
X11892Y18491D01*
X12056Y18423D01*
X12234Y18423D01*
X12398Y18491D01*
X12524Y18616D01*
X12592Y18780D01*
X12592Y18907D01*
X13858Y20173D01*
X13984Y20173D01*
X14148Y20241D01*
X14274Y20366D01*
X14342Y20530D01*
X14342Y20708D01*
X14342Y18356D01*
X10145Y18356D01*
X7763Y18356D01*
X7774Y18366D01*
X7842Y18530D01*
X7842Y18708D01*
X7787Y18842D01*
X7974Y18805D01*
X8317Y18805D01*
X8533Y18848D01*
X8716Y18970D01*
X8839Y19153D01*
X8882Y19370D01*
X8839Y19586D01*
X8716Y19769D01*
X8566Y19870D01*
X8716Y19970D01*
X8839Y20153D01*
X8882Y20370D01*
X8839Y20586D01*
X8716Y20769D01*
X8566Y20870D01*
X8716Y20970D01*
X8839Y21153D01*
X8882Y21370D01*
X8839Y21586D01*
X8716Y21769D01*
X8566Y21870D01*
X8716Y21970D01*
X8839Y22153D01*
X8882Y22370D01*
X8839Y22586D01*
X8716Y22769D01*
X8566Y22870D01*
X8716Y22970D01*
X8839Y23153D01*
X8882Y23370D01*
X8839Y23586D01*
X8716Y23769D01*
X8566Y23870D01*
X8716Y23970D01*
X8839Y24153D01*
X8882Y24370D01*
X8839Y24586D01*
X8716Y24769D01*
X8566Y24870D01*
X8716Y24970D01*
X8839Y25153D01*
X8882Y25370D01*
X8839Y25586D01*
X8716Y25769D01*
X8566Y25870D01*
X8716Y25970D01*
X8839Y26153D01*
X8882Y26370D01*
X8839Y26586D01*
X8716Y26769D01*
X8566Y26870D01*
X8716Y26970D01*
X8839Y27153D01*
X8882Y27370D01*
X8839Y27586D01*
X8716Y27769D01*
X8663Y27805D01*
X8667Y27805D01*
X8759Y27843D01*
X8830Y27913D01*
X8868Y28005D01*
X8868Y28104D01*
X8868Y28734D01*
X8830Y28826D01*
X8759Y28896D01*
X8667Y28935D01*
X8663Y28935D01*
X8716Y28970D01*
X8839Y29153D01*
X8882Y29370D01*
X8839Y29586D01*
X8716Y29769D01*
X8566Y29870D01*
X8716Y29970D01*
X8839Y30153D01*
X8882Y30370D01*
X8839Y30586D01*
X8716Y30769D01*
X8566Y30870D01*
X8716Y30970D01*
X8839Y31153D01*
X8882Y31370D01*
X8839Y31586D01*
X8716Y31769D01*
X8566Y31870D01*
X8716Y31970D01*
X8839Y32153D01*
X8882Y32370D01*
X8839Y32586D01*
X8716Y32769D01*
X8566Y32870D01*
X8716Y32970D01*
X8839Y33153D01*
X8882Y33370D01*
X8839Y33586D01*
X8716Y33769D01*
X8566Y33870D01*
X8716Y33970D01*
X8839Y34153D01*
X8882Y34370D01*
X8839Y34586D01*
X8716Y34769D01*
X8566Y34870D01*
X8716Y34970D01*
X8839Y35153D01*
X8882Y35370D01*
X8839Y35586D01*
X8716Y35769D01*
X8566Y35870D01*
X8716Y35970D01*
X8839Y36153D01*
X8882Y36370D01*
X8839Y36586D01*
X8716Y36769D01*
X8566Y36870D01*
X8716Y36970D01*
X8839Y37153D01*
X8882Y37370D01*
X8839Y37586D01*
X8716Y37769D01*
X8663Y37805D01*
X8667Y37805D01*
X8759Y37843D01*
X8830Y37913D01*
X8868Y38005D01*
X8868Y38104D01*
X8868Y38734D01*
X8830Y38826D01*
X8759Y38896D01*
X8667Y38935D01*
X8568Y38935D01*
X7623Y38935D01*
X7531Y38896D01*
X7461Y38826D01*
X7423Y38734D01*
X7423Y38635D01*
X7423Y38005D01*
X7461Y37913D01*
X7531Y37843D01*
X7623Y37805D01*
X7627Y37805D01*
X7574Y37769D01*
X7452Y37586D01*
X7409Y37370D01*
X7452Y37153D01*
X7574Y36970D01*
X7724Y36870D01*
X7574Y36769D01*
X7452Y36586D01*
X7437Y36514D01*
X7114Y36838D01*
X7013Y36905D01*
X6895Y36929D01*
X6447Y36929D01*
X6590Y37072D01*
X6670Y37265D01*
X6670Y37474D01*
X6591Y37667D01*
X6443Y37814D01*
X6250Y37894D01*
X6041Y37895D01*
X5848Y37815D01*
X5700Y37667D01*
X5645Y37534D01*
X5591Y37667D01*
X5443Y37814D01*
X5250Y37894D01*
X5041Y37895D01*
X4848Y37815D01*
X4700Y37667D01*
X4645Y37534D01*
X4591Y37667D01*
X4443Y37814D01*
X4250Y37894D01*
X4041Y37895D01*
X3848Y37815D01*
X3700Y37667D01*
X3620Y37474D01*
X3620Y37266D01*
X3700Y37073D01*
X3847Y36925D01*
X4040Y36845D01*
X4233Y36845D01*
X4677Y36401D01*
X4777Y36334D01*
X4895Y36311D01*
X6767Y36311D01*
X7086Y35992D01*
X7086Y28870D01*
X7110Y28751D01*
X7177Y28651D01*
X7423Y28405D01*
X7423Y28279D01*
X6670Y29032D01*
X6670Y33974D01*
X6591Y34167D01*
X6443Y34314D01*
X6250Y34394D01*
X6041Y34395D01*
X5848Y34315D01*
X5700Y34167D01*
X5645Y34034D01*
X5591Y34167D01*
X5443Y34314D01*
X5250Y34394D01*
X5041Y34395D01*
X4848Y34315D01*
X4700Y34167D01*
X4645Y34034D01*
X4591Y34167D01*
X4443Y34314D01*
X4250Y34394D01*
X4041Y34395D01*
X3848Y34315D01*
X3700Y34167D01*
X3620Y33974D01*
X3620Y33766D01*
X3700Y33573D01*
X3847Y33425D01*
X4040Y33345D01*
X4249Y33344D01*
X4442Y33424D01*
X4590Y33572D01*
X4645Y33705D01*
X4700Y33573D01*
X4847Y33425D01*
X5040Y33345D01*
X5249Y33344D01*
X5442Y33424D01*
X5590Y33572D01*
X5645Y33705D01*
X5700Y33573D01*
X5847Y33425D01*
X6040Y33345D01*
X6249Y33344D01*
X6442Y33424D01*
X6590Y33572D01*
X6670Y33765D01*
X6670Y33974D01*
X6670Y29032D01*
X6092Y29610D01*
X6092Y29708D01*
X6024Y29872D01*
X5899Y29998D01*
X5734Y30066D01*
X5557Y30067D01*
X5392Y29999D01*
X5267Y29873D01*
X5198Y29709D01*
X5198Y29531D01*
X5202Y29523D01*
X5142Y29499D01*
X5017Y29373D01*
X4948Y29209D01*
X4948Y29031D01*
X5016Y28867D01*
X5142Y28741D01*
X5306Y28673D01*
X5484Y28673D01*
X5605Y28723D01*
X6836Y27492D01*
X6836Y19066D01*
X6807Y19067D01*
X6642Y18999D01*
X6631Y18988D01*
X6631Y21370D01*
X6626Y21396D01*
X6628Y21423D01*
X6608Y21489D01*
X6594Y21556D01*
X6579Y21578D01*
X6571Y21604D01*
X6527Y21656D01*
X6489Y21713D01*
X6466Y21728D01*
X6449Y21749D01*
X5460Y22540D01*
X5460Y22676D01*
X5374Y22884D01*
X5216Y23043D01*
X5008Y23129D01*
X4783Y23130D01*
X4694Y23093D01*
X4694Y30231D01*
X4609Y30439D01*
X4450Y30598D01*
X4242Y30684D01*
X4018Y30685D01*
X3810Y30599D01*
X3651Y30440D01*
X3565Y30232D01*
X3564Y30008D01*
X3650Y29800D01*
X3809Y29641D01*
X4017Y29555D01*
X4241Y29555D01*
X4449Y29640D01*
X4608Y29799D01*
X4694Y30007D01*
X4694Y30231D01*
X4694Y23093D01*
X4576Y23044D01*
X4416Y22885D01*
X4330Y22677D01*
X4330Y22453D01*
X4416Y22245D01*
X4438Y22223D01*
X4446Y22184D01*
X4461Y22161D01*
X4469Y22135D01*
X4513Y22083D01*
X4551Y22026D01*
X4574Y22011D01*
X4591Y21990D01*
X5659Y21136D01*
X5659Y18370D01*
X5696Y18184D01*
X5801Y18026D01*
X6301Y17526D01*
X6459Y17420D01*
X6645Y17383D01*
X10145Y17383D01*
X10431Y17383D01*
X10365Y17195D01*
X10377Y16987D01*
X10435Y16847D01*
X10527Y16822D01*
X10824Y17120D01*
X10819Y17125D01*
X10890Y17196D01*
X10895Y17190D01*
X10901Y17196D01*
X10971Y17125D01*
X10966Y17120D01*
X11263Y16822D01*
X11356Y16847D01*
X11394Y16957D01*
X11450Y16823D01*
X11597Y16675D01*
X11790Y16595D01*
X11999Y16594D01*
X12192Y16674D01*
X12340Y16822D01*
X12420Y17015D01*
X12420Y17224D01*
X12354Y17383D01*
X14395Y17383D01*
X14581Y17420D01*
X14739Y17526D01*
X14844Y17684D01*
X14881Y17870D01*
X14881Y15005D01*
X14734Y15066D01*
X14557Y15067D01*
X14392Y14999D01*
X14267Y14873D01*
X14198Y14709D01*
X14198Y14666D01*
X12599Y13066D01*
X12557Y13067D01*
X12420Y13010D01*
X12420Y14224D01*
X12341Y14417D01*
X12193Y14564D01*
X12000Y14644D01*
X11791Y14645D01*
X11598Y14565D01*
X11450Y14417D01*
X11395Y14284D01*
X11341Y14417D01*
X11193Y14564D01*
X11192Y14565D01*
X11192Y16752D01*
X10895Y17049D01*
X10598Y16752D01*
X10622Y16659D01*
X10819Y16590D01*
X11028Y16601D01*
X11168Y16659D01*
X11192Y16752D01*
X11192Y14565D01*
X11000Y14644D01*
X10791Y14645D01*
X10598Y14565D01*
X10450Y14417D01*
X10370Y14224D01*
X10370Y14016D01*
X10450Y13823D01*
X10597Y13675D01*
X10790Y13595D01*
X10999Y13594D01*
X11192Y13674D01*
X11340Y13822D01*
X11395Y13955D01*
X11450Y13823D01*
X11597Y13675D01*
X11790Y13595D01*
X11999Y13594D01*
X12192Y13674D01*
X12340Y13822D01*
X12420Y14015D01*
X12420Y14224D01*
X12420Y13010D01*
X12392Y12999D01*
X12267Y12873D01*
X12198Y12709D01*
X12198Y12531D01*
X12266Y12367D01*
X12392Y12241D01*
X12556Y12173D01*
X12734Y12173D01*
X12742Y12176D01*
X12766Y12117D01*
X12892Y11991D01*
X13056Y11923D01*
X13234Y11923D01*
X13398Y11991D01*
X13524Y12116D01*
X13592Y12280D01*
X13592Y12324D01*
X15191Y13923D01*
X15234Y13923D01*
X15398Y13991D01*
X15524Y14116D01*
X15592Y14280D01*
X15592Y14458D01*
X15592Y13281D01*
X15127Y12816D01*
X15057Y12817D01*
X14892Y12749D01*
X14767Y12623D01*
X14698Y12459D01*
X14698Y12281D01*
X14766Y12117D01*
X14892Y11991D01*
X15056Y11923D01*
X15234Y11923D01*
X15398Y11991D01*
X15524Y12116D01*
X15592Y12280D01*
X15592Y12352D01*
X16163Y12923D01*
X16234Y12923D01*
X16398Y12991D01*
X16524Y13116D01*
X16592Y13280D01*
X16592Y13458D01*
X16592Y11783D01*
X16505Y11820D01*
X16405Y11820D01*
X15785Y11820D01*
X15694Y11782D01*
X15623Y11711D01*
X15585Y11619D01*
X15585Y11603D01*
X15541Y11669D01*
X15359Y11791D01*
X15145Y11833D01*
X14931Y11791D01*
X14749Y11669D01*
X14645Y11514D01*
X14541Y11669D01*
X14359Y11791D01*
X14145Y11833D01*
X13931Y11791D01*
X13749Y11669D01*
X13645Y11514D01*
X13541Y11669D01*
X13359Y11791D01*
X13145Y11833D01*
X12931Y11791D01*
X12749Y11669D01*
X12645Y11514D01*
X12541Y11669D01*
X12359Y11791D01*
X12145Y11833D01*
X11931Y11791D01*
X11749Y11669D01*
X11645Y11514D01*
X11541Y11669D01*
X11359Y11791D01*
X11145Y11833D01*
X11022Y11809D01*
X11099Y11886D01*
X11192Y11924D01*
X11340Y12072D01*
X11420Y12265D01*
X11420Y12474D01*
X11341Y12667D01*
X11193Y12814D01*
X11000Y12894D01*
X10791Y12895D01*
X10598Y12815D01*
X10450Y12667D01*
X10411Y12573D01*
X9801Y11963D01*
X9696Y11806D01*
X9659Y11620D01*
X9659Y11534D01*
X9645Y11514D01*
X9643Y11520D01*
X9506Y11691D01*
X9425Y11735D01*
X9425Y12294D01*
X9414Y12502D01*
X9356Y12642D01*
X9263Y12667D01*
X9192Y12596D01*
X9192Y12737D01*
X9168Y12830D01*
X8971Y12899D01*
X8762Y12888D01*
X8622Y12830D01*
X8598Y12737D01*
X8895Y12440D01*
X9192Y12737D01*
X9192Y12596D01*
X8966Y12370D01*
X9263Y12072D01*
X9356Y12097D01*
X9425Y12294D01*
X9425Y11735D01*
X9313Y11796D01*
X9282Y11803D01*
X9195Y11755D01*
X9195Y11170D01*
X9203Y11170D01*
X9203Y11070D01*
X9195Y11070D01*
X9195Y10485D01*
X9282Y10437D01*
X9313Y10443D01*
X9506Y10548D01*
X9643Y10719D01*
X9645Y10725D01*
X9749Y10570D01*
X9931Y10448D01*
X10145Y10406D01*
X10359Y10448D01*
X10541Y10570D01*
X10645Y10726D01*
X10749Y10570D01*
X10931Y10448D01*
X11145Y10406D01*
X11359Y10448D01*
X11541Y10570D01*
X11645Y10726D01*
X11749Y10570D01*
X11931Y10448D01*
X12145Y10406D01*
X12359Y10448D01*
X12541Y10570D01*
X12645Y10726D01*
X12749Y10570D01*
X12931Y10448D01*
X13145Y10406D01*
X13359Y10448D01*
X13541Y10570D01*
X13645Y10726D01*
X13749Y10570D01*
X13931Y10448D01*
X14145Y10406D01*
X14359Y10448D01*
X14541Y10570D01*
X14645Y10726D01*
X14749Y10570D01*
X14931Y10448D01*
X15145Y10406D01*
X15359Y10448D01*
X15541Y10570D01*
X15585Y10636D01*
X15585Y10620D01*
X15623Y10528D01*
X15694Y10458D01*
X15785Y10420D01*
X15885Y10420D01*
X16505Y10420D01*
X16597Y10458D01*
X16667Y10528D01*
X16705Y10620D01*
X16705Y8273D01*
X16663Y8488D01*
X16541Y8669D01*
X16359Y8791D01*
X16145Y8833D01*
X15931Y8791D01*
X15749Y8669D01*
X15645Y8514D01*
X15541Y8669D01*
X15359Y8791D01*
X15145Y8833D01*
X14931Y8791D01*
X14749Y8669D01*
X14645Y8514D01*
X14541Y8669D01*
X14359Y8791D01*
X14145Y8833D01*
X13931Y8791D01*
X13749Y8669D01*
X13645Y8514D01*
X13541Y8669D01*
X13359Y8791D01*
X13145Y8833D01*
X12931Y8791D01*
X12749Y8669D01*
X12645Y8514D01*
X12541Y8669D01*
X12359Y8791D01*
X12145Y8833D01*
X11931Y8791D01*
X11749Y8669D01*
X11645Y8514D01*
X11541Y8669D01*
X11359Y8791D01*
X11145Y8833D01*
X10931Y8791D01*
X10749Y8669D01*
X10645Y8514D01*
X10643Y8520D01*
X10506Y8691D01*
X10313Y8796D01*
X10282Y8803D01*
X10195Y8755D01*
X10195Y8170D01*
X10203Y8170D01*
X10203Y8070D01*
X10195Y8070D01*
X10195Y7485D01*
X10282Y7437D01*
X10313Y7443D01*
X10506Y7548D01*
X10643Y7719D01*
X10645Y7725D01*
X10749Y7570D01*
X10852Y7501D01*
X10848Y7487D01*
X11145Y7190D01*
X11442Y7487D01*
X11439Y7501D01*
X11541Y7570D01*
X11645Y7726D01*
X11749Y7570D01*
X11931Y7448D01*
X12145Y7406D01*
X12359Y7448D01*
X12541Y7570D01*
X12645Y7726D01*
X12749Y7570D01*
X12931Y7448D01*
X13145Y7406D01*
X13359Y7448D01*
X13541Y7570D01*
X13645Y7726D01*
X13749Y7570D01*
X13931Y7448D01*
X14145Y7406D01*
X14359Y7448D01*
X14541Y7570D01*
X14645Y7726D01*
X14749Y7570D01*
X14931Y7448D01*
X15145Y7406D01*
X15359Y7448D01*
X15541Y7570D01*
X15645Y7726D01*
X15749Y7570D01*
X15931Y7448D01*
X16145Y7406D01*
X16359Y7448D01*
X16541Y7570D01*
X16663Y7752D01*
X16705Y7966D01*
X16705Y269D01*
X11675Y269D01*
X11675Y7044D01*
X11664Y7252D01*
X11606Y7392D01*
X11513Y7417D01*
X11216Y7120D01*
X11513Y6822D01*
X11606Y6847D01*
X11675Y7044D01*
X11675Y269D01*
X11442Y269D01*
X11442Y6752D01*
X11145Y7049D01*
X11074Y6978D01*
X11074Y7120D01*
X10777Y7417D01*
X10685Y7392D01*
X10615Y7195D01*
X10627Y6987D01*
X10685Y6847D01*
X10777Y6822D01*
X11074Y7120D01*
X11074Y6978D01*
X10848Y6752D01*
X10872Y6659D01*
X11069Y6590D01*
X11278Y6601D01*
X11418Y6659D01*
X11442Y6752D01*
X11442Y269D01*
X10675Y269D01*
X10675Y6044D01*
X10664Y6252D01*
X10606Y6392D01*
X10513Y6417D01*
X10442Y6346D01*
X10442Y6487D01*
X10418Y6580D01*
X10221Y6649D01*
X10095Y6643D01*
X10095Y7485D01*
X10095Y8070D01*
X10087Y8070D01*
X10087Y8170D01*
X10095Y8170D01*
X10095Y8755D01*
X10009Y8803D01*
X9977Y8796D01*
X9785Y8691D01*
X9647Y8520D01*
X9645Y8514D01*
X9541Y8669D01*
X9359Y8791D01*
X9192Y8824D01*
X9192Y12002D01*
X8895Y12299D01*
X8824Y12228D01*
X8824Y12370D01*
X8527Y12667D01*
X8435Y12642D01*
X8365Y12445D01*
X8377Y12237D01*
X8435Y12097D01*
X8527Y12072D01*
X8824Y12370D01*
X8824Y12228D01*
X8598Y12002D01*
X8622Y11909D01*
X8819Y11840D01*
X9028Y11851D01*
X9168Y11909D01*
X9192Y12002D01*
X9192Y8824D01*
X9145Y8833D01*
X9095Y8823D01*
X9095Y10485D01*
X9095Y11070D01*
X9087Y11070D01*
X9087Y11170D01*
X9095Y11170D01*
X9095Y11755D01*
X9009Y11803D01*
X8977Y11796D01*
X8785Y11691D01*
X8647Y11520D01*
X8645Y11514D01*
X8541Y11669D01*
X8359Y11791D01*
X8145Y11833D01*
X7931Y11791D01*
X7749Y11669D01*
X7645Y11514D01*
X7541Y11669D01*
X7359Y11791D01*
X7145Y11833D01*
X6931Y11791D01*
X6749Y11669D01*
X6645Y11514D01*
X6541Y11669D01*
X6359Y11791D01*
X6145Y11833D01*
X6092Y11823D01*
X6092Y11907D01*
X6608Y12423D01*
X6734Y12423D01*
X6898Y12491D01*
X7024Y12616D01*
X7092Y12780D01*
X7092Y12958D01*
X7092Y13958D01*
X7024Y14122D01*
X6899Y14248D01*
X6839Y14273D01*
X6842Y14280D01*
X6842Y14458D01*
X6774Y14622D01*
X6649Y14748D01*
X6484Y14816D01*
X6307Y14817D01*
X6142Y14749D01*
X6072Y14679D01*
X5460Y14679D01*
X5460Y20787D01*
X5374Y20994D01*
X5216Y21153D01*
X5008Y21240D01*
X4783Y21240D01*
X4576Y21154D01*
X4416Y20995D01*
X4330Y20788D01*
X4330Y20563D01*
X4416Y20355D01*
X4575Y20196D01*
X4782Y20110D01*
X5007Y20110D01*
X5215Y20195D01*
X5374Y20354D01*
X5460Y20562D01*
X5460Y20787D01*
X5460Y14679D01*
X4968Y14679D01*
X4899Y14748D01*
X4734Y14816D01*
X4557Y14817D01*
X4392Y14749D01*
X4267Y14623D01*
X4198Y14459D01*
X4198Y14281D01*
X4266Y14117D01*
X4392Y13991D01*
X4451Y13966D01*
X4448Y13959D01*
X4448Y13781D01*
X4516Y13617D01*
X4642Y13491D01*
X4806Y13423D01*
X4984Y13423D01*
X5148Y13491D01*
X5218Y13561D01*
X6322Y13561D01*
X6392Y13491D01*
X6556Y13423D01*
X6734Y13423D01*
X6898Y13491D01*
X7024Y13616D01*
X7092Y13780D01*
X7092Y13958D01*
X7092Y12958D01*
X7024Y13122D01*
X6899Y13248D01*
X6734Y13316D01*
X6557Y13317D01*
X6392Y13249D01*
X6267Y13123D01*
X6198Y12959D01*
X6198Y12832D01*
X5683Y12316D01*
X5557Y12317D01*
X5392Y12249D01*
X5267Y12123D01*
X5198Y11959D01*
X5198Y11823D01*
X5145Y11833D01*
X4931Y11791D01*
X4749Y11669D01*
X4645Y11514D01*
X4541Y11669D01*
X4359Y11791D01*
X4145Y11833D01*
X3931Y11791D01*
X3749Y11669D01*
X3645Y11514D01*
X3541Y11669D01*
X3420Y11750D01*
X3420Y26724D01*
X3341Y26917D01*
X3193Y27064D01*
X3000Y27144D01*
X2791Y27145D01*
X2726Y27118D01*
X2726Y30231D01*
X2640Y30439D01*
X2481Y30598D01*
X2454Y30609D01*
X2454Y37969D01*
X2321Y38293D01*
X2073Y38540D01*
X1750Y38675D01*
X1400Y38675D01*
X1077Y38541D01*
X829Y38294D01*
X695Y37971D01*
X694Y37621D01*
X828Y37297D01*
X1075Y37049D01*
X1399Y36915D01*
X1749Y36915D01*
X2072Y37048D01*
X2320Y37296D01*
X2454Y37619D01*
X2454Y37969D01*
X2454Y30609D01*
X2274Y30684D01*
X2049Y30685D01*
X1841Y30599D01*
X1682Y30440D01*
X1596Y30232D01*
X1596Y30008D01*
X1682Y29800D01*
X1840Y29641D01*
X2048Y29555D01*
X2273Y29555D01*
X2481Y29640D01*
X2640Y29799D01*
X2726Y30007D01*
X2726Y30231D01*
X2726Y27118D01*
X2598Y27065D01*
X2450Y26917D01*
X2370Y26724D01*
X2370Y26516D01*
X2450Y26323D01*
X2597Y26175D01*
X2790Y26095D01*
X2999Y26094D01*
X3192Y26174D01*
X3340Y26322D01*
X3420Y26515D01*
X3420Y26724D01*
X3420Y11750D01*
X3359Y11791D01*
X3145Y11833D01*
X3000Y11804D01*
X3000Y17005D01*
X3000Y18974D01*
X2952Y19088D01*
X2952Y24005D01*
X2952Y24104D01*
X2952Y24734D01*
X2914Y24826D01*
X2844Y24896D01*
X2752Y24935D01*
X2653Y24935D01*
X2023Y24935D01*
X1931Y24896D01*
X1860Y24826D01*
X1822Y24734D01*
X1822Y24689D01*
X1800Y24696D01*
X1729Y24625D01*
X1729Y24766D01*
X1700Y24863D01*
X1488Y24939D01*
X1425Y24936D01*
X1425Y26544D01*
X1414Y26752D01*
X1356Y26892D01*
X1263Y26917D01*
X1192Y26846D01*
X1192Y26987D01*
X1168Y27080D01*
X971Y27149D01*
X762Y27138D01*
X622Y27080D01*
X598Y26987D01*
X895Y26690D01*
X1192Y26987D01*
X1192Y26846D01*
X966Y26620D01*
X1263Y26322D01*
X1356Y26347D01*
X1425Y26544D01*
X1425Y24936D01*
X1264Y24929D01*
X1192Y24899D01*
X1192Y26252D01*
X895Y26549D01*
X824Y26478D01*
X824Y26620D01*
X527Y26917D01*
X435Y26892D01*
X365Y26695D01*
X377Y26487D01*
X435Y26347D01*
X527Y26322D01*
X824Y26620D01*
X824Y26478D01*
X598Y26252D01*
X622Y26159D01*
X819Y26090D01*
X1028Y26101D01*
X1168Y26159D01*
X1192Y26252D01*
X1192Y24899D01*
X1106Y24863D01*
X1077Y24766D01*
X1403Y24440D01*
X1729Y24766D01*
X1729Y24625D01*
X1474Y24370D01*
X1800Y24044D01*
X1822Y24050D01*
X1822Y24005D01*
X1860Y23913D01*
X1931Y23843D01*
X2023Y23805D01*
X2122Y23805D01*
X2752Y23805D01*
X2844Y23843D01*
X2914Y23913D01*
X2952Y24005D01*
X2952Y19088D01*
X2920Y19166D01*
X2920Y21724D01*
X2841Y21917D01*
X2693Y22064D01*
X2500Y22144D01*
X2291Y22145D01*
X2098Y22065D01*
X1950Y21917D01*
X1898Y21791D01*
X1856Y21892D01*
X1763Y21917D01*
X1729Y21883D01*
X1729Y23973D01*
X1403Y24299D01*
X1332Y24228D01*
X1332Y24370D01*
X1006Y24696D01*
X909Y24666D01*
X833Y24455D01*
X844Y24230D01*
X909Y24073D01*
X1006Y24044D01*
X1332Y24370D01*
X1332Y24228D01*
X1077Y23973D01*
X1106Y23876D01*
X1318Y23800D01*
X1542Y23811D01*
X1700Y23876D01*
X1729Y23973D01*
X1729Y21883D01*
X1692Y21846D01*
X1692Y21987D01*
X1668Y22080D01*
X1471Y22149D01*
X1262Y22138D01*
X1122Y22080D01*
X1098Y21987D01*
X1395Y21690D01*
X1692Y21987D01*
X1692Y21846D01*
X1466Y21620D01*
X1763Y21322D01*
X1856Y21347D01*
X1894Y21457D01*
X1950Y21323D01*
X2097Y21175D01*
X2170Y21145D01*
X2070Y21145D01*
X1979Y21107D01*
X1908Y21036D01*
X1870Y20944D01*
X1870Y20845D01*
X1870Y20295D01*
X1908Y20203D01*
X1979Y20133D01*
X2070Y20095D01*
X2170Y20095D01*
X2720Y20095D01*
X2812Y20133D01*
X2882Y20203D01*
X2920Y20295D01*
X2920Y20394D01*
X2920Y20944D01*
X2882Y21036D01*
X2812Y21107D01*
X2720Y21145D01*
X2620Y21145D01*
X2620Y21145D01*
X2692Y21174D01*
X2840Y21322D01*
X2920Y21515D01*
X2920Y21724D01*
X2920Y19166D01*
X2908Y19196D01*
X2738Y19366D01*
X2516Y19458D01*
X2275Y19458D01*
X2053Y19366D01*
X1883Y19197D01*
X1791Y18975D01*
X1791Y18734D01*
X1883Y18512D01*
X2052Y18342D01*
X2274Y18250D01*
X2515Y18249D01*
X2737Y18341D01*
X2907Y18511D01*
X2999Y18733D01*
X3000Y18974D01*
X3000Y17005D01*
X2908Y17227D01*
X2738Y17397D01*
X2516Y17490D01*
X2275Y17490D01*
X2053Y17398D01*
X1883Y17228D01*
X1791Y17006D01*
X1791Y16766D01*
X1883Y16543D01*
X2052Y16373D01*
X2274Y16281D01*
X2515Y16281D01*
X2737Y16373D01*
X2907Y16543D01*
X2999Y16765D01*
X3000Y17005D01*
X3000Y11804D01*
X2952Y11795D01*
X2952Y13255D01*
X2952Y13354D01*
X2952Y13984D01*
X2914Y14076D01*
X2844Y14146D01*
X2752Y14185D01*
X2653Y14185D01*
X2023Y14185D01*
X1931Y14146D01*
X1860Y14076D01*
X1822Y13984D01*
X1822Y13939D01*
X1800Y13946D01*
X1729Y13875D01*
X1729Y14016D01*
X1700Y14113D01*
X1692Y14116D01*
X1692Y21252D01*
X1395Y21549D01*
X1324Y21478D01*
X1324Y21620D01*
X1027Y21917D01*
X935Y21892D01*
X865Y21695D01*
X877Y21487D01*
X935Y21347D01*
X1027Y21322D01*
X1324Y21620D01*
X1324Y21478D01*
X1098Y21252D01*
X1122Y21159D01*
X1319Y21090D01*
X1528Y21101D01*
X1668Y21159D01*
X1692Y21252D01*
X1692Y14116D01*
X1488Y14189D01*
X1264Y14179D01*
X1106Y14113D01*
X1077Y14016D01*
X1403Y13690D01*
X1729Y14016D01*
X1729Y13875D01*
X1474Y13620D01*
X1800Y13294D01*
X1822Y13300D01*
X1822Y13255D01*
X1860Y13163D01*
X1931Y13093D01*
X2023Y13055D01*
X2122Y13055D01*
X2752Y13055D01*
X2844Y13093D01*
X2914Y13163D01*
X2952Y13255D01*
X2952Y11795D01*
X2931Y11791D01*
X2749Y11669D01*
X2628Y11488D01*
X2585Y11273D01*
X2585Y10966D01*
X2628Y10752D01*
X2749Y10570D01*
X2931Y10448D01*
X3145Y10406D01*
X3359Y10448D01*
X3541Y10570D01*
X3645Y10726D01*
X3749Y10570D01*
X3931Y10448D01*
X4145Y10406D01*
X4359Y10448D01*
X4541Y10570D01*
X4645Y10726D01*
X4749Y10570D01*
X4931Y10448D01*
X5145Y10406D01*
X5359Y10448D01*
X5541Y10570D01*
X5645Y10726D01*
X5749Y10570D01*
X5931Y10448D01*
X6145Y10406D01*
X6359Y10448D01*
X6541Y10570D01*
X6645Y10726D01*
X6749Y10570D01*
X6931Y10448D01*
X7145Y10406D01*
X7359Y10448D01*
X7541Y10570D01*
X7645Y10726D01*
X7749Y10570D01*
X7931Y10448D01*
X8145Y10406D01*
X8359Y10448D01*
X8541Y10570D01*
X8645Y10725D01*
X8647Y10719D01*
X8785Y10548D01*
X8977Y10443D01*
X9009Y10437D01*
X9095Y10485D01*
X9095Y8823D01*
X8931Y8791D01*
X8749Y8669D01*
X8645Y8514D01*
X8541Y8669D01*
X8359Y8791D01*
X8145Y8833D01*
X7931Y8791D01*
X7749Y8669D01*
X7645Y8514D01*
X7541Y8669D01*
X7359Y8791D01*
X7145Y8833D01*
X6931Y8791D01*
X6749Y8669D01*
X6645Y8514D01*
X6541Y8669D01*
X6359Y8791D01*
X6145Y8833D01*
X5931Y8791D01*
X5749Y8669D01*
X5645Y8514D01*
X5541Y8669D01*
X5359Y8791D01*
X5145Y8833D01*
X4931Y8791D01*
X4749Y8669D01*
X4645Y8514D01*
X4541Y8669D01*
X4359Y8791D01*
X4145Y8833D01*
X3931Y8791D01*
X3749Y8669D01*
X3645Y8514D01*
X3541Y8669D01*
X3359Y8791D01*
X3145Y8833D01*
X2931Y8791D01*
X2749Y8669D01*
X2628Y8488D01*
X2585Y8273D01*
X2585Y7966D01*
X2628Y7752D01*
X2749Y7570D01*
X2931Y7448D01*
X3145Y7406D01*
X3359Y7448D01*
X3541Y7570D01*
X3645Y7726D01*
X3749Y7570D01*
X3931Y7448D01*
X4145Y7406D01*
X4359Y7448D01*
X4541Y7570D01*
X4645Y7726D01*
X4749Y7570D01*
X4931Y7448D01*
X5145Y7406D01*
X5359Y7448D01*
X5541Y7570D01*
X5645Y7726D01*
X5749Y7570D01*
X5931Y7448D01*
X6145Y7406D01*
X6359Y7448D01*
X6541Y7570D01*
X6645Y7726D01*
X6749Y7570D01*
X6931Y7448D01*
X7145Y7406D01*
X7359Y7448D01*
X7541Y7570D01*
X7645Y7726D01*
X7749Y7570D01*
X7931Y7448D01*
X8145Y7406D01*
X8359Y7448D01*
X8541Y7570D01*
X8645Y7726D01*
X8749Y7570D01*
X8811Y7528D01*
X8700Y7417D01*
X8620Y7224D01*
X8620Y7016D01*
X8700Y6823D01*
X8847Y6675D01*
X9040Y6595D01*
X9249Y6594D01*
X9442Y6674D01*
X9590Y6822D01*
X9670Y7015D01*
X9670Y7224D01*
X9591Y7417D01*
X9479Y7528D01*
X9541Y7570D01*
X9645Y7725D01*
X9647Y7719D01*
X9785Y7548D01*
X9977Y7443D01*
X10009Y7437D01*
X10095Y7485D01*
X10095Y6643D01*
X10012Y6638D01*
X9872Y6580D01*
X9848Y6487D01*
X10145Y6190D01*
X10442Y6487D01*
X10442Y6346D01*
X10216Y6120D01*
X10513Y5822D01*
X10606Y5847D01*
X10675Y6044D01*
X10675Y269D01*
X10442Y269D01*
X10442Y5752D01*
X10145Y6049D01*
X10074Y5978D01*
X10074Y6120D01*
X9777Y6417D01*
X9685Y6392D01*
X9615Y6195D01*
X9627Y5987D01*
X9685Y5847D01*
X9777Y5822D01*
X10074Y6120D01*
X10074Y5978D01*
X9848Y5752D01*
X9872Y5659D01*
X10069Y5590D01*
X10278Y5601D01*
X10418Y5659D01*
X10442Y5752D01*
X10442Y269D01*
X8670Y269D01*
X8670Y6224D01*
X8591Y6417D01*
X8443Y6564D01*
X8250Y6644D01*
X8041Y6645D01*
X7848Y6565D01*
X7700Y6417D01*
X7620Y6224D01*
X7620Y6016D01*
X7700Y5823D01*
X7847Y5675D01*
X8040Y5595D01*
X8249Y5594D01*
X8442Y5674D01*
X8590Y5822D01*
X8670Y6015D01*
X8670Y6224D01*
X8670Y269D01*
X3242Y269D01*
X3242Y6867D01*
X3108Y7190D01*
X2861Y7438D01*
X2537Y7572D01*
X2187Y7572D01*
X1864Y7439D01*
X1729Y7304D01*
X1729Y13223D01*
X1403Y13549D01*
X1332Y13478D01*
X1332Y13620D01*
X1006Y13946D01*
X909Y13916D01*
X833Y13705D01*
X844Y13480D01*
X909Y13323D01*
X1006Y13294D01*
X1332Y13620D01*
X1332Y13478D01*
X1077Y13223D01*
X1106Y13126D01*
X1318Y13050D01*
X1542Y13061D01*
X1700Y13126D01*
X1729Y13223D01*
X1729Y7304D01*
X1616Y7191D01*
X1482Y6868D01*
X1482Y6518D01*
X1615Y6195D01*
X1863Y5947D01*
X2186Y5813D01*
X2536Y5812D01*
X2859Y5946D01*
X3107Y6193D01*
X3241Y6517D01*
X3242Y6867D01*
X3242Y269D01*
X269Y269D01*
X269Y1832D01*
X325Y1832D01*
X1900Y1832D01*
X1992Y1870D01*
X2062Y1941D01*
X2100Y2032D01*
X2100Y2132D01*
X2100Y3707D01*
X2062Y3799D01*
X1992Y3869D01*
X1900Y3907D01*
X1800Y3907D01*
X269Y3907D01*
X269Y39100D01*
X19021Y39100D01*
X19021Y36382D01*
X18887Y36706D01*
X18596Y36999D01*
X18214Y37157D01*
X17802Y37157D01*
X17420Y37000D01*
X17128Y36708D01*
X16970Y36327D01*
X16970Y35914D01*
X17127Y35533D01*
X17419Y35241D01*
X17800Y35082D01*
X18213Y35082D01*
X18594Y35240D01*
X18886Y35531D01*
X19021Y35856D01*
X19021Y3907D01*
X18596Y3907D01*
X18596Y6867D01*
X18596Y31670D01*
X18462Y31993D01*
X18215Y32241D01*
X17892Y32375D01*
X17542Y32376D01*
X17218Y32242D01*
X16971Y31995D01*
X16836Y31671D01*
X16836Y31321D01*
X16970Y30998D01*
X17217Y30750D01*
X17540Y30616D01*
X17890Y30615D01*
X18214Y30749D01*
X18462Y30996D01*
X18596Y31320D01*
X18596Y31670D01*
X18596Y6867D01*
X18462Y7190D01*
X18420Y7232D01*
X18420Y25974D01*
X18420Y28974D01*
X18341Y29167D01*
X18193Y29314D01*
X18000Y29394D01*
X17791Y29395D01*
X17598Y29315D01*
X17450Y29167D01*
X17395Y29034D01*
X17341Y29167D01*
X17193Y29314D01*
X17000Y29394D01*
X16791Y29395D01*
X16695Y29355D01*
X16695Y34379D01*
X16612Y34581D01*
X16529Y34663D01*
X16611Y34745D01*
X16695Y34947D01*
X16695Y35166D01*
X16612Y35368D01*
X16457Y35523D01*
X16255Y35606D01*
X16036Y35607D01*
X15834Y35523D01*
X15679Y35369D01*
X15648Y35293D01*
X15626Y35344D01*
X15531Y35372D01*
X15460Y35301D01*
X15460Y35442D01*
X15433Y35538D01*
X15227Y35611D01*
X15008Y35600D01*
X14857Y35538D01*
X14830Y35442D01*
X15145Y35127D01*
X15460Y35442D01*
X15460Y35301D01*
X15216Y35057D01*
X15531Y34741D01*
X15626Y34769D01*
X15646Y34824D01*
X15679Y34745D01*
X15761Y34663D01*
X15679Y34582D01*
X15645Y34500D01*
X15612Y34581D01*
X15457Y34736D01*
X15352Y34779D01*
X15145Y34986D01*
X15074Y34915D01*
X15074Y35057D01*
X14759Y35372D01*
X14664Y35344D01*
X14590Y35138D01*
X14601Y34920D01*
X14664Y34769D01*
X14759Y34741D01*
X15074Y35057D01*
X15074Y34915D01*
X14939Y34779D01*
X14834Y34736D01*
X14679Y34582D01*
X14595Y34379D01*
X14595Y34161D01*
X14679Y33958D01*
X14833Y33804D01*
X15035Y33720D01*
X15254Y33719D01*
X15456Y33803D01*
X15611Y33958D01*
X15645Y34039D01*
X15679Y33958D01*
X15833Y33804D01*
X16035Y33720D01*
X16254Y33719D01*
X16456Y33803D01*
X16611Y33958D01*
X16695Y34160D01*
X16695Y34379D01*
X16695Y29355D01*
X16598Y29315D01*
X16450Y29167D01*
X16370Y28974D01*
X16370Y28766D01*
X16450Y28573D01*
X16597Y28425D01*
X16790Y28345D01*
X16999Y28344D01*
X17192Y28424D01*
X17340Y28572D01*
X17395Y28705D01*
X17450Y28573D01*
X17597Y28425D01*
X17790Y28345D01*
X17999Y28344D01*
X18192Y28424D01*
X18340Y28572D01*
X18420Y28765D01*
X18420Y28974D01*
X18420Y25974D01*
X18341Y26167D01*
X18193Y26314D01*
X18000Y26394D01*
X17791Y26395D01*
X17598Y26315D01*
X17450Y26167D01*
X17395Y26034D01*
X17341Y26167D01*
X17193Y26314D01*
X17000Y26394D01*
X16791Y26395D01*
X16598Y26315D01*
X16450Y26167D01*
X16370Y25974D01*
X16370Y25766D01*
X16450Y25573D01*
X16597Y25425D01*
X16790Y25345D01*
X16999Y25344D01*
X17192Y25424D01*
X17340Y25572D01*
X17395Y25705D01*
X17450Y25573D01*
X17597Y25425D01*
X17790Y25345D01*
X17999Y25344D01*
X18192Y25424D01*
X18340Y25572D01*
X18420Y25765D01*
X18420Y25974D01*
X18420Y7232D01*
X18215Y7438D01*
X17892Y7572D01*
X17542Y7572D01*
X17218Y7439D01*
X16971Y7191D01*
X16836Y6868D01*
X16836Y6518D01*
X16970Y6195D01*
X17217Y5947D01*
X17540Y5813D01*
X17890Y5812D01*
X18214Y5946D01*
X18462Y6193D01*
X18596Y6517D01*
X18596Y6867D01*
X18596Y3907D01*
X18340Y3907D01*
X18278Y3844D01*
X18278Y2920D01*
X18286Y2920D01*
X18286Y2820D01*
X18278Y2820D01*
X18278Y1895D01*
X18340Y1832D01*
X19021Y1832D01*
X19021Y269D01*
M02*
